%!PS-Adobe-3.0 EPSF-3.0
%%BoundingBox: (atend)
%%LanguageLevel: 2
%%Creator: Grace-5.1.25
%%CreationDate: Mon Dec 18 05:47:22 2017
%%DocumentData: Clean8Bit
%%Orientation: Portrait
%%Title: fort.29.wrk
%%For: digvijay
%%DocumentNeededResources: (atend)
%%EndComments
%%BeginProlog
/m {moveto} def
/l {lineto} def
/s {stroke} def
/n {newpath} def
/c {closepath} def
/RL {rlineto} def
/SLW {setlinewidth} def
/GS {gsave} def
/GR {grestore} def
/SC {setcolor} def
/SGRY {setgray} def
/SRGB {setrgbcolor} def
/SD {setdash} def
/SLC {setlinecap} def
/SLJ {setlinejoin} def
/SCS {setcolorspace} def
/FFSF {findfont setfont} def
/CC {concat} def
/PXL {n m 0 0 RL s} def
/Color0 {1.0000 1.0000 1.0000} def
/Color1 {0.0000 0.0000 0.0000} def
/Color2 {1.0000 0.0000 0.0000} def
/Color3 {0.0000 1.0000 0.0000} def
/Color4 {0.0000 0.0000 1.0000} def
/Color5 {1.0000 1.0000 0.0000} def
/Color6 {0.7373 0.5608 0.5608} def
/Color7 {0.8627 0.8627 0.8627} def
/Color8 {0.5804 0.0000 0.8275} def
/Color9 {0.0000 1.0000 1.0000} def
/Color10 {1.0000 0.0000 1.0000} def
/Color11 {1.0000 0.6471 0.0000} def
/Color12 {0.4471 0.1294 0.7373} def
/Color13 {0.4039 0.0275 0.2824} def
/Color14 {0.2510 0.8784 0.8157} def
/Color15 {0.0000 0.5451 0.0000} def
/PTRN {
 /pat_bits exch def 
 <<
  /PaintType 2
  /PatternType 1 /TilingType 1
  /BBox[0 0 16 16]
  /XStep 16 /YStep 16
  /PaintProc {
   pop
   16 16 true [-1 0 0 -1 16 16] pat_bits imagemask
  }
 >>
 [0.0017 0 0 0.0017 0 0]
 makepattern
} def
/Pattern0 {<0000000000000000000000000000000000000000000000000000000000000000> PTRN} bind def
/Pattern1 {<ffffffffffffffffffffffffffffffffffffffffffffffffffffffffffffffff> PTRN} bind def
/Pattern2 {<eeeeffffbbbbffffeeeeffffbbbbffffeeeeffffbbbbffffeeeeffffbbbbffff> PTRN} bind def
/Pattern3 {<eeeebbbbeeeebbbbeeeebbbbeeeebbbbeeeebbbbeeeebbbbeeeebbbbeeeebbbb> PTRN} bind def
/Pattern4 {<5555aaaa5555aaaa5555aaaa5555aaaa5555aaaa5555aaaa5555aaaa5555aaaa> PTRN} bind def
/Pattern5 {<1111444411114444111144441111444411114444111144441111444411114444> PTRN} bind def
/Pattern6 {<1111000044440000111100004444000011110000444400001111000044440000> PTRN} bind def
/Pattern7 {<1010000000000000010100000000000010100000000000000101000000000000> PTRN} bind def
/Pattern8 {<0000000000000000000000000000000000000000000000000000000000000000> PTRN} bind def
/Pattern9 {<1e1e0f0f8787c3c3e1e1f0f078783c3c1e1e0f0f8787c3c3e1e1f0f078783c3c> PTRN} bind def
/Pattern10 {<7878f0f0e1e1c3c387870f0f1e1e3c3c7878f0f0e1e1c3c387870f0f1e1e3c3c> PTRN} bind def
/Pattern11 {<3333333333333333333333333333333333333333333333333333333333333333> PTRN} bind def
/Pattern12 {<ffffffff00000000ffffffff00000000ffffffff00000000ffffffff00000000> PTRN} bind def
/Pattern13 {<8181424224241818181824244242818181814242242418181818242442428181> PTRN} bind def
/Pattern14 {<8080404020201010080804040202010180804040202010100808040402020101> PTRN} bind def
/Pattern15 {<0101020204040808101020204040808001010202040408081010202040408080> PTRN} bind def
/Pattern16 {<2222222222222222222222222222222222222222222222222222222222222222> PTRN} bind def
/Pattern17 {<0000ffff000000000000ffff000000000000ffff000000000000ffff00000000> PTRN} bind def
/Pattern18 {<2222ffff222222222222ffff222222222222ffff222222222222ffff22222222> PTRN} bind def
/Pattern19 {<ffffffff33333333ffffffff33333333ffffffff33333333ffffffff33333333> PTRN} bind def
/Pattern20 {<0f0f0f0f0f0f0f0ff0f0f0f0f0f0f0f00f0f0f0f0f0f0f0ff0f0f0f0f0f0f0f0> PTRN} bind def
/Pattern21 {<ff00ff00ff00ff00ff00ff00ff00ff0000ff00ff00ff00ff00ff00ff00ff00ff> PTRN} bind def
/Pattern22 {<8001800180018001800180018001ffffffff8001800180018001800180018001> PTRN} bind def
/Pattern23 {<c003c003c003c003c003c003ffffffffffffffffc003c003c003c003c003c003> PTRN} bind def
/Pattern24 {<040404040404ffff404040404040ffff040404040404ffff404040404040ffff> PTRN} bind def
/Pattern25 {<180018001800180018001800ffffffff001800180018001800180018ffffffff> PTRN} bind def
/Pattern26 {<1111b8b87c7c3a3a1111a3a3c7c78b8b1111b8b87c7c3a3a1111a3a3c7c78b8b> PTRN} bind def
/Pattern27 {<101010102828c7c70101010182827c7c101010102828c7c70101010182827c7c> PTRN} bind def
/Pattern28 {<1c1c121211112121c1c12121111112121c1c121211112121c1c1212111111212> PTRN} bind def
/Pattern29 {<3e3e414180808080e3e31414080808083e3e414180808080e3e3141408080808> PTRN} bind def
/Pattern30 {<4848888884848383848488884848383848488888848483838484888848483838> PTRN} bind def
/Pattern31 {<03030404080808080c0c12122121c0c003030404080808080c0c12122121c0c0> PTRN} bind def
/ellipsedict 8 dict def
ellipsedict /mtrx matrix put
/EARC {
 ellipsedict begin
  /endangle exch def
  /startangle exch def
  /yrad exch def
  /xrad exch def
  /y exch def
  /x exch def
  /savematrix mtrx currentmatrix def
  x y translate
  xrad yrad scale
  0 0 1 startangle endangle arc
  savematrix setmatrix
 end
} def
/TL {
  /kcomp exch def
  /linewidth exch def
  /offset exch def
  GS
  0 offset rmoveto
  linewidth SLW
  dup stringwidth exch kcomp add exch RL s
  GR
} def
/KINIT
{
 /kvector exch def
 /kid 0 def
} def
/KPROC
{
 pop pop
 kvector kid get
 0 rmoveto
 /kid 1 kid add def
} def
/DefEncoding [
 /.notdef
 /.notdef
 /.notdef
 /.notdef
 /.notdef
 /.notdef
 /.notdef
 /.notdef
 /.notdef
 /.notdef
 /.notdef
 /.notdef
 /.notdef
 /.notdef
 /.notdef
 /.notdef
 /.notdef
 /.notdef
 /.notdef
 /.notdef
 /.notdef
 /.notdef
 /.notdef
 /.notdef
 /.notdef
 /.notdef
 /.notdef
 /.notdef
 /.notdef
 /.notdef
 /.notdef
 /.notdef
 /space
 /exclam
 /quotedbl
 /numbersign
 /dollar
 /percent
 /ampersand
 /quoteright
 /parenleft
 /parenright
 /asterisk
 /plus
 /comma
 /hyphen
 /period
 /slash
 /zero
 /one
 /two
 /three
 /four
 /five
 /six
 /seven
 /eight
 /nine
 /colon
 /semicolon
 /less
 /equal
 /greater
 /question
 /at
 /A
 /B
 /C
 /D
 /E
 /F
 /G
 /H
 /I
 /J
 /K
 /L
 /M
 /N
 /O
 /P
 /Q
 /R
 /S
 /T
 /U
 /V
 /W
 /X
 /Y
 /Z
 /bracketleft
 /backslash
 /bracketright
 /asciicircum
 /underscore
 /grave
 /a
 /b
 /c
 /d
 /e
 /f
 /g
 /h
 /i
 /j
 /k
 /l
 /m
 /n
 /o
 /p
 /q
 /r
 /s
 /t
 /u
 /v
 /w
 /x
 /y
 /z
 /braceleft
 /bar
 /braceright
 /asciitilde
 /.notdef
 /.notdef
 /.notdef
 /.notdef
 /.notdef
 /.notdef
 /.notdef
 /.notdef
 /.notdef
 /.notdef
 /.notdef
 /.notdef
 /.notdef
 /.notdef
 /.notdef
 /.notdef
 /.notdef
 /.notdef
 /.notdef
 /.notdef
 /.notdef
 /.notdef
 /.notdef
 /.notdef
 /.notdef
 /.notdef
 /.notdef
 /.notdef
 /.notdef
 /.notdef
 /.notdef
 /.notdef
 /.notdef
 /space
 /exclamdown
 /cent
 /sterling
 /currency
 /yen
 /brokenbar
 /section
 /dieresis
 /copyright
 /ordfeminine
 /guillemotleft
 /logicalnot
 /hyphen
 /registered
 /macron
 /degree
 /plusminus
 /twosuperior
 /threesuperior
 /acute
 /mu
 /paragraph
 /periodcentered
 /cedilla
 /onesuperior
 /ordmasculine
 /guillemotright
 /onequarter
 /onehalf
 /threequarters
 /questiondown
 /Agrave
 /Aacute
 /Acircumflex
 /Atilde
 /Adieresis
 /Aring
 /AE
 /Ccedilla
 /Egrave
 /Eacute
 /Ecircumflex
 /Edieresis
 /Igrave
 /Iacute
 /Icircumflex
 /Idieresis
 /Eth
 /Ntilde
 /Ograve
 /Oacute
 /Ocircumflex
 /Otilde
 /Odieresis
 /multiply
 /Oslash
 /Ugrave
 /Uacute
 /Ucircumflex
 /Udieresis
 /Yacute
 /Thorn
 /germandbls
 /agrave
 /aacute
 /acircumflex
 /atilde
 /adieresis
 /aring
 /ae
 /ccedilla
 /egrave
 /eacute
 /ecircumflex
 /edieresis
 /igrave
 /iacute
 /icircumflex
 /idieresis
 /eth
 /ntilde
 /ograve
 /oacute
 /ocircumflex
 /otilde
 /odieresis
 /divide
 /oslash
 /ugrave
 /uacute
 /ucircumflex
 /udieresis
 /yacute
 /thorn
 /ydieresis
] def
%%EndProlog
%%BeginSetup
%%EndSetup
594.96 594.96 scale
n
0.0000 0.0000 m
0.0000 1.0000 l
1.4151 1.0000 l
1.4151 0.0000 l
c
[/DeviceRGB] SCS
Color0 SC
fill
[/DeviceRGB] SCS
Color1 SC
[0.0015 0.0045 ] 0 SD
0.0015 SLW
0 SLC
0 SLJ
n
0.1729 0.1500 m
0.1729 0.8500 l
s
n
0.3731 0.1500 m
0.3731 0.8500 l
s
n
0.5733 0.1500 m
0.5733 0.8500 l
s
n
0.7735 0.1500 m
0.7735 0.8500 l
s
n
0.9737 0.1500 m
0.9737 0.8500 l
s
n
0.1500 0.2533 m
1.1500 0.2533 l
s
n
0.1500 0.3933 m
1.1500 0.3933 l
s
n
0.1500 0.5333 m
1.1500 0.5333 l
s
n
0.1500 0.6733 m
1.1500 0.6733 l
s
n
0.1500 0.8133 m
1.1500 0.8133 l
s
[/DeviceRGB] SCS
Color2 SC
[] 0 SD
0.0015 SLW
n
0.1738 0.3840 m
0.1748 0.3840 l
0.1757 0.3840 l
0.1767 0.3840 l
0.1776 0.3840 l
0.1786 0.3840 l
0.1795 0.3840 l
0.1805 0.3840 l
0.1814 0.3840 l
0.1824 0.3839 l
0.1833 0.3839 l
0.1843 0.3839 l
0.1852 0.3839 l
0.1862 0.3839 l
0.1872 0.3839 l
0.1881 0.3839 l
0.1891 0.3839 l
0.1900 0.3838 l
0.1910 0.3838 l
0.1919 0.3838 l
0.1929 0.3838 l
0.1938 0.3837 l
0.1948 0.3837 l
0.1957 0.3837 l
0.1967 0.3837 l
0.1976 0.3836 l
0.1986 0.3836 l
0.1995 0.3836 l
0.2005 0.3835 l
0.2015 0.3835 l
0.2024 0.3835 l
0.2034 0.3834 l
0.2043 0.3834 l
0.2053 0.3834 l
0.2062 0.3833 l
0.2072 0.3833 l
0.2081 0.3832 l
0.2091 0.3832 l
0.2100 0.3831 l
0.2110 0.3831 l
0.2119 0.3830 l
0.2129 0.3830 l
0.2138 0.3829 l
0.2148 0.3829 l
0.2158 0.3828 l
0.2167 0.3828 l
0.2177 0.3827 l
0.2186 0.3826 l
0.2196 0.3826 l
0.2205 0.3825 l
0.2215 0.3824 l
0.2224 0.3824 l
0.2234 0.3823 l
0.2243 0.3822 l
0.2253 0.3821 l
0.2262 0.3820 l
0.2272 0.3819 l
0.2281 0.3819 l
0.2291 0.3818 l
0.2301 0.3817 l
0.2310 0.3816 l
0.2320 0.3815 l
0.2329 0.3814 l
0.2339 0.3812 l
0.2348 0.3811 l
0.2358 0.3810 l
0.2367 0.3809 l
0.2377 0.3808 l
0.2386 0.3806 l
0.2396 0.3805 l
0.2405 0.3804 l
0.2415 0.3802 l
0.2424 0.3801 l
0.2434 0.3799 l
0.2444 0.3797 l
0.2453 0.3796 l
0.2463 0.3794 l
0.2472 0.3792 l
0.2482 0.3790 l
0.2491 0.3788 l
0.2501 0.3786 l
0.2510 0.3784 l
0.2520 0.3781 l
0.2529 0.3779 l
0.2539 0.3777 l
0.2548 0.3774 l
0.2558 0.3771 l
0.2567 0.3768 l
0.2577 0.3765 l
0.2587 0.3762 l
0.2596 0.3759 l
0.2606 0.3756 l
0.2615 0.3752 l
0.2625 0.3748 l
0.2634 0.3744 l
0.2644 0.3740 l
0.2653 0.3735 l
0.2663 0.3730 l
0.2672 0.3725 l
0.2682 0.3720 l
0.2691 0.3714 l
0.2701 0.3708 l
0.2710 0.3701 l
0.2720 0.3694 l
0.2730 0.3687 l
0.2739 0.3678 l
0.2749 0.3670 l
0.2758 0.3660 l
0.2768 0.3650 l
0.2777 0.3638 l
0.2787 0.3626 l
0.2796 0.3612 l
0.2806 0.3597 l
0.2815 0.3581 l
0.2825 0.3562 l
0.2834 0.3541 l
0.2844 0.3517 l
0.2853 0.3491 l
0.2863 0.3460 l
0.2873 0.3424 l
0.2882 0.3382 l
0.2892 0.3333 l
0.2901 0.3273 l
0.2911 0.3199 l
0.2920 0.3107 l
0.2930 0.2989 l
0.2939 0.2832 l
0.2949 0.2618 l
0.2958 0.2319 l
0.2968 0.1920 l
0.2977 0.1667 l
0.2987 0.3239 l
0.2996 0.5901 l
0.3006 0.6056 l
0.3016 0.5646 l
0.3025 0.5305 l
0.3035 0.5061 l
0.3044 0.4884 l
0.3054 0.4752 l
0.3063 0.4650 l
0.3073 0.4570 l
0.3082 0.4505 l
0.3092 0.4451 l
0.3101 0.4407 l
0.3111 0.4369 l
0.3120 0.4336 l
0.3130 0.4308 l
0.3139 0.4283 l
0.3149 0.4261 l
0.3159 0.4241 l
0.3168 0.4224 l
0.3178 0.4208 l
0.3187 0.4194 l
0.3197 0.4181 l
0.3206 0.4169 l
0.3216 0.4159 l
0.3225 0.4149 l
0.3235 0.4140 l
0.3244 0.4131 l
0.3254 0.4123 l
0.3263 0.4116 l
0.3273 0.4109 l
0.3282 0.4103 l
0.3292 0.4097 l
0.3302 0.4091 l
0.3311 0.4086 l
0.3321 0.4081 l
0.3330 0.4076 l
0.3340 0.4072 l
0.3349 0.4068 l
0.3359 0.4064 l
0.3368 0.4060 l
0.3378 0.4056 l
0.3387 0.4053 l
0.3397 0.4050 l
0.3406 0.4046 l
0.3416 0.4043 l
0.3425 0.4041 l
0.3435 0.4038 l
0.3445 0.4035 l
0.3454 0.4033 l
0.3464 0.4030 l
0.3473 0.4028 l
0.3483 0.4026 l
0.3492 0.4024 l
0.3502 0.4022 l
0.3511 0.4020 l
0.3521 0.4018 l
0.3530 0.4016 l
0.3540 0.4014 l
0.3549 0.4013 l
0.3559 0.4011 l
0.3568 0.4009 l
0.3578 0.4008 l
0.3588 0.4006 l
0.3597 0.4005 l
0.3607 0.4004 l
0.3616 0.4002 l
0.3626 0.4001 l
0.3635 0.4000 l
0.3645 0.3999 l
0.3654 0.3997 l
0.3664 0.3996 l
0.3673 0.3995 l
0.3683 0.3994 l
0.3692 0.3993 l
0.3702 0.3992 l
0.3711 0.3991 l
0.3721 0.3990 l
0.3731 0.3989 l
0.3740 0.3988 l
0.3750 0.3987 l
0.3759 0.3986 l
0.3769 0.3985 l
0.3778 0.3985 l
0.3788 0.3984 l
0.3797 0.3983 l
0.3807 0.3982 l
0.3816 0.3981 l
0.3826 0.3981 l
0.3835 0.3980 l
0.3845 0.3979 l
0.3854 0.3979 l
0.3864 0.3978 l
0.3874 0.3977 l
0.3883 0.3977 l
0.3893 0.3976 l
0.3902 0.3975 l
0.3912 0.3975 l
0.3921 0.3974 l
0.3931 0.3974 l
0.3940 0.3973 l
0.3950 0.3973 l
0.3959 0.3972 l
0.3969 0.3972 l
0.3978 0.3971 l
0.3988 0.3971 l
0.3997 0.3970 l
0.4007 0.3970 l
0.4017 0.3969 l
0.4026 0.3969 l
0.4036 0.3968 l
0.4045 0.3968 l
0.4055 0.3967 l
0.4064 0.3967 l
0.4074 0.3966 l
0.4083 0.3966 l
0.4093 0.3966 l
0.4102 0.3965 l
0.4112 0.3965 l
0.4121 0.3964 l
0.4131 0.3964 l
0.4140 0.3964 l
0.4150 0.3963 l
0.4160 0.3963 l
0.4169 0.3963 l
0.4179 0.3962 l
0.4188 0.3962 l
0.4198 0.3962 l
0.4207 0.3961 l
0.4217 0.3961 l
0.4226 0.3961 l
0.4236 0.3960 l
0.4245 0.3960 l
0.4255 0.3960 l
0.4264 0.3959 l
0.4274 0.3959 l
0.4283 0.3959 l
0.4293 0.3958 l
0.4303 0.3958 l
0.4312 0.3958 l
0.4322 0.3958 l
0.4331 0.3957 l
0.4341 0.3957 l
0.4350 0.3957 l
0.4360 0.3957 l
0.4369 0.3956 l
0.4379 0.3956 l
0.4388 0.3956 l
0.4398 0.3956 l
0.4407 0.3955 l
0.4417 0.3955 l
0.4426 0.3955 l
0.4436 0.3955 l
0.4446 0.3954 l
0.4455 0.3954 l
0.4465 0.3954 l
0.4474 0.3954 l
0.4484 0.3954 l
0.4493 0.3953 l
0.4503 0.3953 l
0.4512 0.3953 l
0.4522 0.3953 l
0.4531 0.3953 l
0.4541 0.3952 l
0.4550 0.3952 l
0.4560 0.3952 l
0.4569 0.3952 l
0.4579 0.3952 l
0.4589 0.3951 l
0.4598 0.3951 l
0.4608 0.3951 l
0.4617 0.3951 l
0.4627 0.3951 l
0.4636 0.3951 l
0.4646 0.3950 l
0.4655 0.3950 l
0.4665 0.3950 l
0.4674 0.3950 l
0.4684 0.3950 l
0.4693 0.3950 l
0.4703 0.3949 l
0.4712 0.3949 l
0.4722 0.3949 l
0.4732 0.3949 l
0.4741 0.3949 l
0.4751 0.3949 l
0.4760 0.3948 l
0.4770 0.3948 l
0.4779 0.3948 l
0.4789 0.3948 l
0.4798 0.3948 l
0.4808 0.3948 l
0.4817 0.3948 l
0.4827 0.3947 l
0.4836 0.3947 l
0.4846 0.3947 l
0.4855 0.3947 l
0.4865 0.3947 l
0.4875 0.3947 l
0.4884 0.3947 l
0.4894 0.3947 l
0.4903 0.3946 l
0.4913 0.3946 l
0.4922 0.3946 l
0.4932 0.3946 l
0.4941 0.3946 l
0.4951 0.3946 l
0.4960 0.3946 l
0.4970 0.3946 l
0.4979 0.3946 l
0.4989 0.3945 l
0.4998 0.3945 l
0.5008 0.3945 l
0.5018 0.3945 l
0.5027 0.3945 l
0.5037 0.3945 l
0.5046 0.3945 l
0.5056 0.3945 l
0.5065 0.3945 l
0.5075 0.3944 l
0.5084 0.3944 l
0.5094 0.3944 l
0.5103 0.3944 l
0.5113 0.3944 l
0.5122 0.3944 l
0.5132 0.3944 l
0.5141 0.3944 l
0.5151 0.3944 l
0.5161 0.3944 l
0.5170 0.3943 l
0.5180 0.3943 l
0.5189 0.3943 l
0.5199 0.3943 l
0.5208 0.3943 l
0.5218 0.3943 l
0.5227 0.3943 l
0.5237 0.3943 l
0.5246 0.3943 l
0.5256 0.3943 l
0.5265 0.3943 l
0.5275 0.3942 l
0.5284 0.3942 l
0.5294 0.3942 l
0.5304 0.3942 l
0.5313 0.3942 l
0.5323 0.3942 l
0.5332 0.3942 l
0.5342 0.3942 l
0.5351 0.3942 l
0.5361 0.3942 l
0.5370 0.3942 l
0.5380 0.3942 l
0.5389 0.3942 l
0.5399 0.3941 l
0.5408 0.3941 l
0.5418 0.3941 l
0.5427 0.3941 l
0.5437 0.3941 l
0.5447 0.3941 l
0.5456 0.3941 l
0.5466 0.3941 l
0.5475 0.3941 l
0.5485 0.3941 l
0.5494 0.3941 l
0.5504 0.3941 l
0.5513 0.3941 l
0.5523 0.3941 l
0.5532 0.3940 l
0.5542 0.3940 l
0.5551 0.3940 l
0.5561 0.3940 l
0.5570 0.3940 l
0.5580 0.3940 l
0.5590 0.3940 l
0.5599 0.3940 l
0.5609 0.3940 l
0.5618 0.3940 l
0.5628 0.3940 l
0.5637 0.3940 l
0.5647 0.3940 l
0.5656 0.3940 l
0.5666 0.3940 l
0.5675 0.3940 l
0.5685 0.3939 l
0.5694 0.3939 l
0.5704 0.3939 l
0.5713 0.3939 l
0.5723 0.3939 l
0.5733 0.3939 l
0.5742 0.3939 l
0.5752 0.3939 l
0.5761 0.3939 l
0.5771 0.3939 l
0.5780 0.3939 l
0.5790 0.3939 l
0.5799 0.3939 l
0.5809 0.3939 l
0.5818 0.3939 l
0.5828 0.3939 l
0.5837 0.3939 l
0.5847 0.3938 l
0.5856 0.3938 l
0.5866 0.3938 l
0.5876 0.3938 l
0.5885 0.3938 l
0.5895 0.3938 l
0.5904 0.3938 l
0.5914 0.3938 l
0.5923 0.3938 l
0.5933 0.3938 l
0.5942 0.3938 l
0.5952 0.3938 l
0.5961 0.3938 l
0.5971 0.3938 l
0.5980 0.3938 l
0.5990 0.3938 l
0.5999 0.3938 l
0.6009 0.3938 l
0.6019 0.3938 l
0.6028 0.3938 l
0.6038 0.3937 l
0.6047 0.3937 l
0.6057 0.3937 l
0.6066 0.3937 l
0.6076 0.3937 l
0.6085 0.3937 l
0.6095 0.3937 l
0.6104 0.3937 l
0.6114 0.3937 l
0.6123 0.3937 l
0.6133 0.3937 l
0.6142 0.3937 l
0.6152 0.3937 l
0.6162 0.3937 l
0.6171 0.3937 l
0.6181 0.3937 l
0.6190 0.3937 l
0.6200 0.3937 l
0.6209 0.3937 l
0.6219 0.3937 l
0.6228 0.3937 l
0.6238 0.3937 l
0.6247 0.3937 l
0.6257 0.3936 l
0.6266 0.3936 l
0.6276 0.3936 l
0.6285 0.3936 l
0.6295 0.3936 l
0.6305 0.3936 l
0.6314 0.3936 l
0.6324 0.3936 l
0.6333 0.3936 l
0.6343 0.3936 l
0.6352 0.3936 l
0.6362 0.3936 l
0.6371 0.3936 l
0.6381 0.3936 l
0.6390 0.3936 l
0.6400 0.3936 l
0.6409 0.3936 l
0.6419 0.3936 l
0.6428 0.3936 l
0.6438 0.3936 l
0.6448 0.3936 l
0.6457 0.3936 l
0.6467 0.3936 l
0.6476 0.3936 l
0.6486 0.3936 l
0.6495 0.3935 l
0.6505 0.3935 l
0.6514 0.3935 l
0.6524 0.3935 l
0.6533 0.3935 l
0.6543 0.3935 l
0.6552 0.3935 l
0.6562 0.3935 l
0.6572 0.3935 l
0.6581 0.3935 l
0.6591 0.3935 l
0.6600 0.3935 l
0.6610 0.3935 l
0.6619 0.3935 l
0.6629 0.3935 l
0.6638 0.3935 l
0.6648 0.3935 l
0.6657 0.3935 l
0.6667 0.3935 l
0.6676 0.3935 l
0.6686 0.3935 l
0.6695 0.3935 l
0.6705 0.3935 l
0.6715 0.3935 l
0.6724 0.3935 l
0.6734 0.3935 l
0.6743 0.3935 l
0.6753 0.3935 l
0.6762 0.3934 l
0.6772 0.3934 l
0.6781 0.3934 l
0.6791 0.3934 l
0.6800 0.3934 l
0.6810 0.3934 l
0.6819 0.3934 l
0.6829 0.3934 l
0.6838 0.3934 l
0.6848 0.3934 l
0.6858 0.3934 l
0.6867 0.3934 l
0.6877 0.3934 l
0.6886 0.3934 l
0.6896 0.3934 l
0.6905 0.3934 l
0.6915 0.3934 l
0.6924 0.3934 l
0.6934 0.3934 l
0.6943 0.3934 l
0.6953 0.3934 l
0.6962 0.3934 l
0.6972 0.3934 l
0.6981 0.3934 l
0.6991 0.3934 l
0.7001 0.3934 l
0.7010 0.3934 l
0.7020 0.3934 l
0.7029 0.3934 l
0.7039 0.3934 l
0.7048 0.3933 l
0.7058 0.3933 l
0.7067 0.3933 l
0.7077 0.3933 l
0.7086 0.3933 l
0.7096 0.3933 l
0.7105 0.3933 l
0.7115 0.3933 l
0.7124 0.3933 l
0.7134 0.3933 l
0.7144 0.3933 l
0.7153 0.3933 l
0.7163 0.3933 l
0.7172 0.3933 l
0.7182 0.3933 l
0.7191 0.3933 l
0.7201 0.3933 l
0.7210 0.3933 l
0.7220 0.3933 l
0.7229 0.3933 l
0.7239 0.3933 l
0.7248 0.3933 l
0.7258 0.3933 l
0.7267 0.3933 l
0.7277 0.3933 l
0.7287 0.3933 l
0.7296 0.3933 l
0.7306 0.3933 l
0.7315 0.3933 l
0.7325 0.3933 l
0.7334 0.3933 l
0.7344 0.3932 l
0.7353 0.3932 l
0.7363 0.3932 l
0.7372 0.3932 l
0.7382 0.3932 l
0.7391 0.3932 l
0.7401 0.3932 l
0.7410 0.3932 l
0.7420 0.3932 l
0.7430 0.3932 l
0.7439 0.3932 l
0.7449 0.3932 l
0.7458 0.3932 l
0.7468 0.3932 l
0.7477 0.3932 l
0.7487 0.3932 l
0.7496 0.3932 l
0.7506 0.3932 l
0.7515 0.3932 l
0.7525 0.3932 l
0.7534 0.3932 l
0.7544 0.3932 l
0.7553 0.3932 l
0.7563 0.3932 l
0.7573 0.3932 l
0.7582 0.3932 l
0.7592 0.3932 l
0.7601 0.3932 l
0.7611 0.3932 l
0.7620 0.3931 l
0.7630 0.3931 l
0.7639 0.3931 l
0.7649 0.3931 l
0.7658 0.3931 l
0.7668 0.3931 l
0.7677 0.3931 l
0.7687 0.3931 l
0.7696 0.3931 l
0.7706 0.3931 l
0.7716 0.3931 l
0.7725 0.3931 l
0.7735 0.3931 l
0.7744 0.3931 l
0.7754 0.3931 l
0.7763 0.3931 l
0.7773 0.3931 l
0.7782 0.3931 l
0.7792 0.3931 l
0.7801 0.3931 l
0.7811 0.3931 l
0.7820 0.3931 l
0.7830 0.3931 l
0.7839 0.3931 l
0.7849 0.3931 l
0.7859 0.3931 l
0.7868 0.3930 l
0.7878 0.3930 l
0.7887 0.3930 l
0.7897 0.3930 l
0.7906 0.3930 l
0.7916 0.3930 l
0.7925 0.3930 l
0.7935 0.3930 l
0.7944 0.3930 l
0.7954 0.3930 l
0.7963 0.3930 l
0.7973 0.3930 l
0.7982 0.3930 l
0.7992 0.3930 l
0.8002 0.3930 l
0.8011 0.3930 l
0.8021 0.3930 l
0.8030 0.3930 l
0.8040 0.3930 l
0.8049 0.3930 l
0.8059 0.3930 l
0.8068 0.3930 l
0.8078 0.3930 l
0.8087 0.3929 l
0.8097 0.3929 l
0.8106 0.3929 l
0.8116 0.3929 l
0.8125 0.3929 l
0.8135 0.3929 l
0.8145 0.3929 l
0.8154 0.3929 l
0.8164 0.3929 l
0.8173 0.3929 l
0.8183 0.3929 l
0.8192 0.3929 l
0.8202 0.3929 l
0.8211 0.3929 l
0.8221 0.3929 l
0.8230 0.3929 l
0.8240 0.3929 l
0.8249 0.3929 l
0.8259 0.3929 l
0.8268 0.3929 l
0.8278 0.3928 l
0.8288 0.3928 l
0.8297 0.3928 l
0.8307 0.3928 l
0.8316 0.3928 l
0.8326 0.3928 l
0.8335 0.3928 l
0.8345 0.3928 l
0.8354 0.3928 l
0.8364 0.3928 l
0.8373 0.3928 l
0.8383 0.3928 l
0.8392 0.3928 l
0.8402 0.3928 l
0.8411 0.3928 l
0.8421 0.3928 l
0.8431 0.3927 l
0.8440 0.3927 l
0.8450 0.3927 l
0.8459 0.3927 l
0.8469 0.3927 l
0.8478 0.3927 l
0.8488 0.3927 l
0.8497 0.3927 l
0.8507 0.3927 l
0.8516 0.3927 l
0.8526 0.3927 l
0.8535 0.3927 l
0.8545 0.3927 l
0.8554 0.3926 l
0.8564 0.3926 l
0.8574 0.3926 l
0.8583 0.3926 l
0.8593 0.3926 l
0.8602 0.3926 l
0.8612 0.3926 l
0.8621 0.3926 l
0.8631 0.3926 l
0.8640 0.3926 l
0.8650 0.3926 l
0.8659 0.3925 l
0.8669 0.3925 l
0.8678 0.3925 l
0.8688 0.3925 l
0.8697 0.3925 l
0.8707 0.3925 l
0.8717 0.3925 l
0.8726 0.3925 l
0.8736 0.3925 l
0.8745 0.3925 l
0.8755 0.3924 l
0.8764 0.3924 l
0.8774 0.3924 l
0.8783 0.3924 l
0.8793 0.3924 l
0.8802 0.3924 l
0.8812 0.3924 l
0.8821 0.3923 l
0.8831 0.3923 l
0.8840 0.3923 l
0.8850 0.3923 l
0.8860 0.3923 l
0.8869 0.3923 l
0.8879 0.3923 l
0.8888 0.3922 l
0.8898 0.3922 l
0.8907 0.3922 l
0.8917 0.3922 l
0.8926 0.3922 l
0.8936 0.3922 l
0.8945 0.3921 l
0.8955 0.3921 l
0.8964 0.3921 l
0.8974 0.3921 l
0.8983 0.3921 l
0.8993 0.3920 l
0.9003 0.3920 l
0.9012 0.3920 l
0.9022 0.3920 l
0.9031 0.3920 l
0.9041 0.3919 l
0.9050 0.3919 l
0.9060 0.3919 l
0.9069 0.3918 l
0.9079 0.3918 l
0.9088 0.3918 l
0.9098 0.3918 l
0.9107 0.3917 l
0.9117 0.3917 l
0.9126 0.3917 l
0.9136 0.3916 l
0.9146 0.3916 l
0.9155 0.3916 l
0.9165 0.3915 l
0.9174 0.3915 l
0.9184 0.3914 l
0.9193 0.3914 l
0.9203 0.3914 l
0.9212 0.3913 l
0.9222 0.3913 l
0.9231 0.3912 l
0.9241 0.3912 l
0.9250 0.3911 l
0.9260 0.3911 l
0.9269 0.3910 l
0.9279 0.3909 l
0.9289 0.3909 l
0.9298 0.3908 l
0.9308 0.3907 l
0.9317 0.3907 l
0.9327 0.3906 l
0.9336 0.3905 l
0.9346 0.3904 l
0.9355 0.3903 l
0.9365 0.3902 l
0.9374 0.3901 l
0.9384 0.3900 l
0.9393 0.3899 l
0.9403 0.3898 l
0.9412 0.3897 l
0.9422 0.3895 l
0.9432 0.3894 l
0.9441 0.3893 l
0.9451 0.3891 l
0.9460 0.3890 l
0.9470 0.3888 l
0.9479 0.3886 l
0.9489 0.3884 l
0.9498 0.3883 l
0.9508 0.3881 l
0.9517 0.3879 l
0.9527 0.3878 l
0.9536 0.3877 l
0.9546 0.3877 l
0.9555 0.3877 l
0.9565 0.3879 l
0.9575 0.3882 l
0.9584 0.3887 l
0.9594 0.3895 l
0.9603 0.3904 l
0.9613 0.3916 l
0.9622 0.3930 l
0.9632 0.3944 l
0.9641 0.3956 l
0.9651 0.3968 l
0.9660 0.3977 l
0.9670 0.3983 l
0.9679 0.3988 l
0.9689 0.3990 l
0.9698 0.3991 l
0.9708 0.3991 l
0.9718 0.3991 l
0.9727 0.3990 l
0.9737 0.3988 l
0.9746 0.3986 l
0.9756 0.3985 l
0.9765 0.3983 l
0.9775 0.3981 l
0.9784 0.3980 l
0.9794 0.3978 l
0.9803 0.3976 l
0.9813 0.3975 l
0.9822 0.3974 l
0.9832 0.3972 l
0.9841 0.3971 l
0.9851 0.3970 l
0.9861 0.3969 l
0.9870 0.3967 l
0.9880 0.3966 l
0.9889 0.3965 l
0.9899 0.3964 l
0.9908 0.3964 l
0.9918 0.3963 l
0.9927 0.3962 l
0.9937 0.3961 l
0.9946 0.3960 l
0.9956 0.3960 l
0.9965 0.3959 l
0.9975 0.3959 l
0.9984 0.3958 l
0.9994 0.3957 l
1.0004 0.3957 l
1.0013 0.3956 l
1.0023 0.3956 l
1.0032 0.3955 l
1.0042 0.3955 l
1.0051 0.3954 l
1.0061 0.3954 l
1.0070 0.3954 l
1.0080 0.3953 l
1.0089 0.3953 l
1.0099 0.3952 l
1.0108 0.3952 l
1.0118 0.3952 l
1.0127 0.3951 l
1.0137 0.3951 l
1.0147 0.3951 l
1.0156 0.3950 l
1.0166 0.3950 l
1.0175 0.3950 l
1.0185 0.3950 l
1.0194 0.3949 l
1.0204 0.3949 l
1.0213 0.3949 l
1.0223 0.3949 l
1.0232 0.3948 l
1.0242 0.3948 l
1.0251 0.3948 l
1.0261 0.3948 l
1.0270 0.3948 l
1.0280 0.3947 l
1.0290 0.3947 l
1.0299 0.3947 l
1.0309 0.3947 l
1.0318 0.3947 l
1.0328 0.3946 l
1.0337 0.3946 l
1.0347 0.3946 l
1.0356 0.3946 l
1.0366 0.3946 l
1.0375 0.3946 l
1.0385 0.3945 l
1.0394 0.3945 l
1.0404 0.3945 l
1.0413 0.3945 l
1.0423 0.3945 l
1.0433 0.3945 l
1.0442 0.3945 l
1.0452 0.3945 l
1.0461 0.3944 l
1.0471 0.3944 l
1.0480 0.3944 l
1.0490 0.3944 l
1.0499 0.3944 l
1.0509 0.3944 l
1.0518 0.3944 l
1.0528 0.3944 l
1.0537 0.3943 l
1.0547 0.3943 l
1.0556 0.3943 l
1.0566 0.3943 l
1.0576 0.3943 l
1.0585 0.3943 l
1.0595 0.3943 l
1.0604 0.3943 l
1.0614 0.3943 l
1.0623 0.3943 l
1.0633 0.3943 l
1.0642 0.3942 l
1.0652 0.3942 l
1.0661 0.3942 l
1.0671 0.3942 l
1.0680 0.3942 l
1.0690 0.3942 l
1.0699 0.3942 l
1.0709 0.3942 l
1.0719 0.3942 l
1.0728 0.3942 l
1.0738 0.3942 l
1.0747 0.3942 l
1.0757 0.3942 l
1.0766 0.3941 l
1.0776 0.3941 l
1.0785 0.3941 l
1.0795 0.3941 l
1.0804 0.3941 l
1.0814 0.3941 l
1.0823 0.3941 l
1.0833 0.3941 l
1.0842 0.3941 l
1.0852 0.3941 l
1.0862 0.3941 l
1.0871 0.3941 l
1.0881 0.3941 l
1.0890 0.3941 l
1.0900 0.3941 l
1.0909 0.3941 l
1.0919 0.3940 l
1.0928 0.3940 l
1.0938 0.3940 l
1.0947 0.3940 l
1.0957 0.3940 l
1.0966 0.3940 l
1.0976 0.3940 l
1.0985 0.3940 l
1.0995 0.3940 l
1.1005 0.3940 l
1.1014 0.3940 l
1.1024 0.3940 l
1.1033 0.3940 l
1.1043 0.3940 l
1.1052 0.3940 l
1.1062 0.3940 l
1.1071 0.3940 l
1.1081 0.3940 l
1.1090 0.3940 l
1.1100 0.3940 l
1.1109 0.3939 l
1.1119 0.3939 l
1.1128 0.3939 l
1.1138 0.3939 l
1.1148 0.3939 l
1.1157 0.3939 l
1.1167 0.3939 l
1.1176 0.3939 l
1.1186 0.3939 l
1.1195 0.3939 l
1.1205 0.3939 l
1.1214 0.3939 l
1.1224 0.3939 l
1.1233 0.3939 l
1.1243 0.3939 l
1.1252 0.3939 l
1.1262 0.3939 l
s
[/DeviceRGB] SCS
Color3 SC
n
0.1738 0.3933 m
0.1748 0.3933 l
0.1757 0.3933 l
0.1767 0.3933 l
0.1776 0.3933 l
0.1786 0.3933 l
0.1795 0.3933 l
0.1805 0.3933 l
0.1814 0.3933 l
0.1824 0.3933 l
0.1833 0.3933 l
0.1843 0.3933 l
0.1852 0.3933 l
0.1862 0.3933 l
0.1872 0.3933 l
0.1881 0.3933 l
0.1891 0.3933 l
0.1900 0.3933 l
0.1910 0.3933 l
0.1919 0.3933 l
0.1929 0.3933 l
0.1938 0.3933 l
0.1948 0.3933 l
0.1957 0.3933 l
0.1967 0.3933 l
0.1976 0.3933 l
0.1986 0.3933 l
0.1995 0.3933 l
0.2005 0.3933 l
0.2015 0.3933 l
0.2024 0.3933 l
0.2034 0.3933 l
0.2043 0.3933 l
0.2053 0.3933 l
0.2062 0.3933 l
0.2072 0.3933 l
0.2081 0.3933 l
0.2091 0.3933 l
0.2100 0.3933 l
0.2110 0.3933 l
0.2119 0.3933 l
0.2129 0.3933 l
0.2138 0.3933 l
0.2148 0.3934 l
0.2158 0.3934 l
0.2167 0.3934 l
0.2177 0.3934 l
0.2186 0.3934 l
0.2196 0.3934 l
0.2205 0.3934 l
0.2215 0.3934 l
0.2224 0.3934 l
0.2234 0.3934 l
0.2243 0.3934 l
0.2253 0.3934 l
0.2262 0.3934 l
0.2272 0.3934 l
0.2281 0.3934 l
0.2291 0.3934 l
0.2301 0.3934 l
0.2310 0.3934 l
0.2320 0.3934 l
0.2329 0.3934 l
0.2339 0.3934 l
0.2348 0.3934 l
0.2358 0.3934 l
0.2367 0.3934 l
0.2377 0.3934 l
0.2386 0.3935 l
0.2396 0.3935 l
0.2405 0.3935 l
0.2415 0.3935 l
0.2424 0.3935 l
0.2434 0.3935 l
0.2444 0.3935 l
0.2453 0.3935 l
0.2463 0.3935 l
0.2472 0.3935 l
0.2482 0.3935 l
0.2491 0.3935 l
0.2501 0.3936 l
0.2510 0.3936 l
0.2520 0.3936 l
0.2529 0.3936 l
0.2539 0.3936 l
0.2548 0.3936 l
0.2558 0.3936 l
0.2567 0.3937 l
0.2577 0.3937 l
0.2587 0.3937 l
0.2596 0.3937 l
0.2606 0.3937 l
0.2615 0.3938 l
0.2625 0.3938 l
0.2634 0.3938 l
0.2644 0.3939 l
0.2653 0.3939 l
0.2663 0.3939 l
0.2672 0.3940 l
0.2682 0.3940 l
0.2691 0.3941 l
0.2701 0.3941 l
0.2710 0.3942 l
0.2720 0.3942 l
0.2730 0.3943 l
0.2739 0.3944 l
0.2749 0.3945 l
0.2758 0.3946 l
0.2768 0.3947 l
0.2777 0.3949 l
0.2787 0.3950 l
0.2796 0.3952 l
0.2806 0.3954 l
0.2815 0.3956 l
0.2825 0.3959 l
0.2834 0.3962 l
0.2844 0.3966 l
0.2853 0.3971 l
0.2863 0.3977 l
0.2873 0.3985 l
0.2882 0.3995 l
0.2892 0.4007 l
0.2901 0.4024 l
0.2911 0.4047 l
0.2920 0.4079 l
0.2930 0.4128 l
0.2939 0.4206 l
0.2949 0.4338 l
0.2958 0.4589 l
0.2968 0.5127 l
0.2977 0.6400 l
0.2987 0.8333 l
0.2996 0.7230 l
0.3006 0.5511 l
0.3016 0.4754 l
0.3025 0.4419 l
0.3035 0.4250 l
0.3044 0.4155 l
0.3054 0.4097 l
0.3063 0.4058 l
0.3073 0.4032 l
0.3082 0.4013 l
0.3092 0.3999 l
0.3101 0.3988 l
0.3111 0.3980 l
0.3120 0.3974 l
0.3130 0.3968 l
0.3139 0.3964 l
0.3149 0.3960 l
0.3159 0.3957 l
0.3168 0.3955 l
0.3178 0.3953 l
0.3187 0.3951 l
0.3197 0.3949 l
0.3206 0.3948 l
0.3216 0.3947 l
0.3225 0.3945 l
0.3235 0.3944 l
0.3244 0.3944 l
0.3254 0.3943 l
0.3263 0.3942 l
0.3273 0.3942 l
0.3282 0.3941 l
0.3292 0.3940 l
0.3302 0.3940 l
0.3311 0.3940 l
0.3321 0.3939 l
0.3330 0.3939 l
0.3340 0.3938 l
0.3349 0.3938 l
0.3359 0.3938 l
0.3368 0.3938 l
0.3378 0.3937 l
0.3387 0.3937 l
0.3397 0.3937 l
0.3406 0.3937 l
0.3416 0.3937 l
0.3425 0.3936 l
0.3435 0.3936 l
0.3445 0.3936 l
0.3454 0.3936 l
0.3464 0.3936 l
0.3473 0.3936 l
0.3483 0.3936 l
0.3492 0.3936 l
0.3502 0.3935 l
0.3511 0.3935 l
0.3521 0.3935 l
0.3530 0.3935 l
0.3540 0.3935 l
0.3549 0.3935 l
0.3559 0.3935 l
0.3568 0.3935 l
0.3578 0.3935 l
0.3588 0.3935 l
0.3597 0.3935 l
0.3607 0.3935 l
0.3616 0.3935 l
0.3626 0.3934 l
0.3635 0.3934 l
0.3645 0.3934 l
0.3654 0.3934 l
0.3664 0.3934 l
0.3673 0.3934 l
0.3683 0.3934 l
0.3692 0.3934 l
0.3702 0.3934 l
0.3711 0.3934 l
0.3721 0.3934 l
0.3731 0.3934 l
0.3740 0.3934 l
0.3750 0.3934 l
0.3759 0.3934 l
0.3769 0.3934 l
0.3778 0.3934 l
0.3788 0.3934 l
0.3797 0.3934 l
0.3807 0.3934 l
0.3816 0.3934 l
0.3826 0.3934 l
0.3835 0.3934 l
0.3845 0.3934 l
0.3854 0.3934 l
0.3864 0.3934 l
0.3874 0.3934 l
0.3883 0.3934 l
0.3893 0.3934 l
0.3902 0.3934 l
0.3912 0.3934 l
0.3921 0.3934 l
0.3931 0.3934 l
0.3940 0.3934 l
0.3950 0.3933 l
0.3959 0.3933 l
0.3969 0.3933 l
0.3978 0.3933 l
0.3988 0.3933 l
0.3997 0.3933 l
0.4007 0.3933 l
0.4017 0.3933 l
0.4026 0.3933 l
0.4036 0.3933 l
0.4045 0.3933 l
0.4055 0.3933 l
0.4064 0.3933 l
0.4074 0.3933 l
0.4083 0.3933 l
0.4093 0.3933 l
0.4102 0.3933 l
0.4112 0.3933 l
0.4121 0.3933 l
0.4131 0.3933 l
0.4140 0.3933 l
0.4150 0.3933 l
0.4160 0.3933 l
0.4169 0.3933 l
0.4179 0.3933 l
0.4188 0.3933 l
0.4198 0.3933 l
0.4207 0.3933 l
0.4217 0.3933 l
0.4226 0.3933 l
0.4236 0.3933 l
0.4245 0.3933 l
0.4255 0.3933 l
0.4264 0.3933 l
0.4274 0.3933 l
0.4283 0.3933 l
0.4293 0.3933 l
0.4303 0.3933 l
0.4312 0.3933 l
0.4322 0.3933 l
0.4331 0.3933 l
0.4341 0.3933 l
0.4350 0.3933 l
0.4360 0.3933 l
0.4369 0.3933 l
0.4379 0.3933 l
0.4388 0.3933 l
0.4398 0.3933 l
0.4407 0.3933 l
0.4417 0.3933 l
0.4426 0.3933 l
0.4436 0.3933 l
0.4446 0.3933 l
0.4455 0.3933 l
0.4465 0.3933 l
0.4474 0.3933 l
0.4484 0.3933 l
0.4493 0.3933 l
0.4503 0.3933 l
0.4512 0.3933 l
0.4522 0.3933 l
0.4531 0.3933 l
0.4541 0.3933 l
0.4550 0.3933 l
0.4560 0.3933 l
0.4569 0.3933 l
0.4579 0.3933 l
0.4589 0.3933 l
0.4598 0.3933 l
0.4608 0.3933 l
0.4617 0.3933 l
0.4627 0.3933 l
0.4636 0.3933 l
0.4646 0.3933 l
0.4655 0.3933 l
0.4665 0.3933 l
0.4674 0.3933 l
0.4684 0.3933 l
0.4693 0.3933 l
0.4703 0.3933 l
0.4712 0.3933 l
0.4722 0.3933 l
0.4732 0.3933 l
0.4741 0.3933 l
0.4751 0.3933 l
0.4760 0.3933 l
0.4770 0.3933 l
0.4779 0.3933 l
0.4789 0.3933 l
0.4798 0.3933 l
0.4808 0.3933 l
0.4817 0.3933 l
0.4827 0.3933 l
0.4836 0.3933 l
0.4846 0.3933 l
0.4855 0.3933 l
0.4865 0.3933 l
0.4875 0.3933 l
0.4884 0.3933 l
0.4894 0.3933 l
0.4903 0.3933 l
0.4913 0.3933 l
0.4922 0.3933 l
0.4932 0.3933 l
0.4941 0.3933 l
0.4951 0.3933 l
0.4960 0.3933 l
0.4970 0.3933 l
0.4979 0.3933 l
0.4989 0.3933 l
0.4998 0.3933 l
0.5008 0.3933 l
0.5018 0.3933 l
0.5027 0.3933 l
0.5037 0.3933 l
0.5046 0.3933 l
0.5056 0.3933 l
0.5065 0.3933 l
0.5075 0.3933 l
0.5084 0.3933 l
0.5094 0.3933 l
0.5103 0.3933 l
0.5113 0.3933 l
0.5122 0.3933 l
0.5132 0.3933 l
0.5141 0.3933 l
0.5151 0.3933 l
0.5161 0.3933 l
0.5170 0.3933 l
0.5180 0.3933 l
0.5189 0.3933 l
0.5199 0.3933 l
0.5208 0.3933 l
0.5218 0.3933 l
0.5227 0.3933 l
0.5237 0.3933 l
0.5246 0.3933 l
0.5256 0.3933 l
0.5265 0.3933 l
0.5275 0.3933 l
0.5284 0.3933 l
0.5294 0.3933 l
0.5304 0.3933 l
0.5313 0.3933 l
0.5323 0.3933 l
0.5332 0.3933 l
0.5342 0.3933 l
0.5351 0.3933 l
0.5361 0.3933 l
0.5370 0.3933 l
0.5380 0.3933 l
0.5389 0.3933 l
0.5399 0.3933 l
0.5408 0.3933 l
0.5418 0.3933 l
0.5427 0.3933 l
0.5437 0.3933 l
0.5447 0.3933 l
0.5456 0.3933 l
0.5466 0.3933 l
0.5475 0.3933 l
0.5485 0.3933 l
0.5494 0.3933 l
0.5504 0.3933 l
0.5513 0.3933 l
0.5523 0.3933 l
0.5532 0.3933 l
0.5542 0.3933 l
0.5551 0.3933 l
0.5561 0.3933 l
0.5570 0.3933 l
0.5580 0.3933 l
0.5590 0.3933 l
0.5599 0.3933 l
0.5609 0.3933 l
0.5618 0.3933 l
0.5628 0.3933 l
0.5637 0.3933 l
0.5647 0.3933 l
0.5656 0.3933 l
0.5666 0.3933 l
0.5675 0.3933 l
0.5685 0.3933 l
0.5694 0.3933 l
0.5704 0.3933 l
0.5713 0.3933 l
0.5723 0.3933 l
0.5733 0.3933 l
0.5742 0.3933 l
0.5752 0.3933 l
0.5761 0.3933 l
0.5771 0.3933 l
0.5780 0.3933 l
0.5790 0.3933 l
0.5799 0.3933 l
0.5809 0.3933 l
0.5818 0.3933 l
0.5828 0.3933 l
0.5837 0.3933 l
0.5847 0.3933 l
0.5856 0.3933 l
0.5866 0.3933 l
0.5876 0.3933 l
0.5885 0.3933 l
0.5895 0.3933 l
0.5904 0.3933 l
0.5914 0.3933 l
0.5923 0.3933 l
0.5933 0.3933 l
0.5942 0.3933 l
0.5952 0.3933 l
0.5961 0.3933 l
0.5971 0.3933 l
0.5980 0.3933 l
0.5990 0.3933 l
0.5999 0.3933 l
0.6009 0.3933 l
0.6019 0.3933 l
0.6028 0.3933 l
0.6038 0.3933 l
0.6047 0.3933 l
0.6057 0.3933 l
0.6066 0.3933 l
0.6076 0.3933 l
0.6085 0.3933 l
0.6095 0.3933 l
0.6104 0.3933 l
0.6114 0.3933 l
0.6123 0.3933 l
0.6133 0.3933 l
0.6142 0.3933 l
0.6152 0.3933 l
0.6162 0.3933 l
0.6171 0.3933 l
0.6181 0.3933 l
0.6190 0.3933 l
0.6200 0.3933 l
0.6209 0.3933 l
0.6219 0.3933 l
0.6228 0.3933 l
0.6238 0.3933 l
0.6247 0.3933 l
0.6257 0.3933 l
0.6266 0.3933 l
0.6276 0.3933 l
0.6285 0.3933 l
0.6295 0.3933 l
0.6305 0.3933 l
0.6314 0.3933 l
0.6324 0.3933 l
0.6333 0.3933 l
0.6343 0.3933 l
0.6352 0.3933 l
0.6362 0.3933 l
0.6371 0.3933 l
0.6381 0.3933 l
0.6390 0.3933 l
0.6400 0.3933 l
0.6409 0.3933 l
0.6419 0.3933 l
0.6428 0.3933 l
0.6438 0.3933 l
0.6448 0.3933 l
0.6457 0.3933 l
0.6467 0.3933 l
0.6476 0.3933 l
0.6486 0.3933 l
0.6495 0.3933 l
0.6505 0.3933 l
0.6514 0.3933 l
0.6524 0.3933 l
0.6533 0.3933 l
0.6543 0.3933 l
0.6552 0.3933 l
0.6562 0.3933 l
0.6572 0.3933 l
0.6581 0.3933 l
0.6591 0.3933 l
0.6600 0.3933 l
0.6610 0.3933 l
0.6619 0.3933 l
0.6629 0.3933 l
0.6638 0.3933 l
0.6648 0.3933 l
0.6657 0.3933 l
0.6667 0.3933 l
0.6676 0.3933 l
0.6686 0.3933 l
0.6695 0.3933 l
0.6705 0.3933 l
0.6715 0.3933 l
0.6724 0.3933 l
0.6734 0.3933 l
0.6743 0.3933 l
0.6753 0.3933 l
0.6762 0.3933 l
0.6772 0.3933 l
0.6781 0.3933 l
0.6791 0.3933 l
0.6800 0.3933 l
0.6810 0.3933 l
0.6819 0.3933 l
0.6829 0.3933 l
0.6838 0.3933 l
0.6848 0.3933 l
0.6858 0.3933 l
0.6867 0.3933 l
0.6877 0.3933 l
0.6886 0.3933 l
0.6896 0.3933 l
0.6905 0.3933 l
0.6915 0.3933 l
0.6924 0.3933 l
0.6934 0.3933 l
0.6943 0.3933 l
0.6953 0.3933 l
0.6962 0.3933 l
0.6972 0.3933 l
0.6981 0.3933 l
0.6991 0.3933 l
0.7001 0.3933 l
0.7010 0.3933 l
0.7020 0.3933 l
0.7029 0.3933 l
0.7039 0.3933 l
0.7048 0.3933 l
0.7058 0.3933 l
0.7067 0.3933 l
0.7077 0.3933 l
0.7086 0.3933 l
0.7096 0.3933 l
0.7105 0.3933 l
0.7115 0.3933 l
0.7124 0.3933 l
0.7134 0.3933 l
0.7144 0.3933 l
0.7153 0.3933 l
0.7163 0.3933 l
0.7172 0.3933 l
0.7182 0.3933 l
0.7191 0.3933 l
0.7201 0.3933 l
0.7210 0.3933 l
0.7220 0.3933 l
0.7229 0.3933 l
0.7239 0.3933 l
0.7248 0.3933 l
0.7258 0.3933 l
0.7267 0.3933 l
0.7277 0.3933 l
0.7287 0.3933 l
0.7296 0.3933 l
0.7306 0.3933 l
0.7315 0.3933 l
0.7325 0.3933 l
0.7334 0.3933 l
0.7344 0.3933 l
0.7353 0.3933 l
0.7363 0.3933 l
0.7372 0.3933 l
0.7382 0.3933 l
0.7391 0.3933 l
0.7401 0.3933 l
0.7410 0.3933 l
0.7420 0.3933 l
0.7430 0.3933 l
0.7439 0.3933 l
0.7449 0.3933 l
0.7458 0.3933 l
0.7468 0.3933 l
0.7477 0.3933 l
0.7487 0.3933 l
0.7496 0.3933 l
0.7506 0.3933 l
0.7515 0.3933 l
0.7525 0.3933 l
0.7534 0.3933 l
0.7544 0.3933 l
0.7553 0.3933 l
0.7563 0.3933 l
0.7573 0.3933 l
0.7582 0.3933 l
0.7592 0.3933 l
0.7601 0.3933 l
0.7611 0.3933 l
0.7620 0.3933 l
0.7630 0.3933 l
0.7639 0.3933 l
0.7649 0.3933 l
0.7658 0.3933 l
0.7668 0.3933 l
0.7677 0.3933 l
0.7687 0.3933 l
0.7696 0.3933 l
0.7706 0.3933 l
0.7716 0.3933 l
0.7725 0.3933 l
0.7735 0.3933 l
0.7744 0.3933 l
0.7754 0.3933 l
0.7763 0.3933 l
0.7773 0.3933 l
0.7782 0.3933 l
0.7792 0.3933 l
0.7801 0.3933 l
0.7811 0.3933 l
0.7820 0.3933 l
0.7830 0.3933 l
0.7839 0.3933 l
0.7849 0.3933 l
0.7859 0.3933 l
0.7868 0.3933 l
0.7878 0.3933 l
0.7887 0.3933 l
0.7897 0.3933 l
0.7906 0.3933 l
0.7916 0.3933 l
0.7925 0.3933 l
0.7935 0.3933 l
0.7944 0.3933 l
0.7954 0.3933 l
0.7963 0.3933 l
0.7973 0.3933 l
0.7982 0.3933 l
0.7992 0.3933 l
0.8002 0.3933 l
0.8011 0.3933 l
0.8021 0.3933 l
0.8030 0.3933 l
0.8040 0.3933 l
0.8049 0.3933 l
0.8059 0.3933 l
0.8068 0.3933 l
0.8078 0.3933 l
0.8087 0.3933 l
0.8097 0.3933 l
0.8106 0.3933 l
0.8116 0.3933 l
0.8125 0.3933 l
0.8135 0.3933 l
0.8145 0.3933 l
0.8154 0.3933 l
0.8164 0.3933 l
0.8173 0.3933 l
0.8183 0.3933 l
0.8192 0.3933 l
0.8202 0.3933 l
0.8211 0.3933 l
0.8221 0.3933 l
0.8230 0.3933 l
0.8240 0.3933 l
0.8249 0.3933 l
0.8259 0.3933 l
0.8268 0.3933 l
0.8278 0.3933 l
0.8288 0.3933 l
0.8297 0.3933 l
0.8307 0.3933 l
0.8316 0.3933 l
0.8326 0.3933 l
0.8335 0.3933 l
0.8345 0.3933 l
0.8354 0.3933 l
0.8364 0.3933 l
0.8373 0.3933 l
0.8383 0.3933 l
0.8392 0.3933 l
0.8402 0.3933 l
0.8411 0.3933 l
0.8421 0.3933 l
0.8431 0.3933 l
0.8440 0.3933 l
0.8450 0.3933 l
0.8459 0.3933 l
0.8469 0.3933 l
0.8478 0.3933 l
0.8488 0.3933 l
0.8497 0.3933 l
0.8507 0.3933 l
0.8516 0.3933 l
0.8526 0.3933 l
0.8535 0.3933 l
0.8545 0.3933 l
0.8554 0.3933 l
0.8564 0.3933 l
0.8574 0.3933 l
0.8583 0.3933 l
0.8593 0.3933 l
0.8602 0.3933 l
0.8612 0.3933 l
0.8621 0.3933 l
0.8631 0.3933 l
0.8640 0.3933 l
0.8650 0.3934 l
0.8659 0.3934 l
0.8669 0.3934 l
0.8678 0.3934 l
0.8688 0.3934 l
0.8697 0.3934 l
0.8707 0.3934 l
0.8717 0.3934 l
0.8726 0.3934 l
0.8736 0.3934 l
0.8745 0.3934 l
0.8755 0.3934 l
0.8764 0.3934 l
0.8774 0.3934 l
0.8783 0.3934 l
0.8793 0.3934 l
0.8802 0.3934 l
0.8812 0.3934 l
0.8821 0.3934 l
0.8831 0.3934 l
0.8840 0.3934 l
0.8850 0.3934 l
0.8860 0.3934 l
0.8869 0.3934 l
0.8879 0.3934 l
0.8888 0.3934 l
0.8898 0.3934 l
0.8907 0.3934 l
0.8917 0.3934 l
0.8926 0.3934 l
0.8936 0.3934 l
0.8945 0.3934 l
0.8955 0.3934 l
0.8964 0.3934 l
0.8974 0.3934 l
0.8983 0.3934 l
0.8993 0.3935 l
0.9003 0.3935 l
0.9012 0.3935 l
0.9022 0.3935 l
0.9031 0.3935 l
0.9041 0.3935 l
0.9050 0.3935 l
0.9060 0.3935 l
0.9069 0.3935 l
0.9079 0.3935 l
0.9088 0.3935 l
0.9098 0.3935 l
0.9107 0.3935 l
0.9117 0.3935 l
0.9126 0.3936 l
0.9136 0.3936 l
0.9146 0.3936 l
0.9155 0.3936 l
0.9165 0.3936 l
0.9174 0.3936 l
0.9184 0.3936 l
0.9193 0.3936 l
0.9203 0.3937 l
0.9212 0.3937 l
0.9222 0.3937 l
0.9231 0.3937 l
0.9241 0.3937 l
0.9250 0.3938 l
0.9260 0.3938 l
0.9269 0.3938 l
0.9279 0.3938 l
0.9289 0.3939 l
0.9298 0.3939 l
0.9308 0.3939 l
0.9317 0.3940 l
0.9327 0.3940 l
0.9336 0.3941 l
0.9346 0.3941 l
0.9355 0.3942 l
0.9365 0.3942 l
0.9374 0.3943 l
0.9384 0.3944 l
0.9393 0.3945 l
0.9403 0.3946 l
0.9412 0.3947 l
0.9422 0.3948 l
0.9432 0.3949 l
0.9441 0.3951 l
0.9451 0.3952 l
0.9460 0.3954 l
0.9470 0.3956 l
0.9479 0.3959 l
0.9489 0.3962 l
0.9498 0.3965 l
0.9508 0.3968 l
0.9517 0.3973 l
0.9527 0.3978 l
0.9536 0.3983 l
0.9546 0.3990 l
0.9555 0.3997 l
0.9565 0.4005 l
0.9575 0.4014 l
0.9584 0.4023 l
0.9594 0.4032 l
0.9603 0.4039 l
0.9613 0.4045 l
0.9622 0.4047 l
0.9632 0.4047 l
0.9641 0.4043 l
0.9651 0.4037 l
0.9660 0.4028 l
0.9670 0.4020 l
0.9679 0.4011 l
0.9689 0.4002 l
0.9698 0.3994 l
0.9708 0.3987 l
0.9718 0.3981 l
0.9727 0.3976 l
0.9737 0.3971 l
0.9746 0.3967 l
0.9756 0.3964 l
0.9765 0.3960 l
0.9775 0.3958 l
0.9784 0.3955 l
0.9794 0.3953 l
0.9803 0.3952 l
0.9813 0.3950 l
0.9822 0.3949 l
0.9832 0.3947 l
0.9841 0.3946 l
0.9851 0.3945 l
0.9861 0.3944 l
0.9870 0.3944 l
0.9880 0.3943 l
0.9889 0.3942 l
0.9899 0.3942 l
0.9908 0.3941 l
0.9918 0.3941 l
0.9927 0.3940 l
0.9937 0.3940 l
0.9946 0.3939 l
0.9956 0.3939 l
0.9965 0.3939 l
0.9975 0.3938 l
0.9984 0.3938 l
0.9994 0.3938 l
1.0004 0.3938 l
1.0013 0.3937 l
1.0023 0.3937 l
1.0032 0.3937 l
1.0042 0.3937 l
1.0051 0.3937 l
1.0061 0.3936 l
1.0070 0.3936 l
1.0080 0.3936 l
1.0089 0.3936 l
1.0099 0.3936 l
1.0108 0.3936 l
1.0118 0.3936 l
1.0127 0.3936 l
1.0137 0.3935 l
1.0147 0.3935 l
1.0156 0.3935 l
1.0166 0.3935 l
1.0175 0.3935 l
1.0185 0.3935 l
1.0194 0.3935 l
1.0204 0.3935 l
1.0213 0.3935 l
1.0223 0.3935 l
1.0232 0.3935 l
1.0242 0.3935 l
1.0251 0.3935 l
1.0261 0.3935 l
1.0270 0.3934 l
1.0280 0.3934 l
1.0290 0.3934 l
1.0299 0.3934 l
1.0309 0.3934 l
1.0318 0.3934 l
1.0328 0.3934 l
1.0337 0.3934 l
1.0347 0.3934 l
1.0356 0.3934 l
1.0366 0.3934 l
1.0375 0.3934 l
1.0385 0.3934 l
1.0394 0.3934 l
1.0404 0.3934 l
1.0413 0.3934 l
1.0423 0.3934 l
1.0433 0.3934 l
1.0442 0.3934 l
1.0452 0.3934 l
1.0461 0.3934 l
1.0471 0.3934 l
1.0480 0.3934 l
1.0490 0.3934 l
1.0499 0.3934 l
1.0509 0.3934 l
1.0518 0.3934 l
1.0528 0.3934 l
1.0537 0.3934 l
1.0547 0.3934 l
1.0556 0.3934 l
1.0566 0.3934 l
1.0576 0.3934 l
1.0585 0.3934 l
1.0595 0.3934 l
1.0604 0.3934 l
1.0614 0.3933 l
1.0623 0.3933 l
1.0633 0.3933 l
1.0642 0.3933 l
1.0652 0.3933 l
1.0661 0.3933 l
1.0671 0.3933 l
1.0680 0.3933 l
1.0690 0.3933 l
1.0699 0.3933 l
1.0709 0.3933 l
1.0719 0.3933 l
1.0728 0.3933 l
1.0738 0.3933 l
1.0747 0.3933 l
1.0757 0.3933 l
1.0766 0.3933 l
1.0776 0.3933 l
1.0785 0.3933 l
1.0795 0.3933 l
1.0804 0.3933 l
1.0814 0.3933 l
1.0823 0.3933 l
1.0833 0.3933 l
1.0842 0.3933 l
1.0852 0.3933 l
1.0862 0.3933 l
1.0871 0.3933 l
1.0881 0.3933 l
1.0890 0.3933 l
1.0900 0.3933 l
1.0909 0.3933 l
1.0919 0.3933 l
1.0928 0.3933 l
1.0938 0.3933 l
1.0947 0.3933 l
1.0957 0.3933 l
1.0966 0.3933 l
1.0976 0.3933 l
1.0985 0.3933 l
1.0995 0.3933 l
1.1005 0.3933 l
1.1014 0.3933 l
1.1024 0.3933 l
1.1033 0.3933 l
1.1043 0.3933 l
1.1052 0.3933 l
1.1062 0.3933 l
1.1071 0.3933 l
1.1081 0.3933 l
1.1090 0.3933 l
1.1100 0.3933 l
1.1109 0.3933 l
1.1119 0.3933 l
1.1128 0.3933 l
1.1138 0.3933 l
1.1148 0.3933 l
1.1157 0.3933 l
1.1167 0.3933 l
1.1176 0.3933 l
1.1186 0.3933 l
1.1195 0.3933 l
1.1205 0.3933 l
1.1214 0.3933 l
1.1224 0.3933 l
1.1233 0.3933 l
1.1243 0.3933 l
1.1252 0.3933 l
1.1262 0.3933 l
s
[/DeviceRGB] SCS
Color1 SC
n
0.1500 0.1500 m
1.1500 0.1500 l
s
n
0.1500 0.8500 m
1.1500 0.8500 l
s
[0.0015 0.0045 ] 0 SD
0.0015 SLW
n
0.2730 0.1500 m
0.2730 0.1600 l
s
n
0.2730 0.8500 m
0.2730 0.8400 l
s
n
0.4732 0.1500 m
0.4732 0.1600 l
s
n
0.4732 0.8500 m
0.4732 0.8400 l
s
n
0.6734 0.1500 m
0.6734 0.1600 l
s
n
0.6734 0.8500 m
0.6734 0.8400 l
s
n
0.8736 0.1500 m
0.8736 0.1600 l
s
n
0.8736 0.8500 m
0.8736 0.8400 l
s
n
1.0738 0.1500 m
1.0738 0.1600 l
s
n
1.0738 0.8500 m
1.0738 0.8400 l
s
n
0.1729 0.1500 m
0.1729 0.1700 l
s
n
0.1729 0.8500 m
0.1729 0.8300 l
s
n
0.3731 0.1500 m
0.3731 0.1700 l
s
n
0.3731 0.8500 m
0.3731 0.8300 l
s
n
0.5733 0.1500 m
0.5733 0.1700 l
s
n
0.5733 0.8500 m
0.5733 0.8300 l
s
n
0.7735 0.1500 m
0.7735 0.1700 l
s
n
0.7735 0.8500 m
0.7735 0.8300 l
s
n
0.9737 0.1500 m
0.9737 0.1700 l
s
n
0.9737 0.8500 m
0.9737 0.8300 l
s
/Times-Roman findfont
dup length dict begin
 {1 index /FID ne {def} {pop pop} ifelse} forall
 /Encoding DefEncoding def
 currentdict
end
/Font41 exch definefont pop
/Font41 FFSF
0.1676 0.1247 m
GS
[0.0224 0.0000 0.0000 0.0224 0 0] CC
(0) show
GR
/Font41 FFSF
0.3630 0.1247 m
GS
[0.0224 0.0000 0.0000 0.0224 0 0] CC
(21) show
GR
/Font41 FFSF
0.5624 0.1247 m
GS
[0.0224 0.0000 0.0000 0.0224 0 0] CC
(42) show
GR
/Font41 FFSF
0.7630 0.1247 m
GS
[0.0224 0.0000 0.0000 0.0224 0 0] CC
(63) show
GR
/Font41 FFSF
0.9628 0.1247 m
GS
[0.0224 0.0000 0.0000 0.0224 0 0] CC
(84) show
GR
/Font41 FFSF
0.5625 0.0635 m
GS
[0.0280 0.0000 0.0000 0.0280 0 0] CC
(Frequency \(Hz\)) show
GR
[] 0 SD
0.0015 SLW
n
0.1500 0.1500 m
0.1500 0.8500 l
s
n
1.1500 0.1500 m
1.1500 0.8500 l
s
n
0.1500 0.1833 m
0.1600 0.1833 l
s
n
1.1500 0.1833 m
1.1400 0.1833 l
s
n
0.1500 0.3233 m
0.1600 0.3233 l
s
n
1.1500 0.3233 m
1.1400 0.3233 l
s
n
0.1500 0.4633 m
0.1600 0.4633 l
s
n
1.1500 0.4633 m
1.1400 0.4633 l
s
n
0.1500 0.6033 m
0.1600 0.6033 l
s
n
1.1500 0.6033 m
1.1400 0.6033 l
s
n
0.1500 0.7433 m
0.1600 0.7433 l
s
n
1.1500 0.7433 m
1.1400 0.7433 l
s
[0.0015 0.0045 ] 0 SD
0.0015 SLW
n
0.1500 0.2533 m
0.1700 0.2533 l
s
n
1.1500 0.2533 m
1.1300 0.2533 l
s
n
0.1500 0.3933 m
0.1700 0.3933 l
s
n
1.1500 0.3933 m
1.1300 0.3933 l
s
n
0.1500 0.5333 m
0.1700 0.5333 l
s
n
1.1500 0.5333 m
1.1300 0.5333 l
s
n
0.1500 0.6733 m
0.1700 0.6733 l
s
n
1.1500 0.6733 m
1.1300 0.6733 l
s
n
0.1500 0.8133 m
0.1700 0.8133 l
s
n
1.1500 0.8133 m
1.1300 0.8133 l
s
/Font41 FFSF
0.0319 0.2458 m
GS
[0.0224 0.0000 0.0000 0.0224 0 0] CC
(-2.5552e-06) show
GR
/Font41 FFSF
0.1295 0.3858 m
GS
[0.0224 0.0000 0.0000 0.0224 0 0] CC
(0) show
GR
/Font41 FFSF
0.0392 0.5258 m
GS
[0.0224 0.0000 0.0000 0.0224 0 0] CC
(2.5552e-06) show
GR
/Font41 FFSF
0.0392 0.6658 m
GS
[0.0224 0.0000 0.0000 0.0224 0 0] CC
(5.1103e-06) show
GR
/Font41 FFSF
0.0392 0.8058 m
GS
[0.0224 0.0000 0.0000 0.0224 0 0] CC
(7.6655e-06) show
GR
/Font41 FFSF
0.0767 0.4403 m
GS
[0.0000 0.0280 -0.0280 0.0000 0 0] CC
(Amplitude) show
GR
[] 0 SD
0.0015 SLW
n
0.1500 0.1500 m
0.1500 0.8500 l
1.1500 0.8500 l
1.1500 0.1500 l
0.1500 0.1500 l
c
s
n
0.8500 0.8000 m
0.8500 0.7426 l
0.9679 0.7426 l
0.9679 0.8000 l
c
[/DeviceRGB] SCS
Color0 SC
fill
[/DeviceRGB] SCS
Color1 SC
n
0.8500 0.8000 m
0.8500 0.7426 l
0.9679 0.7426 l
0.9679 0.8000 l
0.8500 0.8000 l
c
s
/Font41 FFSF
0.9208 0.7763 m
GS
[0.0210 0.0000 0.0000 0.0210 0 0] CC
(FRF) show
GR
[/DeviceRGB] SCS
Color2 SC
n
0.8608 0.7831 m
0.9008 0.7831 l
s
/Font41 FFSF
[/DeviceRGB] SCS
Color1 SC
0.9208 0.7526 m
GS
[0.0210 0.0000 0.0000 0.0210 0 0] CC
(FRF) show
GR
[/DeviceRGB] SCS
Color3 SC
n
0.8608 0.7594 m
0.9008 0.7594 l
s
%%Trailer
%%BoundingBox: 17 33 686 508
%%DocumentNeededResources: font Times-Roman
%%EOF
