%!PS-Adobe-3.0 EPSF-3.0
%%BoundingBox: (atend)
%%LanguageLevel: 2
%%Creator: Grace-5.1.25
%%CreationDate: Thu Dec 14 02:44:05 2017
%%DocumentData: Clean8Bit
%%Orientation: Portrait
%%Title: fort.29.wrk
%%For: digvijay
%%DocumentNeededResources: (atend)
%%EndComments
%%BeginProlog
/m {moveto} def
/l {lineto} def
/s {stroke} def
/n {newpath} def
/c {closepath} def
/RL {rlineto} def
/SLW {setlinewidth} def
/GS {gsave} def
/GR {grestore} def
/SC {setcolor} def
/SGRY {setgray} def
/SRGB {setrgbcolor} def
/SD {setdash} def
/SLC {setlinecap} def
/SLJ {setlinejoin} def
/SCS {setcolorspace} def
/FFSF {findfont setfont} def
/CC {concat} def
/PXL {n m 0 0 RL s} def
/Color0 {1.0000 1.0000 1.0000} def
/Color1 {0.0000 0.0000 0.0000} def
/Color2 {1.0000 0.0000 0.0000} def
/Color3 {0.0000 1.0000 0.0000} def
/Color4 {0.0000 0.0000 1.0000} def
/Color5 {1.0000 1.0000 0.0000} def
/Color6 {0.7373 0.5608 0.5608} def
/Color7 {0.8627 0.8627 0.8627} def
/Color8 {0.5804 0.0000 0.8275} def
/Color9 {0.0000 1.0000 1.0000} def
/Color10 {1.0000 0.0000 1.0000} def
/Color11 {1.0000 0.6471 0.0000} def
/Color12 {0.4471 0.1294 0.7373} def
/Color13 {0.4039 0.0275 0.2824} def
/Color14 {0.2510 0.8784 0.8157} def
/Color15 {0.0000 0.5451 0.0000} def
/PTRN {
 /pat_bits exch def 
 <<
  /PaintType 2
  /PatternType 1 /TilingType 1
  /BBox[0 0 16 16]
  /XStep 16 /YStep 16
  /PaintProc {
   pop
   16 16 true [-1 0 0 -1 16 16] pat_bits imagemask
  }
 >>
 [0.0017 0 0 0.0017 0 0]
 makepattern
} def
/Pattern0 {<0000000000000000000000000000000000000000000000000000000000000000> PTRN} bind def
/Pattern1 {<ffffffffffffffffffffffffffffffffffffffffffffffffffffffffffffffff> PTRN} bind def
/Pattern2 {<eeeeffffbbbbffffeeeeffffbbbbffffeeeeffffbbbbffffeeeeffffbbbbffff> PTRN} bind def
/Pattern3 {<eeeebbbbeeeebbbbeeeebbbbeeeebbbbeeeebbbbeeeebbbbeeeebbbbeeeebbbb> PTRN} bind def
/Pattern4 {<5555aaaa5555aaaa5555aaaa5555aaaa5555aaaa5555aaaa5555aaaa5555aaaa> PTRN} bind def
/Pattern5 {<1111444411114444111144441111444411114444111144441111444411114444> PTRN} bind def
/Pattern6 {<1111000044440000111100004444000011110000444400001111000044440000> PTRN} bind def
/Pattern7 {<1010000000000000010100000000000010100000000000000101000000000000> PTRN} bind def
/Pattern8 {<0000000000000000000000000000000000000000000000000000000000000000> PTRN} bind def
/Pattern9 {<1e1e0f0f8787c3c3e1e1f0f078783c3c1e1e0f0f8787c3c3e1e1f0f078783c3c> PTRN} bind def
/Pattern10 {<7878f0f0e1e1c3c387870f0f1e1e3c3c7878f0f0e1e1c3c387870f0f1e1e3c3c> PTRN} bind def
/Pattern11 {<3333333333333333333333333333333333333333333333333333333333333333> PTRN} bind def
/Pattern12 {<ffffffff00000000ffffffff00000000ffffffff00000000ffffffff00000000> PTRN} bind def
/Pattern13 {<8181424224241818181824244242818181814242242418181818242442428181> PTRN} bind def
/Pattern14 {<8080404020201010080804040202010180804040202010100808040402020101> PTRN} bind def
/Pattern15 {<0101020204040808101020204040808001010202040408081010202040408080> PTRN} bind def
/Pattern16 {<2222222222222222222222222222222222222222222222222222222222222222> PTRN} bind def
/Pattern17 {<0000ffff000000000000ffff000000000000ffff000000000000ffff00000000> PTRN} bind def
/Pattern18 {<2222ffff222222222222ffff222222222222ffff222222222222ffff22222222> PTRN} bind def
/Pattern19 {<ffffffff33333333ffffffff33333333ffffffff33333333ffffffff33333333> PTRN} bind def
/Pattern20 {<0f0f0f0f0f0f0f0ff0f0f0f0f0f0f0f00f0f0f0f0f0f0f0ff0f0f0f0f0f0f0f0> PTRN} bind def
/Pattern21 {<ff00ff00ff00ff00ff00ff00ff00ff0000ff00ff00ff00ff00ff00ff00ff00ff> PTRN} bind def
/Pattern22 {<8001800180018001800180018001ffffffff8001800180018001800180018001> PTRN} bind def
/Pattern23 {<c003c003c003c003c003c003ffffffffffffffffc003c003c003c003c003c003> PTRN} bind def
/Pattern24 {<040404040404ffff404040404040ffff040404040404ffff404040404040ffff> PTRN} bind def
/Pattern25 {<180018001800180018001800ffffffff001800180018001800180018ffffffff> PTRN} bind def
/Pattern26 {<1111b8b87c7c3a3a1111a3a3c7c78b8b1111b8b87c7c3a3a1111a3a3c7c78b8b> PTRN} bind def
/Pattern27 {<101010102828c7c70101010182827c7c101010102828c7c70101010182827c7c> PTRN} bind def
/Pattern28 {<1c1c121211112121c1c12121111112121c1c121211112121c1c1212111111212> PTRN} bind def
/Pattern29 {<3e3e414180808080e3e31414080808083e3e414180808080e3e3141408080808> PTRN} bind def
/Pattern30 {<4848888884848383848488884848383848488888848483838484888848483838> PTRN} bind def
/Pattern31 {<03030404080808080c0c12122121c0c003030404080808080c0c12122121c0c0> PTRN} bind def
/ellipsedict 8 dict def
ellipsedict /mtrx matrix put
/EARC {
 ellipsedict begin
  /endangle exch def
  /startangle exch def
  /yrad exch def
  /xrad exch def
  /y exch def
  /x exch def
  /savematrix mtrx currentmatrix def
  x y translate
  xrad yrad scale
  0 0 1 startangle endangle arc
  savematrix setmatrix
 end
} def
/TL {
  /kcomp exch def
  /linewidth exch def
  /offset exch def
  GS
  0 offset rmoveto
  linewidth SLW
  dup stringwidth exch kcomp add exch RL s
  GR
} def
/KINIT
{
 /kvector exch def
 /kid 0 def
} def
/KPROC
{
 pop pop
 kvector kid get
 0 rmoveto
 /kid 1 kid add def
} def
/DefEncoding [
 /.notdef
 /.notdef
 /.notdef
 /.notdef
 /.notdef
 /.notdef
 /.notdef
 /.notdef
 /.notdef
 /.notdef
 /.notdef
 /.notdef
 /.notdef
 /.notdef
 /.notdef
 /.notdef
 /.notdef
 /.notdef
 /.notdef
 /.notdef
 /.notdef
 /.notdef
 /.notdef
 /.notdef
 /.notdef
 /.notdef
 /.notdef
 /.notdef
 /.notdef
 /.notdef
 /.notdef
 /.notdef
 /space
 /exclam
 /quotedbl
 /numbersign
 /dollar
 /percent
 /ampersand
 /quoteright
 /parenleft
 /parenright
 /asterisk
 /plus
 /comma
 /hyphen
 /period
 /slash
 /zero
 /one
 /two
 /three
 /four
 /five
 /six
 /seven
 /eight
 /nine
 /colon
 /semicolon
 /less
 /equal
 /greater
 /question
 /at
 /A
 /B
 /C
 /D
 /E
 /F
 /G
 /H
 /I
 /J
 /K
 /L
 /M
 /N
 /O
 /P
 /Q
 /R
 /S
 /T
 /U
 /V
 /W
 /X
 /Y
 /Z
 /bracketleft
 /backslash
 /bracketright
 /asciicircum
 /underscore
 /grave
 /a
 /b
 /c
 /d
 /e
 /f
 /g
 /h
 /i
 /j
 /k
 /l
 /m
 /n
 /o
 /p
 /q
 /r
 /s
 /t
 /u
 /v
 /w
 /x
 /y
 /z
 /braceleft
 /bar
 /braceright
 /asciitilde
 /.notdef
 /.notdef
 /.notdef
 /.notdef
 /.notdef
 /.notdef
 /.notdef
 /.notdef
 /.notdef
 /.notdef
 /.notdef
 /.notdef
 /.notdef
 /.notdef
 /.notdef
 /.notdef
 /.notdef
 /.notdef
 /.notdef
 /.notdef
 /.notdef
 /.notdef
 /.notdef
 /.notdef
 /.notdef
 /.notdef
 /.notdef
 /.notdef
 /.notdef
 /.notdef
 /.notdef
 /.notdef
 /.notdef
 /space
 /exclamdown
 /cent
 /sterling
 /currency
 /yen
 /brokenbar
 /section
 /dieresis
 /copyright
 /ordfeminine
 /guillemotleft
 /logicalnot
 /hyphen
 /registered
 /macron
 /degree
 /plusminus
 /twosuperior
 /threesuperior
 /acute
 /mu
 /paragraph
 /periodcentered
 /cedilla
 /onesuperior
 /ordmasculine
 /guillemotright
 /onequarter
 /onehalf
 /threequarters
 /questiondown
 /Agrave
 /Aacute
 /Acircumflex
 /Atilde
 /Adieresis
 /Aring
 /AE
 /Ccedilla
 /Egrave
 /Eacute
 /Ecircumflex
 /Edieresis
 /Igrave
 /Iacute
 /Icircumflex
 /Idieresis
 /Eth
 /Ntilde
 /Ograve
 /Oacute
 /Ocircumflex
 /Otilde
 /Odieresis
 /multiply
 /Oslash
 /Ugrave
 /Uacute
 /Ucircumflex
 /Udieresis
 /Yacute
 /Thorn
 /germandbls
 /agrave
 /aacute
 /acircumflex
 /atilde
 /adieresis
 /aring
 /ae
 /ccedilla
 /egrave
 /eacute
 /ecircumflex
 /edieresis
 /igrave
 /iacute
 /icircumflex
 /idieresis
 /eth
 /ntilde
 /ograve
 /oacute
 /ocircumflex
 /otilde
 /odieresis
 /divide
 /oslash
 /ugrave
 /uacute
 /ucircumflex
 /udieresis
 /yacute
 /thorn
 /ydieresis
] def
%%EndProlog
%%BeginSetup
%%EndSetup
594.96 594.96 scale
n
0.0000 0.0000 m
0.0000 1.0000 l
1.4151 1.0000 l
1.4151 0.0000 l
c
[/DeviceRGB] SCS
Color0 SC
fill
[/DeviceRGB] SCS
Color1 SC
[0.0015 0.0045 ] 0 SD
0.0015 SLW
0 SLC
0 SLJ
n
0.1738 0.1500 m
0.1738 0.8500 l
s
n
0.3860 0.1500 m
0.3860 0.8500 l
s
n
0.5982 0.1500 m
0.5982 0.8500 l
s
n
0.8104 0.1500 m
0.8104 0.8500 l
s
n
1.0226 0.1500 m
1.0226 0.8500 l
s
n
0.1500 0.2165 m
1.1500 0.2165 l
s
n
0.1500 0.3565 m
1.1500 0.3565 l
s
n
0.1500 0.4965 m
1.1500 0.4965 l
s
n
0.1500 0.6365 m
1.1500 0.6365 l
s
n
0.1500 0.7765 m
1.1500 0.7765 l
s
[/DeviceRGB] SCS
Color2 SC
[] 0 SD
0.0015 SLW
n
0.1738 0.4965 m
0.1741 0.4964 l
0.1744 0.4963 l
0.1747 0.4960 l
0.1750 0.4953 l
0.1753 0.4943 l
0.1756 0.4928 l
0.1759 0.4907 l
0.1762 0.4880 l
0.1765 0.4848 l
0.1768 0.4808 l
0.1771 0.4762 l
0.1774 0.4710 l
0.1778 0.4651 l
0.1781 0.4587 l
0.1784 0.4518 l
0.1787 0.4445 l
0.1790 0.4369 l
0.1793 0.4290 l
0.1796 0.4211 l
0.1799 0.4132 l
0.1802 0.4054 l
0.1805 0.3979 l
0.1808 0.3908 l
0.1811 0.3843 l
0.1814 0.3784 l
0.1817 0.3732 l
0.1820 0.3689 l
0.1823 0.3655 l
0.1826 0.3631 l
0.1829 0.3618 l
0.1832 0.3615 l
0.1835 0.3623 l
0.1838 0.3642 l
0.1841 0.3671 l
0.1844 0.3711 l
0.1847 0.3760 l
0.1850 0.3818 l
0.1853 0.3884 l
0.1856 0.3957 l
0.1859 0.4035 l
0.1862 0.4117 l
0.1865 0.4203 l
0.1868 0.4289 l
0.1871 0.4376 l
0.1875 0.4462 l
0.1878 0.4544 l
0.1881 0.4623 l
0.1884 0.4696 l
0.1887 0.4762 l
0.1890 0.4821 l
0.1893 0.4871 l
0.1896 0.4912 l
0.1899 0.4943 l
0.1902 0.4963 l
0.1905 0.4972 l
0.1908 0.4970 l
0.1911 0.4957 l
0.1914 0.4934 l
0.1917 0.4901 l
0.1920 0.4857 l
0.1923 0.4805 l
0.1926 0.4745 l
0.1929 0.4678 l
0.1932 0.4604 l
0.1935 0.4526 l
0.1938 0.4444 l
0.1941 0.4360 l
0.1944 0.4275 l
0.1947 0.4191 l
0.1950 0.4108 l
0.1953 0.4028 l
0.1956 0.3952 l
0.1959 0.3882 l
0.1962 0.3818 l
0.1965 0.3762 l
0.1968 0.3714 l
0.1972 0.3675 l
0.1975 0.3645 l
0.1978 0.3626 l
0.1981 0.3617 l
0.1984 0.3619 l
0.1987 0.3631 l
0.1990 0.3653 l
0.1993 0.3685 l
0.1996 0.3727 l
0.1999 0.3777 l
0.2002 0.3835 l
0.2005 0.3901 l
0.2008 0.3972 l
0.2011 0.4049 l
0.2014 0.4129 l
0.2017 0.4211 l
0.2020 0.4295 l
0.2023 0.4379 l
0.2026 0.4462 l
0.2029 0.4541 l
0.2032 0.4617 l
0.2035 0.4688 l
0.2038 0.4753 l
0.2041 0.4810 l
0.2044 0.4860 l
0.2047 0.4900 l
0.2050 0.4931 l
0.2053 0.4952 l
0.2056 0.4962 l
0.2059 0.4962 l
0.2062 0.4951 l
0.2065 0.4930 l
0.2069 0.4898 l
0.2072 0.4857 l
0.2075 0.4807 l
0.2078 0.4749 l
0.2081 0.4683 l
0.2084 0.4611 l
0.2087 0.4534 l
0.2090 0.4453 l
0.2093 0.4369 l
0.2096 0.4284 l
0.2099 0.4199 l
0.2102 0.4116 l
0.2105 0.4035 l
0.2108 0.3958 l
0.2111 0.3886 l
0.2114 0.3821 l
0.2117 0.3763 l
0.2120 0.3713 l
0.2123 0.3673 l
0.2126 0.3642 l
0.2129 0.3622 l
0.2132 0.3612 l
0.2135 0.3614 l
0.2138 0.3625 l
0.2141 0.3648 l
0.2144 0.3681 l
0.2147 0.3723 l
0.2150 0.3775 l
0.2153 0.3835 l
0.2156 0.3902 l
0.2159 0.3975 l
0.2163 0.4054 l
0.2166 0.4137 l
0.2169 0.4222 l
0.2172 0.4309 l
0.2175 0.4396 l
0.2178 0.4482 l
0.2181 0.4565 l
0.2184 0.4644 l
0.2187 0.4718 l
0.2190 0.4787 l
0.2193 0.4848 l
0.2196 0.4902 l
0.2199 0.4948 l
0.2202 0.4984 l
0.2205 0.5011 l
0.2208 0.5028 l
0.2211 0.5035 l
0.2214 0.5033 l
0.2217 0.5022 l
0.2220 0.5002 l
0.2223 0.4973 l
0.2226 0.4937 l
0.2229 0.4895 l
0.2232 0.4846 l
0.2235 0.4794 l
0.2238 0.4738 l
0.2241 0.4681 l
0.2244 0.4623 l
0.2247 0.4565 l
0.2250 0.4510 l
0.2253 0.4459 l
0.2256 0.4413 l
0.2260 0.4373 l
0.2263 0.4341 l
0.2266 0.4317 l
0.2269 0.4304 l
0.2272 0.4301 l
0.2275 0.4309 l
0.2278 0.4330 l
0.2281 0.4362 l
0.2284 0.4408 l
0.2287 0.4466 l
0.2290 0.4537 l
0.2293 0.4619 l
0.2296 0.4714 l
0.2299 0.4819 l
0.2302 0.4934 l
0.2305 0.5059 l
0.2308 0.5190 l
0.2311 0.5328 l
0.2314 0.5471 l
0.2317 0.5617 l
0.2320 0.5764 l
0.2323 0.5911 l
0.2326 0.6056 l
0.2329 0.6197 l
0.2332 0.6332 l
0.2335 0.6459 l
0.2338 0.6577 l
0.2341 0.6684 l
0.2344 0.6779 l
0.2347 0.6860 l
0.2350 0.6926 l
0.2353 0.6976 l
0.2357 0.7010 l
0.2360 0.7026 l
0.2363 0.7024 l
0.2366 0.7004 l
0.2369 0.6966 l
0.2372 0.6911 l
0.2375 0.6839 l
0.2378 0.6751 l
0.2381 0.6647 l
0.2384 0.6530 l
0.2387 0.6400 l
0.2390 0.6260 l
0.2393 0.6110 l
0.2396 0.5953 l
0.2399 0.5792 l
0.2402 0.5627 l
0.2405 0.5463 l
0.2408 0.5299 l
0.2411 0.5140 l
0.2414 0.4987 l
0.2417 0.4842 l
0.2420 0.4708 l
0.2423 0.4586 l
0.2426 0.4479 l
0.2429 0.4387 l
0.2432 0.4313 l
0.2435 0.4257 l
0.2438 0.4220 l
0.2441 0.4204 l
0.2444 0.4208 l
0.2447 0.4232 l
0.2451 0.4277 l
0.2454 0.4343 l
0.2457 0.4427 l
0.2460 0.4529 l
0.2463 0.4649 l
0.2466 0.4783 l
0.2469 0.4931 l
0.2472 0.5090 l
0.2475 0.5259 l
0.2478 0.5434 l
0.2481 0.5613 l
0.2484 0.5794 l
0.2487 0.5974 l
0.2490 0.6151 l
0.2493 0.6320 l
0.2496 0.6481 l
0.2499 0.6631 l
0.2502 0.6766 l
0.2505 0.6885 l
0.2508 0.6987 l
0.2511 0.7069 l
0.2514 0.7129 l
0.2517 0.7168 l
0.2520 0.7183 l
0.2523 0.7175 l
0.2526 0.7143 l
0.2529 0.7088 l
0.2532 0.7010 l
0.2535 0.6911 l
0.2538 0.6791 l
0.2541 0.6653 l
0.2544 0.6498 l
0.2548 0.6329 l
0.2551 0.6147 l
0.2554 0.5957 l
0.2557 0.5760 l
0.2560 0.5560 l
0.2563 0.5360 l
0.2566 0.5163 l
0.2569 0.4973 l
0.2572 0.4791 l
0.2575 0.4622 l
0.2578 0.4468 l
0.2581 0.4331 l
0.2584 0.4215 l
0.2587 0.4120 l
0.2590 0.4049 l
0.2593 0.4003 l
0.2596 0.3983 l
0.2599 0.3989 l
0.2602 0.4022 l
0.2605 0.4080 l
0.2608 0.4164 l
0.2611 0.4272 l
0.2614 0.4403 l
0.2617 0.4554 l
0.2620 0.4723 l
0.2623 0.4907 l
0.2626 0.5104 l
0.2629 0.5310 l
0.2632 0.5523 l
0.2635 0.5738 l
0.2638 0.5952 l
0.2641 0.6162 l
0.2645 0.6363 l
0.2648 0.6554 l
0.2651 0.6730 l
0.2654 0.6889 l
0.2657 0.7027 l
0.2660 0.7143 l
0.2663 0.7235 l
0.2666 0.7301 l
0.2669 0.7339 l
0.2672 0.7349 l
0.2675 0.7331 l
0.2678 0.7285 l
0.2681 0.7212 l
0.2684 0.7112 l
0.2687 0.6988 l
0.2690 0.6840 l
0.2693 0.6672 l
0.2696 0.6486 l
0.2699 0.6285 l
0.2702 0.6073 l
0.2705 0.5851 l
0.2708 0.5625 l
0.2711 0.5398 l
0.2714 0.5172 l
0.2717 0.4953 l
0.2720 0.4742 l
0.2723 0.4544 l
0.2726 0.4360 l
0.2729 0.4195 l
0.2732 0.4051 l
0.2735 0.3929 l
0.2738 0.3831 l
0.2742 0.3758 l
0.2745 0.3712 l
0.2748 0.3693 l
0.2751 0.3700 l
0.2754 0.3733 l
0.2757 0.3791 l
0.2760 0.3873 l
0.2763 0.3976 l
0.2766 0.4099 l
0.2769 0.4240 l
0.2772 0.4395 l
0.2775 0.4561 l
0.2778 0.4735 l
0.2781 0.4914 l
0.2784 0.5095 l
0.2787 0.5274 l
0.2790 0.5447 l
0.2793 0.5611 l
0.2796 0.5764 l
0.2799 0.5902 l
0.2802 0.6022 l
0.2805 0.6122 l
0.2808 0.6200 l
0.2811 0.6255 l
0.2814 0.6283 l
0.2817 0.6286 l
0.2820 0.6261 l
0.2823 0.6209 l
0.2826 0.6131 l
0.2829 0.6027 l
0.2832 0.5897 l
0.2836 0.5744 l
0.2839 0.5570 l
0.2842 0.5376 l
0.2845 0.5165 l
0.2848 0.4940 l
0.2851 0.4704 l
0.2854 0.4461 l
0.2857 0.4213 l
0.2860 0.3964 l
0.2863 0.3718 l
0.2866 0.3477 l
0.2869 0.3246 l
0.2872 0.3027 l
0.2875 0.2824 l
0.2878 0.2640 l
0.2881 0.2477 l
0.2884 0.2338 l
0.2887 0.2224 l
0.2890 0.2138 l
0.2893 0.2081 l
0.2896 0.2053 l
0.2899 0.2055 l
0.2902 0.2088 l
0.2905 0.2150 l
0.2908 0.2242 l
0.2911 0.2361 l
0.2914 0.2507 l
0.2917 0.2677 l
0.2920 0.2869 l
0.2923 0.3081 l
0.2926 0.3309 l
0.2929 0.3550 l
0.2933 0.3802 l
0.2936 0.4060 l
0.2939 0.4321 l
0.2942 0.4581 l
0.2945 0.4837 l
0.2948 0.5085 l
0.2951 0.5321 l
0.2954 0.5543 l
0.2957 0.5746 l
0.2960 0.5928 l
0.2963 0.6087 l
0.2966 0.6220 l
0.2969 0.6325 l
0.2972 0.6401 l
0.2975 0.6447 l
0.2978 0.6461 l
0.2981 0.6444 l
0.2984 0.6397 l
0.2987 0.6318 l
0.2990 0.6211 l
0.2993 0.6076 l
0.2996 0.5915 l
0.2999 0.5731 l
0.3002 0.5527 l
0.3005 0.5304 l
0.3008 0.5068 l
0.3011 0.4820 l
0.3014 0.4566 l
0.3017 0.4308 l
0.3020 0.4050 l
0.3023 0.3797 l
0.3026 0.3551 l
0.3030 0.3317 l
0.3033 0.3098 l
0.3036 0.2897 l
0.3039 0.2717 l
0.3042 0.2561 l
0.3045 0.2432 l
0.3048 0.2330 l
0.3051 0.2257 l
0.3054 0.2215 l
0.3057 0.2204 l
0.3060 0.2224 l
0.3063 0.2275 l
0.3066 0.2356 l
0.3069 0.2465 l
0.3072 0.2601 l
0.3075 0.2762 l
0.3078 0.2945 l
0.3081 0.3148 l
0.3084 0.3367 l
0.3087 0.3599 l
0.3090 0.3841 l
0.3093 0.4089 l
0.3096 0.4339 l
0.3099 0.4588 l
0.3102 0.4831 l
0.3105 0.5066 l
0.3108 0.5289 l
0.3111 0.5496 l
0.3114 0.5684 l
0.3117 0.5851 l
0.3120 0.5995 l
0.3124 0.6113 l
0.3127 0.6203 l
0.3130 0.6265 l
0.3133 0.6297 l
0.3136 0.6299 l
0.3139 0.6272 l
0.3142 0.6215 l
0.3145 0.6130 l
0.3148 0.6017 l
0.3151 0.5880 l
0.3154 0.5719 l
0.3157 0.5537 l
0.3160 0.5338 l
0.3163 0.5123 l
0.3166 0.4896 l
0.3169 0.4661 l
0.3172 0.4422 l
0.3175 0.4180 l
0.3178 0.3941 l
0.3181 0.3708 l
0.3184 0.3485 l
0.3187 0.3274 l
0.3190 0.3078 l
0.3193 0.2902 l
0.3196 0.2747 l
0.3199 0.2616 l
0.3202 0.2511 l
0.3205 0.2434 l
0.3208 0.2385 l
0.3211 0.2366 l
0.3214 0.2378 l
0.3217 0.2419 l
0.3221 0.2491 l
0.3224 0.2591 l
0.3227 0.2719 l
0.3230 0.2873 l
0.3233 0.3051 l
0.3236 0.3250 l
0.3239 0.3468 l
0.3242 0.3702 l
0.3245 0.3948 l
0.3248 0.4204 l
0.3251 0.4465 l
0.3254 0.4728 l
0.3257 0.4988 l
0.3260 0.5244 l
0.3263 0.5490 l
0.3266 0.5723 l
0.3269 0.5941 l
0.3272 0.6139 l
0.3275 0.6316 l
0.3278 0.6468 l
0.3281 0.6594 l
0.3284 0.6691 l
0.3287 0.6759 l
0.3290 0.6797 l
0.3293 0.6805 l
0.3296 0.6782 l
0.3299 0.6729 l
0.3302 0.6647 l
0.3305 0.6539 l
0.3308 0.6405 l
0.3311 0.6248 l
0.3314 0.6072 l
0.3318 0.5879 l
0.3321 0.5673 l
0.3324 0.5457 l
0.3327 0.5235 l
0.3330 0.5012 l
0.3333 0.4791 l
0.3336 0.4576 l
0.3339 0.4372 l
0.3342 0.4182 l
0.3345 0.4010 l
0.3348 0.3859 l
0.3351 0.3732 l
0.3354 0.3632 l
0.3357 0.3562 l
0.3360 0.3522 l
0.3363 0.3515 l
0.3366 0.3541 l
0.3369 0.3600 l
0.3372 0.3692 l
0.3375 0.3817 l
0.3378 0.3972 l
0.3381 0.4156 l
0.3384 0.4367 l
0.3387 0.4601 l
0.3390 0.4856 l
0.3393 0.5127 l
0.3396 0.5411 l
0.3399 0.5704 l
0.3402 0.6000 l
0.3405 0.6296 l
0.3408 0.6587 l
0.3411 0.6869 l
0.3415 0.7137 l
0.3418 0.7386 l
0.3421 0.7613 l
0.3424 0.7815 l
0.3427 0.7987 l
0.3430 0.8127 l
0.3433 0.8233 l
0.3436 0.8302 l
0.3439 0.8333 l
0.3442 0.8326 l
0.3445 0.8281 l
0.3448 0.8197 l
0.3451 0.8076 l
0.3454 0.7919 l
0.3457 0.7729 l
0.3460 0.7507 l
0.3463 0.7259 l
0.3466 0.6986 l
0.3469 0.6693 l
0.3472 0.6385 l
0.3475 0.6065 l
0.3478 0.5739 l
0.3481 0.5412 l
0.3484 0.5087 l
0.3487 0.4771 l
0.3490 0.4468 l
0.3493 0.4182 l
0.3496 0.3918 l
0.3499 0.3680 l
0.3502 0.3470 l
0.3505 0.3294 l
0.3509 0.3152 l
0.3512 0.3047 l
0.3515 0.2981 l
0.3518 0.2954 l
0.3521 0.2968 l
0.3524 0.3020 l
0.3527 0.3112 l
0.3530 0.3240 l
0.3533 0.3404 l
0.3536 0.3600 l
0.3539 0.3826 l
0.3542 0.4078 l
0.3545 0.4352 l
0.3548 0.4643 l
0.3551 0.4948 l
0.3554 0.5262 l
0.3557 0.5579 l
0.3560 0.5896 l
0.3563 0.6207 l
0.3566 0.6507 l
0.3569 0.6792 l
0.3572 0.7059 l
0.3575 0.7302 l
0.3578 0.7518 l
0.3581 0.7705 l
0.3584 0.7859 l
0.3587 0.7978 l
0.3590 0.8062 l
0.3593 0.8108 l
0.3596 0.8116 l
0.3599 0.8087 l
0.3602 0.8021 l
0.3606 0.7919 l
0.3609 0.7783 l
0.3612 0.7616 l
0.3615 0.7420 l
0.3618 0.7199 l
0.3621 0.6956 l
0.3624 0.6694 l
0.3627 0.6419 l
0.3630 0.6133 l
0.3633 0.5843 l
0.3636 0.5551 l
0.3639 0.5264 l
0.3642 0.4984 l
0.3645 0.4716 l
0.3648 0.4464 l
0.3651 0.4232 l
0.3654 0.4022 l
0.3657 0.3839 l
0.3660 0.3684 l
0.3663 0.3560 l
0.3666 0.3468 l
0.3669 0.3409 l
0.3672 0.3385 l
0.3675 0.3393 l
0.3678 0.3436 l
0.3681 0.3511 l
0.3684 0.3616 l
0.3687 0.3751 l
0.3690 0.3913 l
0.3693 0.4099 l
0.3696 0.4306 l
0.3699 0.4530 l
0.3703 0.4769 l
0.3706 0.5018 l
0.3709 0.5274 l
0.3712 0.5532 l
0.3715 0.5789 l
0.3718 0.6041 l
0.3721 0.6283 l
0.3724 0.6513 l
0.3727 0.6726 l
0.3730 0.6920 l
0.3733 0.7092 l
0.3736 0.7239 l
0.3739 0.7359 l
0.3742 0.7450 l
0.3745 0.7512 l
0.3748 0.7542 l
0.3751 0.7541 l
0.3754 0.7508 l
0.3757 0.7445 l
0.3760 0.7351 l
0.3763 0.7229 l
0.3766 0.7080 l
0.3769 0.6906 l
0.3772 0.6709 l
0.3775 0.6493 l
0.3778 0.6261 l
0.3781 0.6015 l
0.3784 0.5759 l
0.3787 0.5496 l
0.3790 0.5231 l
0.3793 0.4967 l
0.3796 0.4708 l
0.3800 0.4456 l
0.3803 0.4216 l
0.3806 0.3991 l
0.3809 0.3783 l
0.3812 0.3596 l
0.3815 0.3431 l
0.3818 0.3291 l
0.3821 0.3177 l
0.3824 0.3091 l
0.3827 0.3034 l
0.3830 0.3006 l
0.3833 0.3006 l
0.3836 0.3034 l
0.3839 0.3090 l
0.3842 0.3172 l
0.3845 0.3279 l
0.3848 0.3407 l
0.3851 0.3555 l
0.3854 0.3720 l
0.3857 0.3899 l
0.3860 0.4089 l
0.3863 0.4286 l
0.3866 0.4487 l
0.3869 0.4687 l
0.3872 0.4885 l
0.3875 0.5075 l
0.3878 0.5255 l
0.3881 0.5422 l
0.3884 0.5571 l
0.3887 0.5702 l
0.3890 0.5810 l
0.3894 0.5895 l
0.3897 0.5954 l
0.3900 0.5986 l
0.3903 0.5990 l
0.3906 0.5966 l
0.3909 0.5914 l
0.3912 0.5834 l
0.3915 0.5728 l
0.3918 0.5596 l
0.3921 0.5440 l
0.3924 0.5263 l
0.3927 0.5067 l
0.3930 0.4856 l
0.3933 0.4631 l
0.3936 0.4397 l
0.3939 0.4156 l
0.3942 0.3914 l
0.3945 0.3672 l
0.3948 0.3436 l
0.3951 0.3208 l
0.3954 0.2992 l
0.3957 0.2791 l
0.3960 0.2609 l
0.3963 0.2449 l
0.3966 0.2312 l
0.3969 0.2201 l
0.3972 0.2119 l
0.3975 0.2065 l
0.3978 0.2042 l
0.3981 0.2050 l
0.3984 0.2088 l
0.3987 0.2157 l
0.3991 0.2256 l
0.3994 0.2383 l
0.3997 0.2537 l
0.4000 0.2716 l
0.4003 0.2917 l
0.4006 0.3137 l
0.4009 0.3374 l
0.4012 0.3624 l
0.4015 0.3883 l
0.4018 0.4149 l
0.4021 0.4417 l
0.4024 0.4684 l
0.4027 0.4946 l
0.4030 0.5199 l
0.4033 0.5439 l
0.4036 0.5664 l
0.4039 0.5871 l
0.4042 0.6055 l
0.4045 0.6216 l
0.4048 0.6349 l
0.4051 0.6455 l
0.4054 0.6530 l
0.4057 0.6574 l
0.4060 0.6587 l
0.4063 0.6568 l
0.4066 0.6518 l
0.4069 0.6436 l
0.4072 0.6325 l
0.4075 0.6185 l
0.4078 0.6020 l
0.4081 0.5830 l
0.4084 0.5619 l
0.4088 0.5390 l
0.4091 0.5146 l
0.4094 0.4890 l
0.4097 0.4627 l
0.4100 0.4359 l
0.4103 0.4090 l
0.4106 0.3826 l
0.4109 0.3568 l
0.4112 0.3322 l
0.4115 0.3090 l
0.4118 0.2876 l
0.4121 0.2683 l
0.4124 0.2514 l
0.4127 0.2372 l
0.4130 0.2257 l
0.4133 0.2173 l
0.4136 0.2121 l
0.4139 0.2100 l
0.4142 0.2112 l
0.4145 0.2157 l
0.4148 0.2233 l
0.4151 0.2339 l
0.4154 0.2475 l
0.4157 0.2637 l
0.4160 0.2824 l
0.4163 0.3033 l
0.4166 0.3260 l
0.4169 0.3502 l
0.4172 0.3756 l
0.4175 0.4017 l
0.4178 0.4281 l
0.4182 0.4546 l
0.4185 0.4806 l
0.4188 0.5057 l
0.4191 0.5296 l
0.4194 0.5519 l
0.4197 0.5723 l
0.4200 0.5905 l
0.4203 0.6061 l
0.4206 0.6190 l
0.4209 0.6289 l
0.4212 0.6358 l
0.4215 0.6395 l
0.4218 0.6400 l
0.4221 0.6373 l
0.4224 0.6315 l
0.4227 0.6226 l
0.4230 0.6109 l
0.4233 0.5965 l
0.4236 0.5797 l
0.4239 0.5608 l
0.4242 0.5401 l
0.4245 0.5179 l
0.4248 0.4947 l
0.4251 0.4708 l
0.4254 0.4467 l
0.4257 0.4226 l
0.4260 0.3991 l
0.4263 0.3766 l
0.4266 0.3553 l
0.4269 0.3357 l
0.4272 0.3181 l
0.4275 0.3028 l
0.4279 0.2900 l
0.4282 0.2799 l
0.4285 0.2727 l
0.4288 0.2686 l
0.4291 0.2676 l
0.4294 0.2697 l
0.4297 0.2749 l
0.4300 0.2831 l
0.4303 0.2942 l
0.4306 0.3080 l
0.4309 0.3243 l
0.4312 0.3428 l
0.4315 0.3633 l
0.4318 0.3854 l
0.4321 0.4089 l
0.4324 0.4333 l
0.4327 0.4582 l
0.4330 0.4834 l
0.4333 0.5085 l
0.4336 0.5330 l
0.4339 0.5566 l
0.4342 0.5791 l
0.4345 0.6000 l
0.4348 0.6192 l
0.4351 0.6363 l
0.4354 0.6511 l
0.4357 0.6636 l
0.4360 0.6735 l
0.4363 0.6808 l
0.4366 0.6855 l
0.4369 0.6874 l
0.4372 0.6868 l
0.4376 0.6836 l
0.4379 0.6780 l
0.4382 0.6702 l
0.4385 0.6604 l
0.4388 0.6488 l
0.4391 0.6356 l
0.4394 0.6211 l
0.4397 0.6057 l
0.4400 0.5896 l
0.4403 0.5732 l
0.4406 0.5567 l
0.4409 0.5405 l
0.4412 0.5248 l
0.4415 0.5100 l
0.4418 0.4963 l
0.4421 0.4840 l
0.4424 0.4732 l
0.4427 0.4642 l
0.4430 0.4572 l
0.4433 0.4522 l
0.4436 0.4493 l
0.4439 0.4487 l
0.4442 0.4502 l
0.4445 0.4539 l
0.4448 0.4597 l
0.4451 0.4676 l
0.4454 0.4774 l
0.4457 0.4889 l
0.4460 0.5019 l
0.4463 0.5163 l
0.4466 0.5318 l
0.4469 0.5482 l
0.4473 0.5652 l
0.4476 0.5825 l
0.4479 0.5999 l
0.4482 0.6171 l
0.4485 0.6338 l
0.4488 0.6497 l
0.4491 0.6647 l
0.4494 0.6784 l
0.4497 0.6907 l
0.4500 0.7013 l
0.4503 0.7101 l
0.4506 0.7170 l
0.4509 0.7218 l
0.4512 0.7245 l
0.4515 0.7250 l
0.4518 0.7234 l
0.4521 0.7195 l
0.4524 0.7135 l
0.4527 0.7054 l
0.4530 0.6954 l
0.4533 0.6836 l
0.4536 0.6702 l
0.4539 0.6553 l
0.4542 0.6391 l
0.4545 0.6220 l
0.4548 0.6040 l
0.4551 0.5855 l
0.4554 0.5668 l
0.4557 0.5480 l
0.4560 0.5294 l
0.4563 0.5113 l
0.4567 0.4940 l
0.4570 0.4776 l
0.4573 0.4624 l
0.4576 0.4486 l
0.4579 0.4364 l
0.4582 0.4259 l
0.4585 0.4173 l
0.4588 0.4106 l
0.4591 0.4060 l
0.4594 0.4035 l
0.4597 0.4031 l
0.4600 0.4049 l
0.4603 0.4087 l
0.4606 0.4145 l
0.4609 0.4223 l
0.4612 0.4318 l
0.4615 0.4430 l
0.4618 0.4558 l
0.4621 0.4698 l
0.4624 0.4849 l
0.4627 0.5010 l
0.4630 0.5177 l
0.4633 0.5348 l
0.4636 0.5521 l
0.4639 0.5694 l
0.4642 0.5865 l
0.4645 0.6030 l
0.4648 0.6188 l
0.4651 0.6336 l
0.4654 0.6474 l
0.4657 0.6598 l
0.4660 0.6707 l
0.4664 0.6800 l
0.4667 0.6876 l
0.4670 0.6934 l
0.4673 0.6974 l
0.4676 0.6994 l
0.4679 0.6995 l
0.4682 0.6977 l
0.4685 0.6940 l
0.4688 0.6886 l
0.4691 0.6815 l
0.4694 0.6727 l
0.4697 0.6626 l
0.4700 0.6511 l
0.4703 0.6386 l
0.4706 0.6251 l
0.4709 0.6109 l
0.4712 0.5961 l
0.4715 0.5811 l
0.4718 0.5659 l
0.4721 0.5508 l
0.4724 0.5361 l
0.4727 0.5219 l
0.4730 0.5084 l
0.4733 0.4957 l
0.4736 0.4841 l
0.4739 0.4737 l
0.4742 0.4646 l
0.4745 0.4570 l
0.4748 0.4508 l
0.4751 0.4462 l
0.4754 0.4432 l
0.4757 0.4418 l
0.4761 0.4420 l
0.4764 0.4438 l
0.4767 0.4471 l
0.4770 0.4518 l
0.4773 0.4578 l
0.4776 0.4650 l
0.4779 0.4733 l
0.4782 0.4824 l
0.4785 0.4923 l
0.4788 0.5028 l
0.4791 0.5137 l
0.4794 0.5247 l
0.4797 0.5358 l
0.4800 0.5466 l
0.4803 0.5571 l
0.4806 0.5671 l
0.4809 0.5763 l
0.4812 0.5847 l
0.4815 0.5921 l
0.4818 0.5984 l
0.4821 0.6034 l
0.4824 0.6071 l
0.4827 0.6093 l
0.4830 0.6102 l
0.4833 0.6096 l
0.4836 0.6075 l
0.4839 0.6039 l
0.4842 0.5989 l
0.4845 0.5926 l
0.4848 0.5850 l
0.4851 0.5762 l
0.4855 0.5664 l
0.4858 0.5556 l
0.4861 0.5440 l
0.4864 0.5317 l
0.4867 0.5190 l
0.4870 0.5060 l
0.4873 0.4927 l
0.4876 0.4795 l
0.4879 0.4665 l
0.4882 0.4537 l
0.4885 0.4415 l
0.4888 0.4298 l
0.4891 0.4189 l
0.4894 0.4089 l
0.4897 0.3998 l
0.4900 0.3918 l
0.4903 0.3850 l
0.4906 0.3793 l
0.4909 0.3748 l
0.4912 0.3715 l
0.4915 0.3694 l
0.4918 0.3686 l
0.4921 0.3688 l
0.4924 0.3702 l
0.4927 0.3726 l
0.4930 0.3759 l
0.4933 0.3800 l
0.4936 0.3848 l
0.4939 0.3901 l
0.4942 0.3960 l
0.4945 0.4021 l
0.4948 0.4084 l
0.4952 0.4147 l
0.4955 0.4209 l
0.4958 0.4269 l
0.4961 0.4325 l
0.4964 0.4375 l
0.4967 0.4420 l
0.4970 0.4458 l
0.4973 0.4488 l
0.4976 0.4509 l
0.4979 0.4522 l
0.4982 0.4525 l
0.4985 0.4518 l
0.4988 0.4502 l
0.4991 0.4477 l
0.4994 0.4442 l
0.4997 0.4399 l
0.5000 0.4349 l
0.5003 0.4291 l
0.5006 0.4228 l
0.5009 0.4160 l
0.5012 0.4089 l
0.5015 0.4015 l
0.5018 0.3941 l
0.5021 0.3867 l
0.5024 0.3796 l
0.5027 0.3728 l
0.5030 0.3665 l
0.5033 0.3608 l
0.5036 0.3559 l
0.5039 0.3518 l
0.5042 0.3488 l
0.5045 0.3468 l
0.5049 0.3459 l
0.5052 0.3462 l
0.5055 0.3477 l
0.5058 0.3504 l
0.5061 0.3543 l
0.5064 0.3595 l
0.5067 0.3657 l
0.5070 0.3730 l
0.5073 0.3813 l
0.5076 0.3904 l
0.5079 0.4003 l
0.5082 0.4108 l
0.5085 0.4217 l
0.5088 0.4329 l
0.5091 0.4441 l
0.5094 0.4554 l
0.5097 0.4663 l
0.5100 0.4769 l
0.5103 0.4869 l
0.5106 0.4962 l
0.5109 0.5045 l
0.5112 0.5119 l
0.5115 0.5181 l
0.5118 0.5230 l
0.5121 0.5267 l
0.5124 0.5289 l
0.5127 0.5298 l
0.5130 0.5292 l
0.5133 0.5272 l
0.5136 0.5239 l
0.5139 0.5192 l
0.5142 0.5133 l
0.5146 0.5063 l
0.5149 0.4982 l
0.5152 0.4893 l
0.5155 0.4797 l
0.5158 0.4695 l
0.5161 0.4590 l
0.5164 0.4482 l
0.5167 0.4374 l
0.5170 0.4268 l
0.5173 0.4165 l
0.5176 0.4067 l
0.5179 0.3975 l
0.5182 0.3891 l
0.5185 0.3817 l
0.5188 0.3752 l
0.5191 0.3698 l
0.5194 0.3656 l
0.5197 0.3626 l
0.5200 0.3609 l
0.5203 0.3603 l
0.5206 0.3609 l
0.5209 0.3627 l
0.5212 0.3655 l
0.5215 0.3694 l
0.5218 0.3741 l
0.5221 0.3796 l
0.5224 0.3857 l
0.5227 0.3924 l
0.5230 0.3994 l
0.5233 0.4067 l
0.5236 0.4141 l
0.5240 0.4214 l
0.5243 0.4285 l
0.5246 0.4354 l
0.5249 0.4419 l
0.5252 0.4478 l
0.5255 0.4532 l
0.5258 0.4579 l
0.5261 0.4619 l
0.5264 0.4652 l
0.5267 0.4677 l
0.5270 0.4695 l
0.5273 0.4706 l
0.5276 0.4710 l
0.5279 0.4708 l
0.5282 0.4700 l
0.5285 0.4687 l
0.5288 0.4669 l
0.5291 0.4649 l
0.5294 0.4627 l
0.5297 0.4603 l
0.5300 0.4580 l
0.5303 0.4557 l
0.5306 0.4535 l
0.5309 0.4517 l
0.5312 0.4501 l
0.5315 0.4490 l
0.5318 0.4484 l
0.5321 0.4482 l
0.5324 0.4486 l
0.5327 0.4496 l
0.5330 0.4511 l
0.5333 0.4532 l
0.5337 0.4559 l
0.5340 0.4591 l
0.5343 0.4627 l
0.5346 0.4668 l
0.5349 0.4713 l
0.5352 0.4760 l
0.5355 0.4810 l
0.5358 0.4862 l
0.5361 0.4914 l
0.5364 0.4966 l
0.5367 0.5017 l
0.5370 0.5067 l
0.5373 0.5115 l
0.5376 0.5160 l
0.5379 0.5202 l
0.5382 0.5240 l
0.5385 0.5273 l
0.5388 0.5302 l
0.5391 0.5326 l
0.5394 0.5345 l
0.5397 0.5359 l
0.5400 0.5368 l
0.5403 0.5373 l
0.5406 0.5374 l
0.5409 0.5370 l
0.5412 0.5363 l
0.5415 0.5354 l
0.5418 0.5341 l
0.5421 0.5328 l
0.5424 0.5313 l
0.5427 0.5298 l
0.5430 0.5283 l
0.5434 0.5270 l
0.5437 0.5258 l
0.5440 0.5249 l
0.5443 0.5244 l
0.5446 0.5242 l
0.5449 0.5245 l
0.5452 0.5253 l
0.5455 0.5266 l
0.5458 0.5285 l
0.5461 0.5310 l
0.5464 0.5341 l
0.5467 0.5378 l
0.5470 0.5421 l
0.5473 0.5470 l
0.5476 0.5525 l
0.5479 0.5584 l
0.5482 0.5649 l
0.5485 0.5717 l
0.5488 0.5789 l
0.5491 0.5864 l
0.5494 0.5940 l
0.5497 0.6017 l
0.5500 0.6095 l
0.5503 0.6171 l
0.5506 0.6245 l
0.5509 0.6317 l
0.5512 0.6384 l
0.5515 0.6446 l
0.5518 0.6502 l
0.5521 0.6551 l
0.5524 0.6593 l
0.5527 0.6626 l
0.5531 0.6650 l
0.5534 0.6664 l
0.5537 0.6668 l
0.5540 0.6662 l
0.5543 0.6645 l
0.5546 0.6618 l
0.5549 0.6580 l
0.5552 0.6532 l
0.5555 0.6474 l
0.5558 0.6408 l
0.5561 0.6333 l
0.5564 0.6250 l
0.5567 0.6161 l
0.5570 0.6066 l
0.5573 0.5966 l
0.5576 0.5864 l
0.5579 0.5760 l
0.5582 0.5655 l
0.5585 0.5550 l
0.5588 0.5448 l
0.5591 0.5349 l
0.5594 0.5255 l
0.5597 0.5166 l
0.5600 0.5085 l
0.5603 0.5011 l
0.5606 0.4946 l
0.5609 0.4891 l
0.5612 0.4846 l
0.5615 0.4812 l
0.5618 0.4789 l
0.5621 0.4777 l
0.5625 0.4776 l
0.5628 0.4787 l
0.5631 0.4808 l
0.5634 0.4840 l
0.5637 0.4881 l
0.5640 0.4931 l
0.5643 0.4990 l
0.5646 0.5055 l
0.5649 0.5126 l
0.5652 0.5202 l
0.5655 0.5282 l
0.5658 0.5365 l
0.5661 0.5448 l
0.5664 0.5531 l
0.5667 0.5613 l
0.5670 0.5692 l
0.5673 0.5768 l
0.5676 0.5838 l
0.5679 0.5903 l
0.5682 0.5961 l
0.5685 0.6012 l
0.5688 0.6055 l
0.5691 0.6089 l
0.5694 0.6114 l
0.5697 0.6130 l
0.5700 0.6136 l
0.5703 0.6134 l
0.5706 0.6122 l
0.5709 0.6101 l
0.5712 0.6072 l
0.5715 0.6036 l
0.5718 0.5992 l
0.5722 0.5943 l
0.5725 0.5888 l
0.5728 0.5828 l
0.5731 0.5765 l
0.5734 0.5700 l
0.5737 0.5634 l
0.5740 0.5567 l
0.5743 0.5502 l
0.5746 0.5438 l
0.5749 0.5378 l
0.5752 0.5321 l
0.5755 0.5270 l
0.5758 0.5224 l
0.5761 0.5185 l
0.5764 0.5152 l
0.5767 0.5128 l
0.5770 0.5111 l
0.5773 0.5102 l
0.5776 0.5102 l
0.5779 0.5110 l
0.5782 0.5127 l
0.5785 0.5151 l
0.5788 0.5183 l
0.5791 0.5221 l
0.5794 0.5266 l
0.5797 0.5316 l
0.5800 0.5370 l
0.5803 0.5428 l
0.5806 0.5488 l
0.5809 0.5550 l
0.5812 0.5611 l
0.5815 0.5672 l
0.5819 0.5730 l
0.5822 0.5784 l
0.5825 0.5834 l
0.5828 0.5878 l
0.5831 0.5915 l
0.5834 0.5944 l
0.5837 0.5964 l
0.5840 0.5975 l
0.5843 0.5975 l
0.5846 0.5965 l
0.5849 0.5943 l
0.5852 0.5910 l
0.5855 0.5866 l
0.5858 0.5811 l
0.5861 0.5744 l
0.5864 0.5667 l
0.5867 0.5581 l
0.5870 0.5485 l
0.5873 0.5382 l
0.5876 0.5271 l
0.5879 0.5155 l
0.5882 0.5034 l
0.5885 0.4911 l
0.5888 0.4786 l
0.5891 0.4661 l
0.5894 0.4538 l
0.5897 0.4418 l
0.5900 0.4303 l
0.5903 0.4194 l
0.5906 0.4094 l
0.5909 0.4002 l
0.5913 0.3921 l
0.5916 0.3851 l
0.5919 0.3794 l
0.5922 0.3751 l
0.5925 0.3721 l
0.5928 0.3706 l
0.5931 0.3706 l
0.5934 0.3720 l
0.5937 0.3748 l
0.5940 0.3790 l
0.5943 0.3845 l
0.5946 0.3913 l
0.5949 0.3992 l
0.5952 0.4080 l
0.5955 0.4177 l
0.5958 0.4281 l
0.5961 0.4389 l
0.5964 0.4500 l
0.5967 0.4613 l
0.5970 0.4724 l
0.5973 0.4832 l
0.5976 0.4934 l
0.5979 0.5030 l
0.5982 0.5116 l
0.5985 0.5191 l
0.5988 0.5253 l
0.5991 0.5301 l
0.5994 0.5333 l
0.5997 0.5348 l
0.6000 0.5345 l
0.6003 0.5324 l
0.6006 0.5284 l
0.6010 0.5225 l
0.6013 0.5147 l
0.6016 0.5052 l
0.6019 0.4939 l
0.6022 0.4811 l
0.6025 0.4668 l
0.6028 0.4513 l
0.6031 0.4347 l
0.6034 0.4173 l
0.6037 0.3992 l
0.6040 0.3809 l
0.6043 0.3624 l
0.6046 0.3442 l
0.6049 0.3265 l
0.6052 0.3096 l
0.6055 0.2937 l
0.6058 0.2791 l
0.6061 0.2662 l
0.6064 0.2550 l
0.6067 0.2459 l
0.6070 0.2390 l
0.6073 0.2344 l
0.6076 0.2323 l
0.6079 0.2328 l
0.6082 0.2358 l
0.6085 0.2415 l
0.6088 0.2498 l
0.6091 0.2605 l
0.6094 0.2736 l
0.6097 0.2890 l
0.6100 0.3063 l
0.6103 0.3255 l
0.6107 0.3462 l
0.6110 0.3681 l
0.6113 0.3910 l
0.6116 0.4145 l
0.6119 0.4383 l
0.6122 0.4621 l
0.6125 0.4854 l
0.6128 0.5080 l
0.6131 0.5294 l
0.6134 0.5495 l
0.6137 0.5678 l
0.6140 0.5842 l
0.6143 0.5983 l
0.6146 0.6099 l
0.6149 0.6190 l
0.6152 0.6253 l
0.6155 0.6287 l
0.6158 0.6293 l
0.6161 0.6270 l
0.6164 0.6218 l
0.6167 0.6139 l
0.6170 0.6034 l
0.6173 0.5905 l
0.6176 0.5753 l
0.6179 0.5582 l
0.6182 0.5393 l
0.6185 0.5191 l
0.6188 0.4978 l
0.6191 0.4757 l
0.6194 0.4533 l
0.6197 0.4309 l
0.6200 0.4087 l
0.6204 0.3873 l
0.6207 0.3669 l
0.6210 0.3478 l
0.6213 0.3303 l
0.6216 0.3147 l
0.6219 0.3012 l
0.6222 0.2900 l
0.6225 0.2812 l
0.6228 0.2751 l
0.6231 0.2716 l
0.6234 0.2707 l
0.6237 0.2726 l
0.6240 0.2770 l
0.6243 0.2840 l
0.6246 0.2934 l
0.6249 0.3050 l
0.6252 0.3186 l
0.6255 0.3340 l
0.6258 0.3508 l
0.6261 0.3690 l
0.6264 0.3880 l
0.6267 0.4077 l
0.6270 0.4276 l
0.6273 0.4476 l
0.6276 0.4672 l
0.6279 0.4861 l
0.6282 0.5041 l
0.6285 0.5209 l
0.6288 0.5362 l
0.6291 0.5498 l
0.6294 0.5615 l
0.6298 0.5711 l
0.6301 0.5785 l
0.6304 0.5836 l
0.6307 0.5863 l
0.6310 0.5866 l
0.6313 0.5846 l
0.6316 0.5802 l
0.6319 0.5736 l
0.6322 0.5648 l
0.6325 0.5542 l
0.6328 0.5418 l
0.6331 0.5278 l
0.6334 0.5126 l
0.6337 0.4963 l
0.6340 0.4792 l
0.6343 0.4618 l
0.6346 0.4441 l
0.6349 0.4266 l
0.6352 0.4095 l
0.6355 0.3932 l
0.6358 0.3779 l
0.6361 0.3639 l
0.6364 0.3515 l
0.6367 0.3408 l
0.6370 0.3321 l
0.6373 0.3256 l
0.6376 0.3213 l
0.6379 0.3195 l
0.6382 0.3201 l
0.6385 0.3232 l
0.6388 0.3289 l
0.6391 0.3370 l
0.6395 0.3475 l
0.6398 0.3602 l
0.6401 0.3751 l
0.6404 0.3919 l
0.6407 0.4105 l
0.6410 0.4305 l
0.6413 0.4518 l
0.6416 0.4739 l
0.6419 0.4968 l
0.6422 0.5199 l
0.6425 0.5431 l
0.6428 0.5659 l
0.6431 0.5881 l
0.6434 0.6094 l
0.6437 0.6294 l
0.6440 0.6480 l
0.6443 0.6647 l
0.6446 0.6795 l
0.6449 0.6920 l
0.6452 0.7021 l
0.6455 0.7098 l
0.6458 0.7148 l
0.6461 0.7172 l
0.6464 0.7169 l
0.6467 0.7139 l
0.6470 0.7083 l
0.6473 0.7002 l
0.6476 0.6897 l
0.6479 0.6771 l
0.6482 0.6625 l
0.6485 0.6462 l
0.6488 0.6285 l
0.6492 0.6096 l
0.6495 0.5898 l
0.6498 0.5696 l
0.6501 0.5492 l
0.6504 0.5289 l
0.6507 0.5092 l
0.6510 0.4903 l
0.6513 0.4725 l
0.6516 0.4562 l
0.6519 0.4417 l
0.6522 0.4291 l
0.6525 0.4187 l
0.6528 0.4108 l
0.6531 0.4054 l
0.6534 0.4027 l
0.6537 0.4027 l
0.6540 0.4055 l
0.6543 0.4110 l
0.6546 0.4193 l
0.6549 0.4301 l
0.6552 0.4434 l
0.6555 0.4590 l
0.6558 0.4766 l
0.6561 0.4961 l
0.6564 0.5171 l
0.6567 0.5394 l
0.6570 0.5625 l
0.6573 0.5863 l
0.6576 0.6103 l
0.6579 0.6341 l
0.6582 0.6575 l
0.6586 0.6801 l
0.6589 0.7015 l
0.6592 0.7214 l
0.6595 0.7396 l
0.6598 0.7556 l
0.6601 0.7694 l
0.6604 0.7806 l
0.6607 0.7891 l
0.6610 0.7947 l
0.6613 0.7974 l
0.6616 0.7970 l
0.6619 0.7936 l
0.6622 0.7872 l
0.6625 0.7778 l
0.6628 0.7655 l
0.6631 0.7506 l
0.6634 0.7331 l
0.6637 0.7133 l
0.6640 0.6915 l
0.6643 0.6679 l
0.6646 0.6429 l
0.6649 0.6167 l
0.6652 0.5898 l
0.6655 0.5624 l
0.6658 0.5350 l
0.6661 0.5079 l
0.6664 0.4815 l
0.6667 0.4561 l
0.6670 0.4321 l
0.6673 0.4097 l
0.6676 0.3894 l
0.6679 0.3714 l
0.6683 0.3558 l
0.6686 0.3430 l
0.6689 0.3331 l
0.6692 0.3262 l
0.6695 0.3225 l
0.6698 0.3219 l
0.6701 0.3246 l
0.6704 0.3304 l
0.6707 0.3392 l
0.6710 0.3511 l
0.6713 0.3657 l
0.6716 0.3829 l
0.6719 0.4024 l
0.6722 0.4240 l
0.6725 0.4473 l
0.6728 0.4721 l
0.6731 0.4980 l
0.6734 0.5246 l
0.6737 0.5515 l
0.6740 0.5784 l
0.6743 0.6048 l
0.6746 0.6304 l
0.6749 0.6548 l
0.6752 0.6777 l
0.6755 0.6987 l
0.6758 0.7174 l
0.6761 0.7337 l
0.6764 0.7473 l
0.6767 0.7580 l
0.6770 0.7656 l
0.6773 0.7700 l
0.6776 0.7712 l
0.6780 0.7691 l
0.6783 0.7637 l
0.6786 0.7551 l
0.6789 0.7435 l
0.6792 0.7290 l
0.6795 0.7119 l
0.6798 0.6924 l
0.6801 0.6707 l
0.6804 0.6473 l
0.6807 0.6225 l
0.6810 0.5966 l
0.6813 0.5701 l
0.6816 0.5434 l
0.6819 0.5169 l
0.6822 0.4909 l
0.6825 0.4660 l
0.6828 0.4424 l
0.6831 0.4206 l
0.6834 0.4009 l
0.6837 0.3835 l
0.6840 0.3689 l
0.6843 0.3571 l
0.6846 0.3484 l
0.6849 0.3428 l
0.6852 0.3406 l
0.6855 0.3416 l
0.6858 0.3459 l
0.6861 0.3534 l
0.6864 0.3639 l
0.6867 0.3773 l
0.6870 0.3933 l
0.6873 0.4116 l
0.6877 0.4320 l
0.6880 0.4540 l
0.6883 0.4773 l
0.6886 0.5014 l
0.6889 0.5260 l
0.6892 0.5506 l
0.6895 0.5748 l
0.6898 0.5981 l
0.6901 0.6201 l
0.6904 0.6404 l
0.6907 0.6587 l
0.6910 0.6746 l
0.6913 0.6878 l
0.6916 0.6981 l
0.6919 0.7051 l
0.6922 0.7089 l
0.6925 0.7091 l
0.6928 0.7059 l
0.6931 0.6991 l
0.6934 0.6889 l
0.6937 0.6754 l
0.6940 0.6587 l
0.6943 0.6390 l
0.6946 0.6167 l
0.6949 0.5920 l
0.6952 0.5654 l
0.6955 0.5371 l
0.6958 0.5076 l
0.6961 0.4773 l
0.6964 0.4467 l
0.6967 0.4162 l
0.6971 0.3863 l
0.6974 0.3574 l
0.6977 0.3300 l
0.6980 0.3045 l
0.6983 0.2812 l
0.6986 0.2604 l
0.6989 0.2426 l
0.6992 0.2279 l
0.6995 0.2165 l
0.6998 0.2087 l
0.7001 0.2044 l
0.7004 0.2038 l
0.7007 0.2068 l
0.7010 0.2134 l
0.7013 0.2234 l
0.7016 0.2367 l
0.7019 0.2530 l
0.7022 0.2719 l
0.7025 0.2933 l
0.7028 0.3168 l
0.7031 0.3419 l
0.7034 0.3682 l
0.7037 0.3953 l
0.7040 0.4228 l
0.7043 0.4501 l
0.7046 0.4769 l
0.7049 0.5027 l
0.7052 0.5271 l
0.7055 0.5496 l
0.7058 0.5700 l
0.7061 0.5878 l
0.7064 0.6028 l
0.7068 0.6147 l
0.7071 0.6233 l
0.7074 0.6285 l
0.7077 0.6302 l
0.7080 0.6284 l
0.7083 0.6230 l
0.7086 0.6142 l
0.7089 0.6021 l
0.7092 0.5868 l
0.7095 0.5687 l
0.7098 0.5479 l
0.7101 0.5248 l
0.7104 0.4998 l
0.7107 0.4732 l
0.7110 0.4455 l
0.7113 0.4171 l
0.7116 0.3884 l
0.7119 0.3599 l
0.7122 0.3320 l
0.7125 0.3051 l
0.7128 0.2798 l
0.7131 0.2563 l
0.7134 0.2350 l
0.7137 0.2163 l
0.7140 0.2004 l
0.7143 0.1877 l
0.7146 0.1783 l
0.7149 0.1723 l
0.7152 0.1699 l
0.7155 0.1711 l
0.7158 0.1760 l
0.7161 0.1844 l
0.7165 0.1963 l
0.7168 0.2114 l
0.7171 0.2296 l
0.7174 0.2507 l
0.7177 0.2743 l
0.7180 0.3000 l
0.7183 0.3277 l
0.7186 0.3567 l
0.7189 0.3869 l
0.7192 0.4176 l
0.7195 0.4486 l
0.7198 0.4793 l
0.7201 0.5094 l
0.7204 0.5384 l
0.7207 0.5659 l
0.7210 0.5915 l
0.7213 0.6150 l
0.7216 0.6360 l
0.7219 0.6541 l
0.7222 0.6693 l
0.7225 0.6812 l
0.7228 0.6897 l
0.7231 0.6948 l
0.7234 0.6963 l
0.7237 0.6943 l
0.7240 0.6888 l
0.7243 0.6799 l
0.7246 0.6678 l
0.7249 0.6526 l
0.7252 0.6346 l
0.7255 0.6140 l
0.7258 0.5912 l
0.7262 0.5664 l
0.7265 0.5401 l
0.7268 0.5126 l
0.7271 0.4844 l
0.7274 0.4557 l
0.7277 0.4271 l
0.7280 0.3989 l
0.7283 0.3716 l
0.7286 0.3455 l
0.7289 0.3209 l
0.7292 0.2983 l
0.7295 0.2780 l
0.7298 0.2601 l
0.7301 0.2451 l
0.7304 0.2330 l
0.7307 0.2240 l
0.7310 0.2182 l
0.7313 0.2158 l
0.7316 0.2167 l
0.7319 0.2208 l
0.7322 0.2282 l
0.7325 0.2386 l
0.7328 0.2520 l
0.7331 0.2681 l
0.7334 0.2866 l
0.7337 0.3073 l
0.7340 0.3298 l
0.7343 0.3539 l
0.7346 0.3790 l
0.7349 0.4050 l
0.7352 0.4313 l
0.7356 0.4577 l
0.7359 0.4836 l
0.7362 0.5088 l
0.7365 0.5328 l
0.7368 0.5553 l
0.7371 0.5761 l
0.7374 0.5947 l
0.7377 0.6111 l
0.7380 0.6248 l
0.7383 0.6358 l
0.7386 0.6440 l
0.7389 0.6492 l
0.7392 0.6514 l
0.7395 0.6506 l
0.7398 0.6469 l
0.7401 0.6404 l
0.7404 0.6312 l
0.7407 0.6195 l
0.7410 0.6055 l
0.7413 0.5895 l
0.7416 0.5719 l
0.7419 0.5528 l
0.7422 0.5327 l
0.7425 0.5119 l
0.7428 0.4907 l
0.7431 0.4696 l
0.7434 0.4489 l
0.7437 0.4290 l
0.7440 0.4101 l
0.7443 0.3927 l
0.7446 0.3771 l
0.7449 0.3635 l
0.7453 0.3521 l
0.7456 0.3432 l
0.7459 0.3369 l
0.7462 0.3334 l
0.7465 0.3328 l
0.7468 0.3351 l
0.7471 0.3402 l
0.7474 0.3483 l
0.7477 0.3590 l
0.7480 0.3724 l
0.7483 0.3883 l
0.7486 0.4064 l
0.7489 0.4265 l
0.7492 0.4483 l
0.7495 0.4716 l
0.7498 0.4960 l
0.7501 0.5212 l
0.7504 0.5467 l
0.7507 0.5724 l
0.7510 0.5978 l
0.7513 0.6225 l
0.7516 0.6463 l
0.7519 0.6688 l
0.7522 0.6896 l
0.7525 0.7086 l
0.7528 0.7254 l
0.7531 0.7398 l
0.7534 0.7516 l
0.7537 0.7607 l
0.7540 0.7669 l
0.7543 0.7701 l
0.7546 0.7704 l
0.7550 0.7677 l
0.7553 0.7621 l
0.7556 0.7537 l
0.7559 0.7426 l
0.7562 0.7290 l
0.7565 0.7131 l
0.7568 0.6952 l
0.7571 0.6754 l
0.7574 0.6542 l
0.7577 0.6318 l
0.7580 0.6087 l
0.7583 0.5850 l
0.7586 0.5613 l
0.7589 0.5379 l
0.7592 0.5152 l
0.7595 0.4934 l
0.7598 0.4731 l
0.7601 0.4544 l
0.7604 0.4376 l
0.7607 0.4232 l
0.7610 0.4112 l
0.7613 0.4020 l
0.7616 0.3956 l
0.7619 0.3922 l
0.7622 0.3919 l
0.7625 0.3946 l
0.7628 0.4004 l
0.7631 0.4093 l
0.7634 0.4210 l
0.7637 0.4354 l
0.7640 0.4523 l
0.7644 0.4715 l
0.7647 0.4926 l
0.7650 0.5154 l
0.7653 0.5395 l
0.7656 0.5644 l
0.7659 0.5899 l
0.7662 0.6156 l
0.7665 0.6409 l
0.7668 0.6654 l
0.7671 0.6889 l
0.7674 0.7109 l
0.7677 0.7309 l
0.7680 0.7488 l
0.7683 0.7641 l
0.7686 0.7765 l
0.7689 0.7859 l
0.7692 0.7921 l
0.7695 0.7949 l
0.7698 0.7942 l
0.7701 0.7901 l
0.7704 0.7825 l
0.7707 0.7715 l
0.7710 0.7573 l
0.7713 0.7400 l
0.7716 0.7198 l
0.7719 0.6972 l
0.7722 0.6723 l
0.7725 0.6456 l
0.7728 0.6174 l
0.7731 0.5882 l
0.7734 0.5583 l
0.7737 0.5283 l
0.7741 0.4986 l
0.7744 0.4696 l
0.7747 0.4418 l
0.7750 0.4156 l
0.7753 0.3913 l
0.7756 0.3694 l
0.7759 0.3501 l
0.7762 0.3338 l
0.7765 0.3206 l
0.7768 0.3108 l
0.7771 0.3046 l
0.7774 0.3019 l
0.7777 0.3028 l
0.7780 0.3073 l
0.7783 0.3153 l
0.7786 0.3266 l
0.7789 0.3411 l
0.7792 0.3585 l
0.7795 0.3785 l
0.7798 0.4009 l
0.7801 0.4252 l
0.7804 0.4511 l
0.7807 0.4782 l
0.7810 0.5060 l
0.7813 0.5342 l
0.7816 0.5622 l
0.7819 0.5898 l
0.7822 0.6164 l
0.7825 0.6417 l
0.7828 0.6653 l
0.7831 0.6869 l
0.7834 0.7062 l
0.7838 0.7229 l
0.7841 0.7368 l
0.7844 0.7477 l
0.7847 0.7555 l
0.7850 0.7601 l
0.7853 0.7615 l
0.7856 0.7596 l
0.7859 0.7546 l
0.7862 0.7467 l
0.7865 0.7358 l
0.7868 0.7223 l
0.7871 0.7063 l
0.7874 0.6882 l
0.7877 0.6682 l
0.7880 0.6467 l
0.7883 0.6239 l
0.7886 0.6003 l
0.7889 0.5762 l
0.7892 0.5520 l
0.7895 0.5280 l
0.7898 0.5046 l
0.7901 0.4820 l
0.7904 0.4607 l
0.7907 0.4409 l
0.7910 0.4228 l
0.7913 0.4066 l
0.7916 0.3927 l
0.7919 0.3811 l
0.7922 0.3719 l
0.7925 0.3652 l
0.7928 0.3611 l
0.7931 0.3595 l
0.7935 0.3604 l
0.7938 0.3637 l
0.7941 0.3693 l
0.7944 0.3770 l
0.7947 0.3866 l
0.7950 0.3980 l
0.7953 0.4108 l
0.7956 0.4249 l
0.7959 0.4399 l
0.7962 0.4556 l
0.7965 0.4716 l
0.7968 0.4877 l
0.7971 0.5035 l
0.7974 0.5188 l
0.7977 0.5333 l
0.7980 0.5468 l
0.7983 0.5589 l
0.7986 0.5696 l
0.7989 0.5785 l
0.7992 0.5856 l
0.7995 0.5906 l
0.7998 0.5935 l
0.8001 0.5943 l
0.8004 0.5929 l
0.8007 0.5893 l
0.8010 0.5835 l
0.8013 0.5756 l
0.8016 0.5658 l
0.8019 0.5541 l
0.8022 0.5407 l
0.8025 0.5259 l
0.8029 0.5098 l
0.8032 0.4926 l
0.8035 0.4746 l
0.8038 0.4560 l
0.8041 0.4372 l
0.8044 0.4183 l
0.8047 0.3997 l
0.8050 0.3816 l
0.8053 0.3642 l
0.8056 0.3478 l
0.8059 0.3326 l
0.8062 0.3188 l
0.8065 0.3067 l
0.8068 0.2962 l
0.8071 0.2877 l
0.8074 0.2811 l
0.8077 0.2766 l
0.8080 0.2742 l
0.8083 0.2739 l
0.8086 0.2757 l
0.8089 0.2795 l
0.8092 0.2852 l
0.8095 0.2928 l
0.8098 0.3021 l
0.8101 0.3129 l
0.8104 0.3252 l
0.8107 0.3385 l
0.8110 0.3528 l
0.8113 0.3679 l
0.8116 0.3834 l
0.8119 0.3992 l
0.8122 0.4149 l
0.8126 0.4304 l
0.8129 0.4455 l
0.8132 0.4598 l
0.8135 0.4732 l
0.8138 0.4854 l
0.8141 0.4964 l
0.8144 0.5059 l
0.8147 0.5138 l
0.8150 0.5200 l
0.8153 0.5244 l
0.8156 0.5269 l
0.8159 0.5275 l
0.8162 0.5263 l
0.8165 0.5232 l
0.8168 0.5183 l
0.8171 0.5117 l
0.8174 0.5035 l
0.8177 0.4939 l
0.8180 0.4829 l
0.8183 0.4708 l
0.8186 0.4578 l
0.8189 0.4440 l
0.8192 0.4298 l
0.8195 0.4153 l
0.8198 0.4007 l
0.8201 0.3863 l
0.8204 0.3724 l
0.8207 0.3591 l
0.8210 0.3467 l
0.8213 0.3354 l
0.8216 0.3253 l
0.8219 0.3166 l
0.8223 0.3096 l
0.8226 0.3042 l
0.8229 0.3006 l
0.8232 0.2989 l
0.8235 0.2992 l
0.8238 0.3013 l
0.8241 0.3054 l
0.8244 0.3114 l
0.8247 0.3192 l
0.8250 0.3287 l
0.8253 0.3399 l
0.8256 0.3525 l
0.8259 0.3664 l
0.8262 0.3814 l
0.8265 0.3973 l
0.8268 0.4139 l
0.8271 0.4310 l
0.8274 0.4483 l
0.8277 0.4656 l
0.8280 0.4827 l
0.8283 0.4994 l
0.8286 0.5153 l
0.8289 0.5303 l
0.8292 0.5442 l
0.8295 0.5568 l
0.8298 0.5680 l
0.8301 0.5775 l
0.8304 0.5853 l
0.8307 0.5912 l
0.8310 0.5952 l
0.8313 0.5972 l
0.8316 0.5973 l
0.8320 0.5953 l
0.8323 0.5914 l
0.8326 0.5856 l
0.8329 0.5780 l
0.8332 0.5687 l
0.8335 0.5579 l
0.8338 0.5456 l
0.8341 0.5322 l
0.8344 0.5177 l
0.8347 0.5023 l
0.8350 0.4864 l
0.8353 0.4700 l
0.8356 0.4535 l
0.8359 0.4371 l
0.8362 0.4210 l
0.8365 0.4054 l
0.8368 0.3905 l
0.8371 0.3765 l
0.8374 0.3636 l
0.8377 0.3521 l
0.8380 0.3419 l
0.8383 0.3334 l
0.8386 0.3265 l
0.8389 0.3214 l
0.8392 0.3182 l
0.8395 0.3168 l
0.8398 0.3172 l
0.8401 0.3196 l
0.8404 0.3237 l
0.8407 0.3296 l
0.8410 0.3372 l
0.8414 0.3463 l
0.8417 0.3568 l
0.8420 0.3686 l
0.8423 0.3815 l
0.8426 0.3954 l
0.8429 0.4099 l
0.8432 0.4250 l
0.8435 0.4404 l
0.8438 0.4559 l
0.8441 0.4713 l
0.8444 0.4864 l
0.8447 0.5011 l
0.8450 0.5150 l
0.8453 0.5281 l
0.8456 0.5402 l
0.8459 0.5512 l
0.8462 0.5609 l
0.8465 0.5693 l
0.8468 0.5762 l
0.8471 0.5816 l
0.8474 0.5855 l
0.8477 0.5879 l
0.8480 0.5888 l
0.8483 0.5883 l
0.8486 0.5864 l
0.8489 0.5832 l
0.8492 0.5788 l
0.8495 0.5734 l
0.8498 0.5672 l
0.8501 0.5602 l
0.8504 0.5527 l
0.8507 0.5448 l
0.8511 0.5367 l
0.8514 0.5286 l
0.8517 0.5208 l
0.8520 0.5133 l
0.8523 0.5064 l
0.8526 0.5002 l
0.8529 0.4948 l
0.8532 0.4905 l
0.8535 0.4873 l
0.8538 0.4853 l
0.8541 0.4845 l
0.8544 0.4851 l
0.8547 0.4870 l
0.8550 0.4903 l
0.8553 0.4948 l
0.8556 0.5006 l
0.8559 0.5076 l
0.8562 0.5156 l
0.8565 0.5246 l
0.8568 0.5344 l
0.8571 0.5448 l
0.8574 0.5558 l
0.8577 0.5670 l
0.8580 0.5783 l
0.8583 0.5896 l
0.8586 0.6006 l
0.8589 0.6112 l
0.8592 0.6212 l
0.8595 0.6304 l
0.8598 0.6386 l
0.8601 0.6459 l
0.8604 0.6519 l
0.8608 0.6567 l
0.8611 0.6601 l
0.8614 0.6622 l
0.8617 0.6628 l
0.8620 0.6621 l
0.8623 0.6600 l
0.8626 0.6566 l
0.8629 0.6520 l
0.8632 0.6462 l
0.8635 0.6395 l
0.8638 0.6318 l
0.8641 0.6235 l
0.8644 0.6146 l
0.8647 0.6054 l
0.8650 0.5959 l
0.8653 0.5864 l
0.8656 0.5771 l
0.8659 0.5682 l
0.8662 0.5597 l
0.8665 0.5519 l
0.8668 0.5448 l
0.8671 0.5387 l
0.8674 0.5336 l
0.8677 0.5295 l
0.8680 0.5267 l
0.8683 0.5250 l
0.8686 0.5245 l
0.8689 0.5251 l
0.8692 0.5269 l
0.8695 0.5298 l
0.8698 0.5337 l
0.8702 0.5386 l
0.8705 0.5442 l
0.8708 0.5504 l
0.8711 0.5572 l
0.8714 0.5644 l
0.8717 0.5717 l
0.8720 0.5792 l
0.8723 0.5865 l
0.8726 0.5936 l
0.8729 0.6003 l
0.8732 0.6064 l
0.8735 0.6119 l
0.8738 0.6166 l
0.8741 0.6204 l
0.8744 0.6233 l
0.8747 0.6252 l
0.8750 0.6260 l
0.8753 0.6257 l
0.8756 0.6244 l
0.8759 0.6220 l
0.8762 0.6186 l
0.8765 0.6142 l
0.8768 0.6090 l
0.8771 0.6029 l
0.8774 0.5961 l
0.8777 0.5886 l
0.8780 0.5807 l
0.8783 0.5725 l
0.8786 0.5639 l
0.8789 0.5553 l
0.8792 0.5467 l
0.8795 0.5382 l
0.8799 0.5299 l
0.8802 0.5221 l
0.8805 0.5147 l
0.8808 0.5078 l
0.8811 0.5016 l
0.8814 0.4961 l
0.8817 0.4914 l
0.8820 0.4874 l
0.8823 0.4843 l
0.8826 0.4821 l
0.8829 0.4807 l
0.8832 0.4802 l
0.8835 0.4804 l
0.8838 0.4815 l
0.8841 0.4833 l
0.8844 0.4858 l
0.8847 0.4888 l
0.8850 0.4925 l
0.8853 0.4966 l
0.8856 0.5011 l
0.8859 0.5060 l
0.8862 0.5110 l
0.8865 0.5163 l
0.8868 0.5216 l
0.8871 0.5269 l
0.8874 0.5321 l
0.8877 0.5372 l
0.8880 0.5420 l
0.8883 0.5466 l
0.8886 0.5509 l
0.8889 0.5548 l
0.8892 0.5583 l
0.8896 0.5613 l
0.8899 0.5639 l
0.8902 0.5661 l
0.8905 0.5677 l
0.8908 0.5689 l
0.8911 0.5695 l
0.8914 0.5698 l
0.8917 0.5696 l
0.8920 0.5689 l
0.8923 0.5679 l
0.8926 0.5666 l
0.8929 0.5649 l
0.8932 0.5629 l
0.8935 0.5607 l
0.8938 0.5584 l
0.8941 0.5558 l
0.8944 0.5532 l
0.8947 0.5505 l
0.8950 0.5478 l
0.8953 0.5451 l
0.8956 0.5424 l
0.8959 0.5398 l
0.8962 0.5373 l
0.8965 0.5349 l
0.8968 0.5326 l
0.8971 0.5304 l
0.8974 0.5284 l
0.8977 0.5264 l
0.8980 0.5246 l
0.8983 0.5229 l
0.8986 0.5212 l
0.8989 0.5195 l
0.8993 0.5178 l
0.8996 0.5161 l
0.8999 0.5143 l
0.9002 0.5124 l
0.9005 0.5104 l
0.9008 0.5081 l
0.9011 0.5056 l
0.9014 0.5028 l
0.9017 0.4997 l
0.9020 0.4963 l
0.9023 0.4925 l
0.9026 0.4884 l
0.9029 0.4839 l
0.9032 0.4789 l
0.9035 0.4736 l
0.9038 0.4680 l
0.9041 0.4620 l
0.9044 0.4557 l
0.9047 0.4491 l
0.9050 0.4423 l
0.9053 0.4353 l
0.9056 0.4282 l
0.9059 0.4211 l
0.9062 0.4140 l
0.9065 0.4071 l
0.9068 0.4003 l
0.9071 0.3938 l
0.9074 0.3877 l
0.9077 0.3819 l
0.9080 0.3767 l
0.9083 0.3720 l
0.9087 0.3679 l
0.9090 0.3645 l
0.9093 0.3618 l
0.9096 0.3599 l
0.9099 0.3588 l
0.9102 0.3584 l
0.9105 0.3589 l
0.9108 0.3601 l
0.9111 0.3621 l
0.9114 0.3648 l
0.9117 0.3682 l
0.9120 0.3722 l
0.9123 0.3768 l
0.9126 0.3819 l
0.9129 0.3874 l
0.9132 0.3932 l
0.9135 0.3992 l
0.9138 0.4054 l
0.9141 0.4117 l
0.9144 0.4179 l
0.9147 0.4239 l
0.9150 0.4297 l
0.9153 0.4352 l
0.9156 0.4402 l
0.9159 0.4448 l
0.9162 0.4488 l
0.9165 0.4521 l
0.9168 0.4548 l
0.9171 0.4568 l
0.9174 0.4580 l
0.9177 0.4584 l
0.9180 0.4581 l
0.9184 0.4569 l
0.9187 0.4551 l
0.9190 0.4525 l
0.9193 0.4492 l
0.9196 0.4452 l
0.9199 0.4407 l
0.9202 0.4357 l
0.9205 0.4302 l
0.9208 0.4244 l
0.9211 0.4182 l
0.9214 0.4119 l
0.9217 0.4055 l
0.9220 0.3991 l
0.9223 0.3928 l
0.9226 0.3867 l
0.9229 0.3809 l
0.9232 0.3755 l
0.9235 0.3705 l
0.9238 0.3661 l
0.9241 0.3623 l
0.9244 0.3592 l
0.9247 0.3569 l
0.9250 0.3554 l
0.9253 0.3547 l
0.9256 0.3549 l
0.9259 0.3560 l
0.9262 0.3580 l
0.9265 0.3609 l
0.9268 0.3647 l
0.9271 0.3694 l
0.9274 0.3749 l
0.9277 0.3812 l
0.9281 0.3882 l
0.9284 0.3959 l
0.9287 0.4041 l
0.9290 0.4128 l
0.9293 0.4219 l
0.9296 0.4313 l
0.9299 0.4408 l
0.9302 0.4504 l
0.9305 0.4600 l
0.9308 0.4694 l
0.9311 0.4785 l
0.9314 0.4872 l
0.9317 0.4954 l
0.9320 0.5030 l
0.9323 0.5099 l
0.9326 0.5160 l
0.9329 0.5212 l
0.9332 0.5254 l
0.9335 0.5287 l
0.9338 0.5309 l
0.9341 0.5320 l
0.9344 0.5320 l
0.9347 0.5309 l
0.9350 0.5287 l
0.9353 0.5254 l
0.9356 0.5212 l
0.9359 0.5159 l
0.9362 0.5098 l
0.9365 0.5029 l
0.9368 0.4954 l
0.9371 0.4872 l
0.9375 0.4786 l
0.9378 0.4696 l
0.9381 0.4605 l
0.9384 0.4513 l
0.9387 0.4422 l
0.9390 0.4333 l
0.9393 0.4248 l
0.9396 0.4168 l
0.9399 0.4095 l
0.9402 0.4029 l
0.9405 0.3971 l
0.9408 0.3924 l
0.9411 0.3887 l
0.9414 0.3861 l
0.9417 0.3847 l
0.9420 0.3846 l
0.9423 0.3856 l
0.9426 0.3879 l
0.9429 0.3913 l
0.9432 0.3960 l
0.9435 0.4017 l
0.9438 0.4084 l
0.9441 0.4160 l
0.9444 0.4245 l
0.9447 0.4336 l
0.9450 0.4432 l
0.9453 0.4532 l
0.9456 0.4634 l
0.9459 0.4737 l
0.9462 0.4839 l
0.9465 0.4937 l
0.9468 0.5032 l
0.9472 0.5120 l
0.9475 0.5201 l
0.9478 0.5273 l
0.9481 0.5334 l
0.9484 0.5385 l
0.9487 0.5423 l
0.9490 0.5449 l
0.9493 0.5461 l
0.9496 0.5459 l
0.9499 0.5445 l
0.9502 0.5417 l
0.9505 0.5376 l
0.9508 0.5324 l
0.9511 0.5261 l
0.9514 0.5188 l
0.9517 0.5107 l
0.9520 0.5020 l
0.9523 0.4928 l
0.9526 0.4833 l
0.9529 0.4738 l
0.9532 0.4644 l
0.9535 0.4554 l
0.9538 0.4470 l
0.9541 0.4394 l
0.9544 0.4328 l
0.9547 0.4274 l
0.9550 0.4234 l
0.9553 0.4209 l
0.9556 0.4201 l
0.9559 0.4210 l
0.9562 0.4238 l
0.9565 0.4284 l
0.9569 0.4350 l
0.9572 0.4435 l
0.9575 0.4538 l
0.9578 0.4659 l
0.9581 0.4796 l
0.9584 0.4949 l
0.9587 0.5114 l
0.9590 0.5291 l
0.9593 0.5476 l
0.9596 0.5668 l
0.9599 0.5864 l
0.9602 0.6061 l
0.9605 0.6255 l
0.9608 0.6445 l
0.9611 0.6628 l
0.9614 0.6800 l
0.9617 0.6958 l
0.9620 0.7102 l
0.9623 0.7227 l
0.9626 0.7332 l
0.9629 0.7416 l
0.9632 0.7476 l
0.9635 0.7513 l
0.9638 0.7524 l
0.9641 0.7510 l
0.9644 0.7471 l
0.9647 0.7407 l
0.9650 0.7320 l
0.9653 0.7210 l
0.9656 0.7079 l
0.9659 0.6929 l
0.9662 0.6763 l
0.9666 0.6582 l
0.9669 0.6391 l
0.9672 0.6191 l
0.9675 0.5986 l
0.9678 0.5778 l
0.9681 0.5573 l
0.9684 0.5371 l
0.9687 0.5177 l
0.9690 0.4994 l
0.9693 0.4824 l
0.9696 0.4671 l
0.9699 0.4536 l
0.9702 0.4422 l
0.9705 0.4329 l
0.9708 0.4261 l
0.9711 0.4217 l
0.9714 0.4199 l
0.9717 0.4206 l
0.9720 0.4239 l
0.9723 0.4296 l
0.9726 0.4378 l
0.9729 0.4481 l
0.9732 0.4606 l
0.9735 0.4749 l
0.9738 0.4908 l
0.9741 0.5082 l
0.9744 0.5266 l
0.9747 0.5458 l
0.9750 0.5656 l
0.9753 0.5855 l
0.9756 0.6054 l
0.9760 0.6248 l
0.9763 0.6434 l
0.9766 0.6610 l
0.9769 0.6773 l
0.9772 0.6921 l
0.9775 0.7050 l
0.9778 0.7160 l
0.9781 0.7247 l
0.9784 0.7311 l
0.9787 0.7351 l
0.9790 0.7366 l
0.9793 0.7355 l
0.9796 0.7319 l
0.9799 0.7258 l
0.9802 0.7172 l
0.9805 0.7063 l
0.9808 0.6933 l
0.9811 0.6783 l
0.9814 0.6615 l
0.9817 0.6431 l
0.9820 0.6234 l
0.9823 0.6028 l
0.9826 0.5813 l
0.9829 0.5594 l
0.9832 0.5374 l
0.9835 0.5156 l
0.9838 0.4942 l
0.9841 0.4736 l
0.9844 0.4541 l
0.9847 0.4359 l
0.9850 0.4193 l
0.9853 0.4045 l
0.9857 0.3918 l
0.9860 0.3812 l
0.9863 0.3730 l
0.9866 0.3672 l
0.9869 0.3639 l
0.9872 0.3632 l
0.9875 0.3650 l
0.9878 0.3694 l
0.9881 0.3762 l
0.9884 0.3853 l
0.9887 0.3966 l
0.9890 0.4100 l
0.9893 0.4251 l
0.9896 0.4417 l
0.9899 0.4597 l
0.9902 0.4787 l
0.9905 0.4985 l
0.9908 0.5186 l
0.9911 0.5389 l
0.9914 0.5590 l
0.9917 0.5786 l
0.9920 0.5974 l
0.9923 0.6151 l
0.9926 0.6314 l
0.9929 0.6462 l
0.9932 0.6590 l
0.9935 0.6699 l
0.9938 0.6785 l
0.9941 0.6849 l
0.9944 0.6887 l
0.9947 0.6902 l
0.9950 0.6891 l
0.9954 0.6855 l
0.9957 0.6795 l
0.9960 0.6712 l
0.9963 0.6606 l
0.9966 0.6481 l
0.9969 0.6337 l
0.9972 0.6178 l
0.9975 0.6005 l
0.9978 0.5820 l
0.9981 0.5628 l
0.9984 0.5431 l
0.9987 0.5233 l
0.9990 0.5035 l
0.9993 0.4841 l
0.9996 0.4654 l
0.9999 0.4477 l
1.0002 0.4313 l
1.0005 0.4163 l
1.0008 0.4031 l
1.0011 0.3917 l
1.0014 0.3824 l
1.0017 0.3752 l
1.0020 0.3703 l
1.0023 0.3677 l
1.0026 0.3674 l
1.0029 0.3694 l
1.0032 0.3736 l
1.0035 0.3800 l
1.0038 0.3883 l
1.0041 0.3984 l
1.0044 0.4102 l
1.0047 0.4234 l
1.0051 0.4377 l
1.0054 0.4529 l
1.0057 0.4687 l
1.0060 0.4848 l
1.0063 0.5010 l
1.0066 0.5169 l
1.0069 0.5322 l
1.0072 0.5467 l
1.0075 0.5601 l
1.0078 0.5721 l
1.0081 0.5825 l
1.0084 0.5910 l
1.0087 0.5976 l
1.0090 0.6020 l
1.0093 0.6041 l
1.0096 0.6039 l
1.0099 0.6012 l
1.0102 0.5961 l
1.0105 0.5885 l
1.0108 0.5786 l
1.0111 0.5664 l
1.0114 0.5521 l
1.0117 0.5357 l
1.0120 0.5176 l
1.0123 0.4979 l
1.0126 0.4769 l
1.0129 0.4548 l
1.0132 0.4319 l
1.0135 0.4085 l
1.0138 0.3849 l
1.0141 0.3615 l
1.0145 0.3385 l
1.0148 0.3163 l
1.0151 0.2951 l
1.0154 0.2753 l
1.0157 0.2572 l
1.0160 0.2409 l
1.0163 0.2268 l
1.0166 0.2151 l
1.0169 0.2058 l
1.0172 0.1992 l
1.0175 0.1954 l
1.0178 0.1945 l
1.0181 0.1964 l
1.0184 0.2013 l
1.0187 0.2089 l
1.0190 0.2194 l
1.0193 0.2324 l
1.0196 0.2479 l
1.0199 0.2657 l
1.0202 0.2855 l
1.0205 0.3071 l
1.0208 0.3302 l
1.0211 0.3545 l
1.0214 0.3796 l
1.0217 0.4052 l
1.0220 0.4310 l
1.0223 0.4565 l
1.0226 0.4815 l
1.0229 0.5054 l
1.0232 0.5281 l
1.0235 0.5492 l
1.0238 0.5684 l
1.0242 0.5853 l
1.0245 0.5997 l
1.0248 0.6115 l
1.0251 0.6203 l
1.0254 0.6261 l
1.0257 0.6288 l
1.0260 0.6284 l
1.0263 0.6247 l
1.0266 0.6179 l
1.0269 0.6080 l
1.0272 0.5952 l
1.0275 0.5797 l
1.0278 0.5616 l
1.0281 0.5413 l
1.0284 0.5190 l
1.0287 0.4951 l
1.0290 0.4700 l
1.0293 0.4440 l
1.0296 0.4175 l
1.0299 0.3909 l
1.0302 0.3648 l
1.0305 0.3393 l
1.0308 0.3151 l
1.0311 0.2924 l
1.0314 0.2717 l
1.0317 0.2533 l
1.0320 0.2375 l
1.0323 0.2245 l
1.0326 0.2147 l
1.0329 0.2081 l
1.0332 0.2050 l
1.0335 0.2053 l
1.0339 0.2093 l
1.0342 0.2167 l
1.0345 0.2275 l
1.0348 0.2417 l
1.0351 0.2590 l
1.0354 0.2792 l
1.0357 0.3019 l
1.0360 0.3270 l
1.0363 0.3539 l
1.0366 0.3824 l
1.0369 0.4119 l
1.0372 0.4421 l
1.0375 0.4726 l
1.0378 0.5028 l
1.0381 0.5322 l
1.0384 0.5606 l
1.0387 0.5874 l
1.0390 0.6122 l
1.0393 0.6346 l
1.0396 0.6544 l
1.0399 0.6711 l
1.0402 0.6847 l
1.0405 0.6947 l
1.0408 0.7012 l
1.0411 0.7040 l
1.0414 0.7031 l
1.0417 0.6985 l
1.0420 0.6903 l
1.0423 0.6786 l
1.0426 0.6636 l
1.0429 0.6455 l
1.0433 0.6247 l
1.0436 0.6015 l
1.0439 0.5762 l
1.0442 0.5493 l
1.0445 0.5211 l
1.0448 0.4922 l
1.0451 0.4630 l
1.0454 0.4339 l
1.0457 0.4054 l
1.0460 0.3779 l
1.0463 0.3520 l
1.0466 0.3279 l
1.0469 0.3061 l
1.0472 0.2869 l
1.0475 0.2706 l
1.0478 0.2575 l
1.0481 0.2477 l
1.0484 0.2413 l
1.0487 0.2386 l
1.0490 0.2395 l
1.0493 0.2440 l
1.0496 0.2519 l
1.0499 0.2633 l
1.0502 0.2779 l
1.0505 0.2954 l
1.0508 0.3156 l
1.0511 0.3381 l
1.0514 0.3627 l
1.0517 0.3888 l
1.0520 0.4162 l
1.0523 0.4443 l
1.0526 0.4728 l
1.0530 0.5012 l
1.0533 0.5291 l
1.0536 0.5560 l
1.0539 0.5816 l
1.0542 0.6054 l
1.0545 0.6272 l
1.0548 0.6466 l
1.0551 0.6633 l
1.0554 0.6772 l
1.0557 0.6880 l
1.0560 0.6956 l
1.0563 0.7000 l
1.0566 0.7010 l
1.0569 0.6989 l
1.0572 0.6935 l
1.0575 0.6852 l
1.0578 0.6740 l
1.0581 0.6602 l
1.0584 0.6440 l
1.0587 0.6259 l
1.0590 0.6060 l
1.0593 0.5848 l
1.0596 0.5627 l
1.0599 0.5400 l
1.0602 0.5173 l
1.0605 0.4948 l
1.0608 0.4730 l
1.0611 0.4523 l
1.0614 0.4330 l
1.0617 0.4155 l
1.0620 0.4002 l
1.0623 0.3873 l
1.0627 0.3770 l
1.0630 0.3697 l
1.0633 0.3653 l
1.0636 0.3641 l
1.0639 0.3660 l
1.0642 0.3712 l
1.0645 0.3795 l
1.0648 0.3910 l
1.0651 0.4053 l
1.0654 0.4224 l
1.0657 0.4420 l
1.0660 0.4639 l
1.0663 0.4878 l
1.0666 0.5132 l
1.0669 0.5399 l
1.0672 0.5675 l
1.0675 0.5955 l
1.0678 0.6236 l
1.0681 0.6514 l
1.0684 0.6785 l
1.0687 0.7044 l
1.0690 0.7288 l
1.0693 0.7513 l
1.0696 0.7716 l
1.0699 0.7895 l
1.0702 0.8045 l
1.0705 0.8166 l
1.0708 0.8255 l
1.0711 0.8311 l
1.0714 0.8333 l
1.0717 0.8320 l
1.0720 0.8274 l
1.0724 0.8193 l
1.0727 0.8080 l
1.0730 0.7936 l
1.0733 0.7763 l
1.0736 0.7563 l
1.0739 0.7339 l
1.0742 0.7095 l
1.0745 0.6833 l
1.0748 0.6557 l
1.0751 0.6272 l
1.0754 0.5981 l
1.0757 0.5689 l
1.0760 0.5399 l
1.0763 0.5115 l
1.0766 0.4842 l
1.0769 0.4584 l
1.0772 0.4344 l
1.0775 0.4125 l
1.0778 0.3930 l
1.0781 0.3763 l
1.0784 0.3625 l
1.0787 0.3518 l
1.0790 0.3444 l
1.0793 0.3404 l
1.0796 0.3398 l
1.0799 0.3426 l
1.0802 0.3487 l
1.0805 0.3581 l
1.0808 0.3705 l
1.0811 0.3859 l
1.0814 0.4039 l
1.0818 0.4243 l
1.0821 0.4467 l
1.0824 0.4709 l
1.0827 0.4964 l
1.0830 0.5228 l
1.0833 0.5498 l
1.0836 0.5769 l
1.0839 0.6038 l
1.0842 0.6299 l
1.0845 0.6550 l
1.0848 0.6785 l
1.0851 0.7003 l
1.0854 0.7199 l
1.0857 0.7370 l
1.0860 0.7514 l
1.0863 0.7628 l
1.0866 0.7711 l
1.0869 0.7761 l
1.0872 0.7778 l
1.0875 0.7761 l
1.0878 0.7710 l
1.0881 0.7626 l
1.0884 0.7510 l
1.0887 0.7365 l
1.0890 0.7191 l
1.0893 0.6991 l
1.0896 0.6769 l
1.0899 0.6527 l
1.0902 0.6269 l
1.0905 0.5999 l
1.0908 0.5720 l
1.0911 0.5437 l
1.0915 0.5154 l
1.0918 0.4873 l
1.0921 0.4601 l
1.0924 0.4340 l
1.0927 0.4094 l
1.0930 0.3867 l
1.0933 0.3661 l
1.0936 0.3480 l
1.0939 0.3326 l
1.0942 0.3202 l
1.0945 0.3107 l
1.0948 0.3045 l
1.0951 0.3015 l
1.0954 0.3019 l
1.0957 0.3054 l
1.0960 0.3122 l
1.0963 0.3220 l
1.0966 0.3347 l
1.0969 0.3502 l
1.0972 0.3681 l
1.0975 0.3882 l
1.0978 0.4102 l
1.0981 0.4337 l
1.0984 0.4584 l
1.0987 0.4840 l
1.0990 0.5101 l
1.0993 0.5362 l
1.0996 0.5620 l
1.0999 0.5871 l
1.1002 0.6111 l
1.1005 0.6338 l
1.1008 0.6547 l
1.1012 0.6735 l
1.1015 0.6901 l
1.1018 0.7041 l
1.1021 0.7153 l
1.1024 0.7236 l
1.1027 0.7288 l
1.1030 0.7309 l
1.1033 0.7298 l
1.1036 0.7256 l
1.1039 0.7183 l
1.1042 0.7080 l
1.1045 0.6948 l
1.1048 0.6789 l
1.1051 0.6606 l
1.1054 0.6401 l
1.1057 0.6177 l
1.1060 0.5936 l
1.1063 0.5684 l
1.1066 0.5422 l
1.1069 0.5155 l
1.1072 0.4886 l
1.1075 0.4620 l
1.1078 0.4360 l
1.1081 0.4110 l
1.1084 0.3873 l
1.1087 0.3653 l
1.1090 0.3453 l
1.1093 0.3275 l
1.1096 0.3122 l
1.1099 0.2996 l
1.1102 0.2899 l
1.1106 0.2832 l
1.1109 0.2795 l
1.1112 0.2789 l
1.1115 0.2814 l
1.1118 0.2868 l
1.1121 0.2952 l
1.1124 0.3062 l
1.1127 0.3197 l
1.1130 0.3354 l
1.1133 0.3530 l
1.1136 0.3723 l
1.1139 0.3928 l
1.1142 0.4142 l
1.1145 0.4361 l
1.1148 0.4581 l
1.1151 0.4798 l
1.1154 0.5008 l
1.1157 0.5206 l
1.1160 0.5390 l
1.1163 0.5556 l
1.1166 0.5700 l
1.1169 0.5819 l
1.1172 0.5912 l
1.1175 0.5975 l
1.1178 0.6008 l
1.1181 0.6009 l
1.1184 0.5979 l
1.1187 0.5916 l
1.1190 0.5821 l
1.1193 0.5696 l
1.1196 0.5543 l
1.1199 0.5362 l
1.1203 0.5158 l
1.1206 0.4932 l
1.1209 0.4689 l
1.1212 0.4433 l
1.1215 0.4166 l
1.1218 0.3893 l
1.1221 0.3620 l
1.1224 0.3349 l
1.1227 0.3086 l
1.1230 0.2834 l
1.1233 0.2598 l
1.1236 0.2382 l
1.1239 0.2189 l
1.1242 0.2022 l
1.1245 0.1885 l
1.1248 0.1779 l
1.1251 0.1707 l
1.1254 0.1669 l
1.1257 0.1667 l
1.1260 0.1700 l
1.1262 0.1737 l
s
[/DeviceRGB] SCS
Color1 SC
n
0.1500 0.1500 m
1.1500 0.1500 l
s
n
0.1500 0.8500 m
1.1500 0.8500 l
s
[0.0015 0.0045 ] 0 SD
0.0015 SLW
n
0.2799 0.1500 m
0.2799 0.1600 l
s
n
0.2799 0.8500 m
0.2799 0.8400 l
s
n
0.4921 0.1500 m
0.4921 0.1600 l
s
n
0.4921 0.8500 m
0.4921 0.8400 l
s
n
0.7043 0.1500 m
0.7043 0.1600 l
s
n
0.7043 0.8500 m
0.7043 0.8400 l
s
n
0.9165 0.1500 m
0.9165 0.1600 l
s
n
0.9165 0.8500 m
0.9165 0.8400 l
s
n
1.1287 0.1500 m
1.1287 0.1600 l
s
n
1.1287 0.8500 m
1.1287 0.8400 l
s
n
0.1738 0.1500 m
0.1738 0.1700 l
s
n
0.1738 0.8500 m
0.1738 0.8300 l
s
n
0.3860 0.1500 m
0.3860 0.1700 l
s
n
0.3860 0.8500 m
0.3860 0.8300 l
s
n
0.5982 0.1500 m
0.5982 0.1700 l
s
n
0.5982 0.8500 m
0.5982 0.8300 l
s
n
0.8104 0.1500 m
0.8104 0.1700 l
s
n
0.8104 0.8500 m
0.8104 0.8300 l
s
n
1.0226 0.1500 m
1.0226 0.1700 l
s
n
1.0226 0.8500 m
1.0226 0.8300 l
s
/Times-Roman findfont
dup length dict begin
 {1 index /FID ne {def} {pop pop} ifelse} forall
 /Encoding DefEncoding def
 currentdict
end
/Font41 exch definefont pop
/Font41 FFSF
0.1686 0.1247 m
GS
[0.0224 0.0000 0.0000 0.0224 0 0] CC
(0) show
GR
/Font41 FFSF
0.3810 0.1251 m
GS
[0.0224 0.0000 0.0000 0.0224 0 0] CC
(7) show
GR
/Font41 FFSF
0.5873 0.1247 m
GS
[0.0224 0.0000 0.0000 0.0224 0 0] CC
(14) show
GR
/Font41 FFSF
0.8003 0.1247 m
GS
[0.0224 0.0000 0.0000 0.0224 0 0] CC
(21) show
GR
/Font41 FFSF
1.0119 0.1247 m
GS
[0.0224 0.0000 0.0000 0.0224 0 0] CC
(28) show
GR
/Font41 FFSF
0.6062 0.0627 m
GS
[0.0280 0.0000 0.0000 0.0280 0 0] CC
(Time\(s\)) show
GR
[] 0 SD
0.0015 SLW
n
0.1500 0.1500 m
0.1500 0.8500 l
s
n
1.1500 0.1500 m
1.1500 0.8500 l
s
n
0.1500 0.2865 m
0.1600 0.2865 l
s
n
1.1500 0.2865 m
1.1400 0.2865 l
s
n
0.1500 0.4265 m
0.1600 0.4265 l
s
n
1.1500 0.4265 m
1.1400 0.4265 l
s
n
0.1500 0.5665 m
0.1600 0.5665 l
s
n
1.1500 0.5665 m
1.1400 0.5665 l
s
n
0.1500 0.7065 m
0.1600 0.7065 l
s
n
1.1500 0.7065 m
1.1400 0.7065 l
s
n
0.1500 0.8465 m
0.1600 0.8465 l
s
n
1.1500 0.8465 m
1.1400 0.8465 l
s
[0.0015 0.0045 ] 0 SD
0.0015 SLW
n
0.1500 0.2165 m
0.1700 0.2165 l
s
n
1.1500 0.2165 m
1.1300 0.2165 l
s
n
0.1500 0.3565 m
0.1700 0.3565 l
s
n
1.1500 0.3565 m
1.1300 0.3565 l
s
n
0.1500 0.4965 m
0.1700 0.4965 l
s
n
1.1500 0.4965 m
1.1300 0.4965 l
s
n
0.1500 0.6365 m
0.1700 0.6365 l
s
n
1.1500 0.6365 m
1.1300 0.6365 l
s
n
0.1500 0.7765 m
0.1700 0.7765 l
s
n
1.1500 0.7765 m
1.1300 0.7765 l
s
/Font41 FFSF
0.0492 0.2090 m
GS
[0.0224 0.0000 0.0000 0.0224 0 0] CC
(-0.032922) show
GR
/Font41 FFSF
0.0509 0.3490 m
GS
[0.0224 0.0000 0.0000 0.0224 0 0] CC
(-0.016461) show
GR
/Font41 FFSF
0.1295 0.4890 m
GS
[0.0224 0.0000 0.0000 0.0224 0 0] CC
(0) show
GR
/Font41 FFSF
0.0585 0.6290 m
GS
[0.0224 0.0000 0.0000 0.0224 0 0] CC
(0.016461) show
GR
/Font41 FFSF
0.0569 0.7690 m
GS
[0.0224 0.0000 0.0000 0.0224 0 0] CC
(0.032922) show
GR
/Font41 FFSF
0.0767 0.4034 m
GS
[0.0000 0.0280 -0.0280 0.0000 0 0] CC
(Displacement\(m\)) show
GR
[] 0 SD
0.0015 SLW
n
0.1500 0.1500 m
0.1500 0.8500 l
1.1500 0.8500 l
1.1500 0.1500 l
0.1500 0.1500 l
c
s
n
0.8500 0.8000 m
0.8500 0.7655 l
0.9545 0.7655 l
0.9545 0.8000 l
c
[/DeviceRGB] SCS
Color0 SC
fill
[/DeviceRGB] SCS
Color1 SC
n
0.8500 0.8000 m
0.8500 0.7655 l
0.9545 0.7655 l
0.9545 0.8000 l
0.8500 0.8000 l
c
s
/Font41 FFSF
0.9208 0.7759 m
GS
[0.0210 0.0000 0.0000 0.0210 0 0] CC
(N1) show
GR
[/DeviceRGB] SCS
Color2 SC
n
0.8608 0.7827 m
0.9008 0.7827 l
s
/Font41 FFSF
[/DeviceRGB] SCS
Color1 SC
0.4497 0.9193 m
GS
[0.0420 0.0000 0.0000 0.0420 0 0] CC
(Displacement with time) show
GR
%%Trailer
%%BoundingBox: 28 33 686 565
%%DocumentNeededResources: font Times-Roman
%%EOF
