%!PS-Adobe-3.0 EPSF-3.0
%%BoundingBox: (atend)
%%LanguageLevel: 2
%%Creator: Grace-5.1.25
%%CreationDate: Sun Dec  3 07:35:23 2017
%%DocumentData: Clean8Bit
%%Orientation: Portrait
%%Title: fort.10.wrk
%%For: digvijay
%%DocumentNeededResources: (atend)
%%EndComments
%%BeginProlog
/m {moveto} def
/l {lineto} def
/s {stroke} def
/n {newpath} def
/c {closepath} def
/RL {rlineto} def
/SLW {setlinewidth} def
/GS {gsave} def
/GR {grestore} def
/SC {setcolor} def
/SGRY {setgray} def
/SRGB {setrgbcolor} def
/SD {setdash} def
/SLC {setlinecap} def
/SLJ {setlinejoin} def
/SCS {setcolorspace} def
/FFSF {findfont setfont} def
/CC {concat} def
/PXL {n m 0 0 RL s} def
/Color0 {1.0000 1.0000 1.0000} def
/Color1 {0.0000 0.0000 0.0000} def
/Color2 {1.0000 0.0000 0.0000} def
/Color3 {0.0000 1.0000 0.0000} def
/Color4 {0.0000 0.0000 1.0000} def
/Color5 {1.0000 1.0000 0.0000} def
/Color6 {0.7373 0.5608 0.5608} def
/Color7 {0.8627 0.8627 0.8627} def
/Color8 {0.5804 0.0000 0.8275} def
/Color9 {0.0000 1.0000 1.0000} def
/Color10 {1.0000 0.0000 1.0000} def
/Color11 {1.0000 0.6471 0.0000} def
/Color12 {0.4471 0.1294 0.7373} def
/Color13 {0.4039 0.0275 0.2824} def
/Color14 {0.2510 0.8784 0.8157} def
/Color15 {0.0000 0.5451 0.0000} def
/PTRN {
 /pat_bits exch def 
 <<
  /PaintType 2
  /PatternType 1 /TilingType 1
  /BBox[0 0 16 16]
  /XStep 16 /YStep 16
  /PaintProc {
   pop
   16 16 true [-1 0 0 -1 16 16] pat_bits imagemask
  }
 >>
 [0.0017 0 0 0.0017 0 0]
 makepattern
} def
/Pattern0 {<0000000000000000000000000000000000000000000000000000000000000000> PTRN} bind def
/Pattern1 {<ffffffffffffffffffffffffffffffffffffffffffffffffffffffffffffffff> PTRN} bind def
/Pattern2 {<eeeeffffbbbbffffeeeeffffbbbbffffeeeeffffbbbbffffeeeeffffbbbbffff> PTRN} bind def
/Pattern3 {<eeeebbbbeeeebbbbeeeebbbbeeeebbbbeeeebbbbeeeebbbbeeeebbbbeeeebbbb> PTRN} bind def
/Pattern4 {<5555aaaa5555aaaa5555aaaa5555aaaa5555aaaa5555aaaa5555aaaa5555aaaa> PTRN} bind def
/Pattern5 {<1111444411114444111144441111444411114444111144441111444411114444> PTRN} bind def
/Pattern6 {<1111000044440000111100004444000011110000444400001111000044440000> PTRN} bind def
/Pattern7 {<1010000000000000010100000000000010100000000000000101000000000000> PTRN} bind def
/Pattern8 {<0000000000000000000000000000000000000000000000000000000000000000> PTRN} bind def
/Pattern9 {<1e1e0f0f8787c3c3e1e1f0f078783c3c1e1e0f0f8787c3c3e1e1f0f078783c3c> PTRN} bind def
/Pattern10 {<7878f0f0e1e1c3c387870f0f1e1e3c3c7878f0f0e1e1c3c387870f0f1e1e3c3c> PTRN} bind def
/Pattern11 {<3333333333333333333333333333333333333333333333333333333333333333> PTRN} bind def
/Pattern12 {<ffffffff00000000ffffffff00000000ffffffff00000000ffffffff00000000> PTRN} bind def
/Pattern13 {<8181424224241818181824244242818181814242242418181818242442428181> PTRN} bind def
/Pattern14 {<8080404020201010080804040202010180804040202010100808040402020101> PTRN} bind def
/Pattern15 {<0101020204040808101020204040808001010202040408081010202040408080> PTRN} bind def
/Pattern16 {<2222222222222222222222222222222222222222222222222222222222222222> PTRN} bind def
/Pattern17 {<0000ffff000000000000ffff000000000000ffff000000000000ffff00000000> PTRN} bind def
/Pattern18 {<2222ffff222222222222ffff222222222222ffff222222222222ffff22222222> PTRN} bind def
/Pattern19 {<ffffffff33333333ffffffff33333333ffffffff33333333ffffffff33333333> PTRN} bind def
/Pattern20 {<0f0f0f0f0f0f0f0ff0f0f0f0f0f0f0f00f0f0f0f0f0f0f0ff0f0f0f0f0f0f0f0> PTRN} bind def
/Pattern21 {<ff00ff00ff00ff00ff00ff00ff00ff0000ff00ff00ff00ff00ff00ff00ff00ff> PTRN} bind def
/Pattern22 {<8001800180018001800180018001ffffffff8001800180018001800180018001> PTRN} bind def
/Pattern23 {<c003c003c003c003c003c003ffffffffffffffffc003c003c003c003c003c003> PTRN} bind def
/Pattern24 {<040404040404ffff404040404040ffff040404040404ffff404040404040ffff> PTRN} bind def
/Pattern25 {<180018001800180018001800ffffffff001800180018001800180018ffffffff> PTRN} bind def
/Pattern26 {<1111b8b87c7c3a3a1111a3a3c7c78b8b1111b8b87c7c3a3a1111a3a3c7c78b8b> PTRN} bind def
/Pattern27 {<101010102828c7c70101010182827c7c101010102828c7c70101010182827c7c> PTRN} bind def
/Pattern28 {<1c1c121211112121c1c12121111112121c1c121211112121c1c1212111111212> PTRN} bind def
/Pattern29 {<3e3e414180808080e3e31414080808083e3e414180808080e3e3141408080808> PTRN} bind def
/Pattern30 {<4848888884848383848488884848383848488888848483838484888848483838> PTRN} bind def
/Pattern31 {<03030404080808080c0c12122121c0c003030404080808080c0c12122121c0c0> PTRN} bind def
/ellipsedict 8 dict def
ellipsedict /mtrx matrix put
/EARC {
 ellipsedict begin
  /endangle exch def
  /startangle exch def
  /yrad exch def
  /xrad exch def
  /y exch def
  /x exch def
  /savematrix mtrx currentmatrix def
  x y translate
  xrad yrad scale
  0 0 1 startangle endangle arc
  savematrix setmatrix
 end
} def
/TL {
  /kcomp exch def
  /linewidth exch def
  /offset exch def
  GS
  0 offset rmoveto
  linewidth SLW
  dup stringwidth exch kcomp add exch RL s
  GR
} def
/KINIT
{
 /kvector exch def
 /kid 0 def
} def
/KPROC
{
 pop pop
 kvector kid get
 0 rmoveto
 /kid 1 kid add def
} def
/DefEncoding [
 /.notdef
 /.notdef
 /.notdef
 /.notdef
 /.notdef
 /.notdef
 /.notdef
 /.notdef
 /.notdef
 /.notdef
 /.notdef
 /.notdef
 /.notdef
 /.notdef
 /.notdef
 /.notdef
 /.notdef
 /.notdef
 /.notdef
 /.notdef
 /.notdef
 /.notdef
 /.notdef
 /.notdef
 /.notdef
 /.notdef
 /.notdef
 /.notdef
 /.notdef
 /.notdef
 /.notdef
 /.notdef
 /space
 /exclam
 /quotedbl
 /numbersign
 /dollar
 /percent
 /ampersand
 /quoteright
 /parenleft
 /parenright
 /asterisk
 /plus
 /comma
 /hyphen
 /period
 /slash
 /zero
 /one
 /two
 /three
 /four
 /five
 /six
 /seven
 /eight
 /nine
 /colon
 /semicolon
 /less
 /equal
 /greater
 /question
 /at
 /A
 /B
 /C
 /D
 /E
 /F
 /G
 /H
 /I
 /J
 /K
 /L
 /M
 /N
 /O
 /P
 /Q
 /R
 /S
 /T
 /U
 /V
 /W
 /X
 /Y
 /Z
 /bracketleft
 /backslash
 /bracketright
 /asciicircum
 /underscore
 /grave
 /a
 /b
 /c
 /d
 /e
 /f
 /g
 /h
 /i
 /j
 /k
 /l
 /m
 /n
 /o
 /p
 /q
 /r
 /s
 /t
 /u
 /v
 /w
 /x
 /y
 /z
 /braceleft
 /bar
 /braceright
 /asciitilde
 /.notdef
 /.notdef
 /.notdef
 /.notdef
 /.notdef
 /.notdef
 /.notdef
 /.notdef
 /.notdef
 /.notdef
 /.notdef
 /.notdef
 /.notdef
 /.notdef
 /.notdef
 /.notdef
 /.notdef
 /.notdef
 /.notdef
 /.notdef
 /.notdef
 /.notdef
 /.notdef
 /.notdef
 /.notdef
 /.notdef
 /.notdef
 /.notdef
 /.notdef
 /.notdef
 /.notdef
 /.notdef
 /.notdef
 /space
 /exclamdown
 /cent
 /sterling
 /currency
 /yen
 /brokenbar
 /section
 /dieresis
 /copyright
 /ordfeminine
 /guillemotleft
 /logicalnot
 /hyphen
 /registered
 /macron
 /degree
 /plusminus
 /twosuperior
 /threesuperior
 /acute
 /mu
 /paragraph
 /periodcentered
 /cedilla
 /onesuperior
 /ordmasculine
 /guillemotright
 /onequarter
 /onehalf
 /threequarters
 /questiondown
 /Agrave
 /Aacute
 /Acircumflex
 /Atilde
 /Adieresis
 /Aring
 /AE
 /Ccedilla
 /Egrave
 /Eacute
 /Ecircumflex
 /Edieresis
 /Igrave
 /Iacute
 /Icircumflex
 /Idieresis
 /Eth
 /Ntilde
 /Ograve
 /Oacute
 /Ocircumflex
 /Otilde
 /Odieresis
 /multiply
 /Oslash
 /Ugrave
 /Uacute
 /Ucircumflex
 /Udieresis
 /Yacute
 /Thorn
 /germandbls
 /agrave
 /aacute
 /acircumflex
 /atilde
 /adieresis
 /aring
 /ae
 /ccedilla
 /egrave
 /eacute
 /ecircumflex
 /edieresis
 /igrave
 /iacute
 /icircumflex
 /idieresis
 /eth
 /ntilde
 /ograve
 /oacute
 /ocircumflex
 /otilde
 /odieresis
 /divide
 /oslash
 /ugrave
 /uacute
 /ucircumflex
 /udieresis
 /yacute
 /thorn
 /ydieresis
] def
%%EndProlog
%%BeginSetup
%%EndSetup
594.96 594.96 scale
n
0.0000 0.0000 m
0.0000 1.0000 l
1.4151 1.0000 l
1.4151 0.0000 l
c
[/DeviceRGB] SCS
Color0 SC
fill
[/DeviceRGB] SCS
Color1 SC
[0.0015 0.0045 ] 0 SD
0.0015 SLW
0 SLC
0 SLJ
n
0.1500 0.1500 m
0.1500 0.8500 l
s
n
0.2929 0.1500 m
0.2929 0.8500 l
s
n
0.4357 0.1500 m
0.4357 0.8500 l
s
n
0.5786 0.1500 m
0.5786 0.8500 l
s
n
0.7214 0.1500 m
0.7214 0.8500 l
s
n
0.8643 0.1500 m
0.8643 0.8500 l
s
n
1.0071 0.1500 m
1.0071 0.8500 l
s
n
1.1500 0.1500 m
1.1500 0.8500 l
s
n
0.1500 0.1500 m
1.1500 0.1500 l
s
n
0.1500 0.2667 m
1.1500 0.2667 l
s
n
0.1500 0.3833 m
1.1500 0.3833 l
s
n
0.1500 0.5000 m
1.1500 0.5000 l
s
n
0.1500 0.6167 m
1.1500 0.6167 l
s
n
0.1500 0.7333 m
1.1500 0.7333 l
s
n
0.1500 0.8500 m
1.1500 0.8500 l
s
[/DeviceRGB] SCS
Color2 SC
[] 0 SD
0.0015 SLW
n
0.1500 0.5000 m
0.1503 0.5716 l
0.1506 0.6347 l
0.1509 0.6826 l
0.1511 0.7098 l
0.1514 0.7131 l
0.1517 0.6916 l
0.1520 0.6468 l
0.1523 0.5827 l
0.1526 0.5051 l
0.1529 0.4212 l
0.1531 0.3389 l
0.1534 0.2660 l
0.1537 0.2095 l
0.1540 0.1748 l
0.1543 0.1652 l
0.1546 0.1818 l
0.1549 0.2228 l
0.1551 0.2846 l
0.1554 0.3612 l
0.1557 0.4454 l
0.1560 0.5293 l
0.1563 0.6051 l
0.1566 0.6658 l
0.1569 0.7059 l
0.1571 0.7220 l
0.1574 0.7130 l
0.1577 0.6805 l
0.1580 0.6281 l
0.1583 0.5617 l
0.1586 0.4883 l
0.1589 0.4158 l
0.1591 0.3518 l
0.1594 0.3033 l
0.1597 0.2755 l
0.1600 0.2718 l
0.1603 0.2931 l
0.1606 0.3378 l
0.1609 0.4019 l
0.1611 0.4798 l
0.1614 0.5641 l
0.1617 0.6469 l
0.1620 0.7204 l
0.1623 0.7777 l
0.1626 0.8133 l
0.1629 0.8239 l
0.1631 0.8084 l
0.1634 0.7686 l
0.1637 0.7081 l
0.1640 0.6328 l
0.1643 0.5500 l
0.1646 0.4674 l
0.1649 0.3931 l
0.1651 0.3338 l
0.1654 0.2951 l
0.1657 0.2805 l
0.1660 0.2908 l
0.1663 0.3246 l
0.1666 0.3782 l
0.1669 0.4458 l
0.1671 0.5202 l
0.1674 0.5937 l
0.1677 0.6586 l
0.1680 0.7079 l
0.1683 0.7363 l
0.1686 0.7405 l
0.1689 0.7197 l
0.1691 0.6753 l
0.1694 0.6112 l
0.1697 0.5334 l
0.1700 0.4490 l
0.1703 0.3659 l
0.1706 0.2920 l
0.1709 0.2342 l
0.1711 0.1980 l
0.1714 0.1867 l
0.1717 0.2013 l
0.1720 0.2403 l
0.1723 0.2998 l
0.1726 0.3740 l
0.1729 0.4557 l
0.1731 0.5371 l
0.1734 0.6103 l
0.1737 0.6683 l
0.1740 0.7058 l
0.1743 0.7193 l
0.1746 0.7078 l
0.1749 0.6727 l
0.1751 0.6180 l
0.1754 0.5494 l
0.1757 0.4739 l
0.1760 0.3994 l
0.1763 0.3337 l
0.1766 0.2836 l
0.1769 0.2544 l
0.1771 0.2496 l
0.1774 0.2700 l
0.1777 0.3140 l
0.1780 0.3778 l
0.1783 0.4554 l
0.1786 0.5398 l
0.1789 0.6229 l
0.1791 0.6970 l
0.1794 0.7550 l
0.1797 0.7916 l
0.1800 0.8034 l
0.1803 0.7894 l
0.1806 0.7511 l
0.1809 0.6923 l
0.1811 0.6189 l
0.1814 0.5380 l
0.1817 0.4576 l
0.1820 0.3854 l
0.1823 0.3283 l
0.1826 0.2919 l
0.1829 0.2794 l
0.1831 0.2920 l
0.1834 0.3280 l
0.1837 0.3838 l
0.1840 0.4534 l
0.1843 0.5299 l
0.1846 0.6052 l
0.1849 0.6718 l
0.1851 0.7227 l
0.1854 0.7525 l
0.1857 0.7580 l
0.1860 0.7382 l
0.1863 0.6947 l
0.1866 0.6313 l
0.1869 0.5539 l
0.1871 0.4697 l
0.1874 0.3867 l
0.1877 0.3127 l
0.1880 0.2545 l
0.1883 0.2177 l
0.1886 0.2057 l
0.1889 0.2193 l
0.1891 0.2572 l
0.1894 0.3154 l
0.1897 0.3882 l
0.1900 0.4684 l
0.1903 0.5481 l
0.1906 0.6196 l
0.1909 0.6758 l
0.1911 0.7114 l
0.1914 0.7230 l
0.1917 0.7095 l
0.1920 0.6726 l
0.1923 0.6160 l
0.1926 0.5455 l
0.1929 0.4682 l
0.1931 0.3920 l
0.1934 0.3246 l
0.1937 0.2729 l
0.1940 0.2424 l
0.1943 0.2363 l
0.1946 0.2555 l
0.1949 0.2986 l
0.1951 0.3615 l
0.1954 0.4385 l
0.1957 0.5224 l
0.1960 0.6052 l
0.1963 0.6792 l
0.1966 0.7373 l
0.1969 0.7741 l
0.1971 0.7863 l
0.1974 0.7729 l
0.1977 0.7353 l
0.1980 0.6774 l
0.1983 0.6050 l
0.1986 0.5253 l
0.1989 0.4461 l
0.1991 0.3752 l
0.1994 0.3196 l
0.1997 0.2847 l
0.2000 0.2739 l
0.2003 0.2880 l
0.2006 0.3257 l
0.2009 0.3831 l
0.2011 0.4544 l
0.2014 0.5324 l
0.2017 0.6094 l
0.2020 0.6775 l
0.2023 0.7298 l
0.2026 0.7610 l
0.2029 0.7677 l
0.2031 0.7491 l
0.2034 0.7066 l
0.2037 0.6441 l
0.2040 0.5675 l
0.2043 0.4839 l
0.2046 0.4014 l
0.2049 0.3277 l
0.2051 0.2697 l
0.2054 0.2329 l
0.2057 0.2207 l
0.2060 0.2341 l
0.2063 0.2715 l
0.2066 0.3292 l
0.2069 0.4013 l
0.2071 0.4807 l
0.2074 0.5595 l
0.2077 0.6299 l
0.2080 0.6850 l
0.2083 0.7194 l
0.2086 0.7297 l
0.2089 0.7150 l
0.2091 0.6767 l
0.2094 0.6186 l
0.2097 0.5467 l
0.2100 0.4680 l
0.2103 0.3904 l
0.2106 0.3217 l
0.2109 0.2687 l
0.2111 0.2369 l
0.2114 0.2296 l
0.2117 0.2477 l
0.2120 0.2897 l
0.2123 0.3518 l
0.2126 0.4279 l
0.2129 0.5111 l
0.2131 0.5933 l
0.2134 0.6668 l
0.2137 0.7246 l
0.2140 0.7612 l
0.2143 0.7733 l
0.2146 0.7599 l
0.2149 0.7225 l
0.2151 0.6649 l
0.2154 0.5929 l
0.2157 0.5138 l
0.2160 0.4352 l
0.2163 0.3651 l
0.2166 0.3104 l
0.2169 0.2764 l
0.2171 0.2665 l
0.2174 0.2817 l
0.2177 0.3205 l
0.2180 0.3791 l
0.2183 0.4515 l
0.2186 0.5308 l
0.2189 0.6089 l
0.2191 0.6782 l
0.2194 0.7317 l
0.2197 0.7641 l
0.2200 0.7719 l
0.2203 0.7543 l
0.2206 0.7128 l
0.2209 0.6512 l
0.2211 0.5754 l
0.2214 0.4927 l
0.2217 0.4108 l
0.2220 0.3376 l
0.2223 0.2801 l
0.2226 0.2436 l
0.2229 0.2317 l
0.2231 0.2452 l
0.2234 0.2826 l
0.2237 0.3402 l
0.2240 0.4121 l
0.2243 0.4912 l
0.2246 0.5696 l
0.2249 0.6395 l
0.2251 0.6940 l
0.2254 0.7277 l
0.2257 0.7372 l
0.2260 0.7217 l
0.2263 0.6825 l
0.2266 0.6235 l
0.2269 0.5506 l
0.2271 0.4709 l
0.2274 0.3923 l
0.2277 0.3226 l
0.2280 0.2686 l
0.2283 0.2358 l
0.2286 0.2275 l
0.2289 0.2446 l
0.2291 0.2857 l
0.2294 0.3468 l
0.2297 0.4222 l
0.2300 0.5046 l
0.2303 0.5862 l
0.2306 0.6591 l
0.2309 0.7163 l
0.2311 0.7525 l
0.2314 0.7643 l
0.2317 0.7506 l
0.2320 0.7131 l
0.2323 0.6554 l
0.2326 0.5835 l
0.2329 0.5044 l
0.2331 0.4261 l
0.2334 0.3563 l
0.2337 0.3020 l
0.2340 0.2685 l
0.2343 0.2591 l
0.2346 0.2750 l
0.2349 0.3145 l
0.2351 0.3737 l
0.2354 0.4470 l
0.2357 0.5270 l
0.2360 0.6060 l
0.2363 0.6762 l
0.2366 0.7306 l
0.2369 0.7638 l
0.2371 0.7725 l
0.2374 0.7557 l
0.2377 0.7150 l
0.2380 0.6543 l
0.2383 0.5793 l
0.2386 0.4972 l
0.2389 0.4160 l
0.2391 0.3434 l
0.2394 0.2865 l
0.2397 0.2505 l
0.2400 0.2390 l
0.2403 0.2528 l
0.2406 0.2905 l
0.2409 0.3482 l
0.2411 0.4202 l
0.2414 0.4993 l
0.2417 0.5776 l
0.2420 0.6474 l
0.2423 0.7017 l
0.2426 0.7351 l
0.2429 0.7442 l
0.2431 0.7282 l
0.2434 0.6885 l
0.2437 0.6290 l
0.2440 0.5555 l
0.2443 0.4752 l
0.2446 0.3959 l
0.2449 0.3254 l
0.2451 0.2707 l
0.2454 0.2371 l
0.2457 0.2281 l
0.2460 0.2445 l
0.2463 0.2848 l
0.2466 0.3452 l
0.2469 0.4199 l
0.2471 0.5017 l
0.2474 0.5826 l
0.2477 0.6548 l
0.2480 0.7115 l
0.2483 0.7472 l
0.2486 0.7586 l
0.2489 0.7446 l
0.2491 0.7067 l
0.2494 0.6488 l
0.2497 0.5767 l
0.2500 0.4975 l
0.2503 0.4192 l
0.2506 0.3494 l
0.2509 0.2952 l
0.2511 0.2618 l
0.2514 0.2527 l
0.2517 0.2689 l
0.2520 0.3087 l
0.2523 0.3683 l
0.2526 0.4421 l
0.2529 0.5226 l
0.2531 0.6021 l
0.2534 0.6729 l
0.2537 0.7278 l
0.2540 0.7617 l
0.2543 0.7710 l
0.2546 0.7549 l
0.2549 0.7149 l
0.2551 0.6547 l
0.2554 0.5804 l
0.2557 0.4989 l
0.2560 0.4183 l
0.2563 0.3463 l
0.2566 0.2898 l
0.2569 0.2543 l
0.2571 0.2432 l
0.2574 0.2575 l
0.2577 0.2955 l
0.2580 0.3535 l
0.2583 0.4258 l
0.2586 0.5051 l
0.2589 0.5835 l
0.2591 0.6533 l
0.2594 0.7076 l
0.2597 0.7409 l
0.2600 0.7500 l
0.2603 0.7338 l
0.2606 0.6939 l
0.2609 0.6341 l
0.2611 0.5603 l
0.2614 0.4796 l
0.2617 0.3998 l
0.2620 0.3289 l
0.2623 0.2737 l
0.2626 0.2397 l
0.2629 0.2301 l
0.2631 0.2460 l
0.2634 0.2858 l
0.2637 0.3457 l
0.2640 0.4198 l
0.2643 0.5010 l
0.2646 0.5814 l
0.2649 0.6531 l
0.2651 0.7094 l
0.2654 0.7446 l
0.2657 0.7555 l
0.2660 0.7411 l
0.2663 0.7029 l
0.2666 0.6446 l
0.2669 0.5723 l
0.2671 0.4929 l
0.2674 0.4143 l
0.2677 0.3445 l
0.2680 0.2901 l
0.2683 0.2568 l
0.2686 0.2477 l
0.2689 0.2639 l
0.2691 0.3038 l
0.2694 0.3637 l
0.2697 0.4376 l
0.2700 0.5184 l
0.2703 0.5982 l
0.2706 0.6693 l
0.2709 0.7246 l
0.2711 0.7589 l
0.2714 0.7686 l
0.2717 0.7529 l
0.2720 0.7133 l
0.2723 0.6537 l
0.2726 0.5798 l
0.2729 0.4988 l
0.2731 0.4186 l
0.2734 0.3471 l
0.2737 0.2911 l
0.2740 0.2560 l
0.2743 0.2453 l
0.2746 0.2599 l
0.2749 0.2983 l
0.2751 0.3567 l
0.2754 0.4292 l
0.2757 0.5087 l
0.2760 0.5874 l
0.2763 0.6574 l
0.2766 0.7118 l
0.2769 0.7452 l
0.2771 0.7543 l
0.2774 0.7381 l
0.2777 0.6982 l
0.2780 0.6383 l
0.2783 0.5643 l
0.2786 0.4835 l
0.2789 0.4036 l
0.2791 0.3324 l
0.2794 0.2769 l
0.2797 0.2426 l
0.2800 0.2327 l
0.2803 0.2482 l
0.2806 0.2877 l
0.2809 0.3471 l
0.2811 0.4209 l
0.2814 0.5017 l
0.2817 0.5817 l
0.2820 0.6530 l
0.2823 0.7089 l
0.2826 0.7437 l
0.2829 0.7542 l
0.2831 0.7395 l
0.2834 0.7009 l
0.2837 0.6424 l
0.2840 0.5697 l
0.2843 0.4901 l
0.2846 0.4113 l
0.2849 0.3412 l
0.2851 0.2867 l
0.2854 0.2532 l
0.2857 0.2441 l
0.2860 0.2602 l
0.2863 0.3001 l
0.2866 0.3600 l
0.2869 0.4340 l
0.2871 0.5149 l
0.2874 0.5948 l
0.2877 0.6660 l
0.2880 0.7216 l
0.2883 0.7560 l
0.2886 0.7660 l
0.2889 0.7506 l
0.2891 0.7113 l
0.2894 0.6519 l
0.2897 0.5783 l
0.2900 0.4977 l
0.2903 0.4179 l
0.2906 0.3466 l
0.2909 0.2910 l
0.2911 0.2563 l
0.2914 0.2459 l
0.2917 0.2608 l
0.2920 0.2996 l
0.2923 0.3582 l
0.2926 0.4310 l
0.2929 0.5108 l
0.2931 0.5897 l
0.2934 0.6599 l
0.2937 0.7145 l
0.2940 0.7480 l
0.2943 0.7573 l
0.2946 0.7412 l
0.2949 0.7013 l
0.2951 0.6415 l
0.2954 0.5675 l
0.2957 0.4866 l
0.2960 0.4066 l
0.2963 0.3354 l
0.2966 0.2798 l
0.2969 0.2453 l
0.2971 0.2352 l
0.2974 0.2506 l
0.2977 0.2898 l
0.2980 0.3490 l
0.2983 0.4225 l
0.2986 0.5030 l
0.2989 0.5827 l
0.2991 0.6538 l
0.2994 0.7094 l
0.2997 0.7439 l
0.3000 0.7541 l
0.3003 0.7391 l
0.3006 0.7002 l
0.3009 0.6415 l
0.3011 0.5685 l
0.3014 0.4886 l
0.3017 0.4096 l
0.3020 0.3393 l
0.3023 0.2846 l
0.3026 0.2510 l
0.3029 0.2417 l
0.3031 0.2577 l
0.3034 0.2975 l
0.3037 0.3573 l
0.3040 0.4313 l
0.3043 0.5122 l
0.3046 0.5921 l
0.3049 0.6634 l
0.3051 0.7190 l
0.3054 0.7535 l
0.3057 0.7636 l
0.3060 0.7484 l
0.3063 0.7092 l
0.3066 0.6500 l
0.3069 0.5766 l
0.3071 0.4962 l
0.3074 0.4166 l
0.3077 0.3456 l
0.3080 0.2902 l
0.3083 0.2557 l
0.3086 0.2456 l
0.3089 0.2608 l
0.3091 0.2998 l
0.3094 0.3587 l
0.3097 0.4317 l
0.3100 0.5117 l
0.3103 0.5908 l
0.3106 0.6612 l
0.3109 0.7160 l
0.3111 0.7497 l
0.3114 0.7591 l
0.3117 0.7431 l
0.3120 0.7034 l
0.3123 0.6436 l
0.3126 0.5697 l
0.3129 0.4889 l
0.3131 0.4089 l
0.3134 0.3377 l
0.3137 0.2821 l
0.3140 0.2475 l
0.3143 0.2374 l
0.3146 0.2526 l
0.3149 0.2917 l
0.3151 0.3509 l
0.3154 0.4242 l
0.3157 0.5046 l
0.3160 0.5841 l
0.3163 0.6550 l
0.3166 0.7103 l
0.3169 0.7447 l
0.3171 0.7547 l
0.3174 0.7394 l
0.3177 0.7004 l
0.3180 0.6414 l
0.3183 0.5682 l
0.3186 0.4881 l
0.3189 0.4090 l
0.3191 0.3385 l
0.3194 0.2836 l
0.3197 0.2498 l
0.3200 0.2403 l
0.3203 0.2562 l
0.3206 0.2959 l
0.3209 0.3556 l
0.3211 0.4295 l
0.3214 0.5103 l
0.3217 0.5902 l
0.3220 0.6614 l
0.3223 0.7170 l
0.3226 0.7516 l
0.3229 0.7617 l
0.3231 0.7465 l
0.3234 0.7074 l
0.3237 0.6483 l
0.3240 0.5750 l
0.3243 0.4947 l
0.3246 0.4152 l
0.3249 0.3444 l
0.3251 0.2891 l
0.3254 0.2548 l
0.3257 0.2449 l
0.3260 0.2602 l
0.3263 0.2994 l
0.3266 0.3585 l
0.3269 0.4317 l
0.3271 0.5119 l
0.3274 0.5911 l
0.3277 0.6617 l
0.3280 0.7167 l
0.3283 0.7506 l
0.3286 0.7601 l
0.3289 0.7443 l
0.3291 0.7046 l
0.3294 0.6450 l
0.3297 0.5712 l
0.3300 0.4904 l
0.3303 0.4105 l
0.3306 0.3393 l
0.3309 0.2837 l
0.3311 0.2492 l
0.3314 0.2391 l
0.3317 0.2543 l
0.3320 0.2934 l
0.3323 0.3524 l
0.3326 0.4257 l
0.3329 0.5060 l
0.3331 0.5854 l
0.3334 0.6562 l
0.3337 0.7115 l
0.3340 0.7457 l
0.3343 0.7556 l
0.3346 0.7402 l
0.3349 0.7009 l
0.3351 0.6418 l
0.3354 0.5685 l
0.3357 0.4882 l
0.3360 0.4089 l
0.3363 0.3382 l
0.3366 0.2832 l
0.3369 0.2493 l
0.3371 0.2397 l
0.3374 0.2554 l
0.3377 0.2950 l
0.3380 0.3546 l
0.3383 0.4283 l
0.3386 0.5091 l
0.3389 0.5889 l
0.3391 0.6601 l
0.3394 0.7156 l
0.3397 0.7501 l
0.3400 0.7603 l
0.3403 0.7450 l
0.3406 0.7060 l
0.3409 0.6469 l
0.3411 0.5736 l
0.3414 0.4934 l
0.3417 0.4139 l
0.3420 0.3432 l
0.3423 0.2880 l
0.3426 0.2538 l
0.3429 0.2440 l
0.3431 0.2594 l
0.3434 0.2987 l
0.3437 0.3579 l
0.3440 0.4313 l
0.3443 0.5116 l
0.3446 0.5910 l
0.3449 0.6617 l
0.3451 0.7168 l
0.3454 0.7508 l
0.3457 0.7605 l
0.3460 0.7448 l
0.3463 0.7052 l
0.3466 0.6457 l
0.3469 0.5720 l
0.3471 0.4913 l
0.3474 0.4115 l
0.3477 0.3404 l
0.3480 0.2849 l
0.3483 0.2504 l
0.3486 0.2403 l
0.3489 0.2555 l
0.3491 0.2946 l
0.3494 0.3537 l
0.3497 0.4269 l
0.3500 0.5072 l
0.3503 0.5866 l
0.3506 0.6573 l
0.3509 0.7125 l
0.3511 0.7467 l
0.3514 0.7565 l
0.3517 0.7410 l
0.3520 0.7017 l
0.3523 0.6424 l
0.3526 0.5690 l
0.3529 0.4886 l
0.3531 0.4092 l
0.3534 0.3384 l
0.3537 0.2833 l
0.3540 0.2492 l
0.3543 0.2395 l
0.3546 0.2552 l
0.3549 0.2946 l
0.3551 0.3541 l
0.3554 0.4278 l
0.3557 0.5084 l
0.3560 0.5882 l
0.3563 0.6593 l
0.3566 0.7148 l
0.3569 0.7492 l
0.3571 0.7593 l
0.3574 0.7440 l
0.3577 0.7049 l
0.3580 0.6458 l
0.3583 0.5726 l
0.3586 0.4923 l
0.3589 0.4129 l
0.3591 0.3422 l
0.3594 0.2870 l
0.3597 0.2529 l
0.3600 0.2431 l
0.3603 0.2586 l
0.3606 0.2980 l
0.3609 0.3573 l
0.3611 0.4307 l
0.3614 0.5111 l
0.3617 0.5906 l
0.3620 0.6614 l
0.3623 0.7166 l
0.3626 0.7507 l
0.3629 0.7605 l
0.3631 0.7448 l
0.3634 0.7054 l
0.3637 0.6460 l
0.3640 0.5724 l
0.3643 0.4918 l
0.3646 0.4120 l
0.3649 0.3410 l
0.3651 0.2855 l
0.3654 0.2511 l
0.3657 0.2411 l
0.3660 0.2563 l
0.3663 0.2955 l
0.3666 0.3545 l
0.3669 0.4278 l
0.3671 0.5081 l
0.3674 0.5875 l
0.3677 0.6582 l
0.3680 0.7134 l
0.3683 0.7475 l
0.3686 0.7573 l
0.3689 0.7417 l
0.3691 0.7024 l
0.3694 0.6431 l
0.3697 0.5696 l
0.3700 0.4892 l
0.3703 0.4096 l
0.3706 0.3388 l
0.3709 0.2836 l
0.3711 0.2494 l
0.3714 0.2396 l
0.3717 0.2552 l
0.3720 0.2946 l
0.3723 0.3540 l
0.3726 0.4276 l
0.3729 0.5081 l
0.3731 0.5878 l
0.3734 0.6589 l
0.3737 0.7143 l
0.3740 0.7487 l
0.3743 0.7587 l
0.3746 0.7434 l
0.3749 0.7042 l
0.3751 0.6451 l
0.3754 0.5718 l
0.3757 0.4916 l
0.3760 0.4122 l
0.3763 0.3414 l
0.3766 0.2863 l
0.3769 0.2521 l
0.3771 0.2424 l
0.3774 0.2579 l
0.3777 0.2973 l
0.3780 0.3566 l
0.3783 0.4301 l
0.3786 0.5106 l
0.3789 0.5901 l
0.3791 0.6610 l
0.3794 0.7162 l
0.3797 0.7504 l
0.3800 0.7602 l
0.3803 0.7447 l
0.3806 0.7053 l
0.3809 0.6460 l
0.3811 0.5724 l
0.3814 0.4919 l
0.3817 0.4122 l
0.3820 0.3412 l
0.3823 0.2859 l
0.3826 0.2515 l
0.3829 0.2415 l
0.3831 0.2568 l
0.3834 0.2960 l
0.3837 0.3551 l
0.3840 0.4284 l
0.3843 0.5087 l
0.3846 0.5881 l
0.3849 0.6589 l
0.3851 0.7140 l
0.3854 0.7482 l
0.3857 0.7579 l
0.3860 0.7424 l
0.3863 0.7030 l
0.3866 0.6437 l
0.3869 0.5702 l
0.3871 0.4897 l
0.3874 0.4101 l
0.3877 0.3392 l
0.3880 0.2840 l
0.3883 0.2497 l
0.3886 0.2399 l
0.3889 0.2554 l
0.3891 0.2948 l
0.3894 0.3541 l
0.3897 0.4276 l
0.3900 0.5081 l
0.3903 0.5877 l
0.3906 0.6587 l
0.3909 0.7141 l
0.3911 0.7484 l
0.3914 0.7584 l
0.3917 0.7430 l
0.3920 0.7039 l
0.3923 0.6447 l
0.3926 0.5714 l
0.3929 0.4911 l
0.3931 0.4116 l
0.3934 0.3409 l
0.3937 0.2857 l
0.3940 0.2516 l
0.3943 0.2418 l
0.3946 0.2574 l
0.3949 0.2968 l
0.3951 0.3561 l
0.3954 0.4296 l
0.3957 0.5101 l
0.3960 0.5897 l
0.3963 0.6606 l
0.3966 0.7158 l
0.3969 0.7501 l
0.3971 0.7599 l
0.3974 0.7444 l
0.3977 0.7051 l
0.3980 0.6458 l
0.3983 0.5723 l
0.3986 0.4918 l
0.3989 0.4122 l
0.3991 0.3413 l
0.3994 0.2860 l
0.3997 0.2516 l
0.4000 0.2417 l
0.4003 0.2571 l
0.4006 0.2963 l
0.4009 0.3554 l
0.4011 0.4288 l
0.4014 0.5091 l
0.4017 0.5886 l
0.4020 0.6593 l
0.4023 0.7145 l
0.4026 0.7486 l
0.4029 0.7584 l
0.4031 0.7428 l
0.4034 0.7035 l
0.4037 0.6441 l
0.4040 0.5706 l
0.4043 0.4901 l
0.4046 0.4105 l
0.4049 0.3396 l
0.4051 0.2844 l
0.4054 0.2501 l
0.4057 0.2402 l
0.4060 0.2557 l
0.4063 0.2950 l
0.4066 0.3543 l
0.4069 0.4278 l
0.4071 0.5082 l
0.4074 0.5878 l
0.4077 0.6587 l
0.4080 0.7140 l
0.4083 0.7483 l
0.4086 0.7583 l
0.4089 0.7429 l
0.4091 0.7037 l
0.4094 0.6445 l
0.4097 0.5711 l
0.4100 0.4908 l
0.4103 0.4113 l
0.4106 0.3405 l
0.4109 0.2854 l
0.4111 0.2512 l
0.4114 0.2414 l
0.4117 0.2570 l
0.4120 0.2963 l
0.4123 0.3557 l
0.4126 0.4292 l
0.4129 0.5097 l
0.4131 0.5893 l
0.4134 0.6602 l
0.4137 0.7155 l
0.4140 0.7497 l
0.4143 0.7596 l
0.4146 0.7442 l
0.4149 0.7049 l
0.4151 0.6456 l
0.4154 0.5721 l
0.4157 0.4917 l
0.4160 0.4121 l
0.4163 0.3412 l
0.4166 0.2859 l
0.4169 0.2516 l
0.4171 0.2417 l
0.4174 0.2571 l
0.4177 0.2964 l
0.4180 0.3556 l
0.4183 0.4290 l
0.4186 0.5093 l
0.4189 0.5888 l
0.4191 0.6596 l
0.4194 0.7148 l
0.4197 0.7489 l
0.4200 0.7587 l
0.4203 0.7432 l
0.4206 0.7038 l
0.4209 0.6445 l
0.4211 0.5710 l
0.4214 0.4905 l
0.4217 0.4109 l
0.4220 0.3400 l
0.4223 0.2847 l
0.4226 0.2504 l
0.4229 0.2405 l
0.4231 0.2560 l
0.4234 0.2952 l
0.4237 0.3545 l
0.4240 0.4280 l
0.4243 0.5084 l
0.4246 0.5880 l
0.4249 0.6588 l
0.4251 0.7141 l
0.4254 0.7484 l
0.4257 0.7583 l
0.4260 0.7429 l
0.4263 0.7036 l
0.4266 0.6444 l
0.4269 0.5710 l
0.4271 0.4906 l
0.4274 0.4111 l
0.4277 0.3403 l
0.4280 0.2851 l
0.4283 0.2510 l
0.4286 0.2412 l
0.4289 0.2567 l
0.4291 0.2961 l
0.4294 0.3554 l
0.4297 0.4289 l
0.4300 0.5094 l
0.4303 0.5890 l
0.4306 0.6599 l
0.4309 0.7152 l
0.4311 0.7495 l
0.4314 0.7594 l
0.4317 0.7439 l
0.4320 0.7046 l
0.4323 0.6454 l
0.4326 0.5719 l
0.4329 0.4915 l
0.4331 0.4120 l
0.4334 0.3411 l
0.4337 0.2858 l
0.4340 0.2516 l
0.4343 0.2417 l
0.4346 0.2571 l
0.4349 0.2964 l
0.4351 0.3556 l
0.4354 0.4290 l
0.4357 0.5094 l
0.4360 0.5889 l
0.4363 0.6597 l
0.4366 0.7149 l
0.4369 0.7491 l
0.4371 0.7589 l
0.4374 0.7434 l
0.4377 0.7040 l
0.4380 0.6447 l
0.4383 0.5712 l
0.4386 0.4907 l
0.4389 0.4111 l
0.4391 0.3402 l
0.4394 0.2849 l
0.4397 0.2507 l
0.4400 0.2408 l
0.4403 0.2562 l
0.4406 0.2955 l
0.4409 0.3547 l
0.4411 0.4282 l
0.4414 0.5086 l
0.4417 0.5881 l
0.4420 0.6590 l
0.4423 0.7142 l
0.4426 0.7485 l
0.4429 0.7584 l
0.4431 0.7429 l
0.4434 0.7036 l
0.4437 0.6444 l
0.4440 0.5710 l
0.4443 0.4906 l
0.4446 0.4111 l
0.4449 0.3403 l
0.4451 0.2850 l
0.4454 0.2508 l
0.4457 0.2410 l
0.4460 0.2565 l
0.4463 0.2959 l
0.4466 0.3552 l
0.4469 0.4287 l
0.4471 0.5092 l
0.4474 0.5888 l
0.4477 0.6597 l
0.4480 0.7150 l
0.4483 0.7492 l
0.4486 0.7591 l
0.4489 0.7437 l
0.4491 0.7044 l
0.4494 0.6452 l
0.4497 0.5717 l
0.4500 0.4913 l
0.4503 0.4118 l
0.4506 0.3409 l
0.4509 0.2857 l
0.4511 0.2514 l
0.4514 0.2416 l
0.4517 0.2570 l
0.4520 0.2963 l
0.4523 0.3556 l
0.4526 0.4290 l
0.4529 0.5094 l
0.4531 0.5889 l
0.4534 0.6598 l
0.4537 0.7150 l
0.4540 0.7492 l
0.4543 0.7590 l
0.4546 0.7435 l
0.4549 0.7042 l
0.4551 0.6449 l
0.4554 0.5714 l
0.4557 0.4909 l
0.4560 0.4113 l
0.4563 0.3404 l
0.4566 0.2851 l
0.4569 0.2508 l
0.4571 0.2409 l
0.4574 0.2564 l
0.4577 0.2957 l
0.4580 0.3549 l
0.4583 0.4283 l
0.4586 0.5087 l
0.4589 0.5883 l
0.4591 0.6591 l
0.4594 0.7144 l
0.4597 0.7486 l
0.4600 0.7585 l
0.4603 0.7430 l
0.4606 0.7037 l
0.4609 0.6445 l
0.4611 0.5710 l
0.4614 0.4906 l
0.4617 0.4111 l
0.4620 0.3402 l
0.4623 0.2850 l
0.4626 0.2508 l
0.4629 0.2410 l
0.4631 0.2565 l
0.4634 0.2958 l
0.4637 0.3551 l
0.4640 0.4286 l
0.4643 0.5091 l
0.4646 0.5886 l
0.4649 0.6595 l
0.4651 0.7148 l
0.4654 0.7491 l
0.4657 0.7590 l
0.4660 0.7435 l
0.4663 0.7043 l
0.4666 0.6450 l
0.4669 0.5716 l
0.4671 0.4912 l
0.4674 0.4117 l
0.4677 0.3408 l
0.4680 0.2856 l
0.4683 0.2513 l
0.4686 0.2415 l
0.4689 0.2569 l
0.4691 0.2962 l
0.4694 0.3555 l
0.4697 0.4289 l
0.4700 0.5094 l
0.4703 0.5889 l
0.4706 0.6597 l
0.4709 0.7150 l
0.4711 0.7492 l
0.4714 0.7590 l
0.4717 0.7435 l
0.4720 0.7042 l
0.4723 0.6449 l
0.4726 0.5714 l
0.4729 0.4910 l
0.4731 0.4114 l
0.4734 0.3405 l
0.4737 0.2852 l
0.4740 0.2510 l
0.4743 0.2411 l
0.4746 0.2565 l
0.4749 0.2958 l
0.4751 0.3550 l
0.4754 0.4285 l
0.4757 0.5089 l
0.4760 0.5884 l
0.4763 0.6593 l
0.4766 0.7145 l
0.4769 0.7487 l
0.4771 0.7586 l
0.4774 0.7431 l
0.4777 0.7038 l
0.4780 0.6445 l
0.4783 0.5711 l
0.4786 0.4907 l
0.4789 0.4111 l
0.4791 0.3403 l
0.4794 0.2850 l
0.4797 0.2508 l
0.4800 0.2410 l
0.4803 0.2565 l
0.4806 0.2958 l
0.4809 0.3551 l
0.4811 0.4285 l
0.4814 0.5090 l
0.4817 0.5886 l
0.4820 0.6594 l
0.4823 0.7147 l
0.4826 0.7490 l
0.4829 0.7589 l
0.4831 0.7434 l
0.4834 0.7042 l
0.4837 0.6449 l
0.4840 0.5715 l
0.4843 0.4911 l
0.4846 0.4115 l
0.4849 0.3407 l
0.4851 0.2854 l
0.4854 0.2512 l
0.4857 0.2414 l
0.4860 0.2569 l
0.4863 0.2962 l
0.4866 0.3554 l
0.4869 0.4289 l
0.4871 0.5093 l
0.4874 0.5888 l
0.4877 0.6597 l
0.4880 0.7150 l
0.4883 0.7492 l
0.4886 0.7590 l
0.4889 0.7435 l
0.4891 0.7042 l
0.4894 0.6449 l
0.4897 0.5715 l
0.4900 0.4910 l
0.4903 0.4115 l
0.4906 0.3406 l
0.4909 0.2853 l
0.4911 0.2510 l
0.4914 0.2412 l
0.4917 0.2566 l
0.4920 0.2959 l
0.4923 0.3551 l
0.4926 0.4286 l
0.4929 0.5090 l
0.4931 0.5885 l
0.4934 0.6594 l
0.4937 0.7146 l
0.4940 0.7488 l
0.4943 0.7587 l
0.4946 0.7432 l
0.4949 0.7039 l
0.4951 0.6446 l
0.4954 0.5712 l
0.4957 0.4907 l
0.4960 0.4112 l
0.4963 0.3403 l
0.4966 0.2851 l
0.4969 0.2508 l
0.4971 0.2410 l
0.4974 0.2565 l
0.4977 0.2958 l
0.4980 0.3551 l
0.4983 0.4285 l
0.4986 0.5090 l
0.4989 0.5885 l
0.4991 0.6594 l
0.4994 0.7147 l
0.4997 0.7489 l
0.5000 0.7588 l
0.5003 0.7434 l
0.5006 0.7041 l
0.5009 0.6448 l
0.5011 0.5714 l
0.5014 0.4910 l
0.5017 0.4115 l
0.5020 0.3406 l
0.5023 0.2854 l
0.5026 0.2511 l
0.5029 0.2413 l
0.5031 0.2568 l
0.5034 0.2961 l
0.5037 0.3554 l
0.5040 0.4288 l
0.5043 0.5092 l
0.5046 0.5888 l
0.5049 0.6597 l
0.5051 0.7149 l
0.5054 0.7491 l
0.5057 0.7590 l
0.5060 0.7435 l
0.5063 0.7042 l
0.5066 0.6449 l
0.5069 0.5715 l
0.5071 0.4910 l
0.5074 0.4115 l
0.5077 0.3406 l
0.5080 0.2853 l
0.5083 0.2511 l
0.5086 0.2412 l
0.5089 0.2567 l
0.5091 0.2959 l
0.5094 0.3552 l
0.5097 0.4286 l
0.5100 0.5090 l
0.5103 0.5886 l
0.5106 0.6594 l
0.5109 0.7147 l
0.5111 0.7489 l
0.5114 0.7587 l
0.5117 0.7433 l
0.5120 0.7040 l
0.5123 0.6447 l
0.5126 0.5712 l
0.5129 0.4908 l
0.5131 0.4112 l
0.5134 0.3404 l
0.5137 0.2851 l
0.5140 0.2509 l
0.5143 0.2410 l
0.5146 0.2565 l
0.5149 0.2958 l
0.5151 0.3551 l
0.5154 0.4285 l
0.5157 0.5090 l
0.5160 0.5885 l
0.5163 0.6594 l
0.5166 0.7147 l
0.5169 0.7489 l
0.5171 0.7588 l
0.5174 0.7433 l
0.5177 0.7040 l
0.5180 0.6448 l
0.5183 0.5713 l
0.5186 0.4909 l
0.5189 0.4114 l
0.5191 0.3405 l
0.5194 0.2853 l
0.5197 0.2511 l
0.5200 0.2412 l
0.5203 0.2567 l
0.5206 0.2960 l
0.5209 0.3553 l
0.5211 0.4287 l
0.5214 0.5092 l
0.5217 0.5887 l
0.5220 0.6596 l
0.5223 0.7149 l
0.5226 0.7491 l
0.5229 0.7590 l
0.5231 0.7435 l
0.5234 0.7042 l
0.5237 0.6449 l
0.5240 0.5715 l
0.5243 0.4910 l
0.5246 0.4115 l
0.5249 0.3406 l
0.5251 0.2853 l
0.5254 0.2511 l
0.5257 0.2412 l
0.5260 0.2567 l
0.5263 0.2960 l
0.5266 0.3552 l
0.5269 0.4287 l
0.5271 0.5091 l
0.5274 0.5886 l
0.5277 0.6595 l
0.5280 0.7147 l
0.5283 0.7489 l
0.5286 0.7588 l
0.5289 0.7433 l
0.5291 0.7040 l
0.5294 0.6447 l
0.5297 0.5713 l
0.5300 0.4908 l
0.5303 0.4113 l
0.5306 0.3404 l
0.5309 0.2852 l
0.5311 0.2509 l
0.5314 0.2411 l
0.5317 0.2565 l
0.5320 0.2958 l
0.5323 0.3551 l
0.5326 0.4285 l
0.5329 0.5090 l
0.5331 0.5885 l
0.5334 0.6594 l
0.5337 0.7147 l
0.5340 0.7489 l
0.5343 0.7588 l
0.5346 0.7433 l
0.5349 0.7040 l
0.5351 0.6448 l
0.5354 0.5713 l
0.5357 0.4909 l
0.5360 0.4114 l
0.5363 0.3405 l
0.5366 0.2853 l
0.5369 0.2510 l
0.5371 0.2412 l
0.5374 0.2567 l
0.5377 0.2960 l
0.5380 0.3552 l
0.5383 0.4287 l
0.5386 0.5091 l
0.5389 0.5887 l
0.5391 0.6596 l
0.5394 0.7148 l
0.5397 0.7491 l
0.5400 0.7589 l
0.5403 0.7435 l
0.5406 0.7042 l
0.5409 0.6449 l
0.5411 0.5714 l
0.5414 0.4910 l
0.5417 0.4115 l
0.5420 0.3406 l
0.5423 0.2853 l
0.5426 0.2511 l
0.5429 0.2412 l
0.5431 0.2567 l
0.5434 0.2960 l
0.5437 0.3552 l
0.5440 0.4287 l
0.5443 0.5091 l
0.5446 0.5886 l
0.5449 0.6595 l
0.5451 0.7148 l
0.5454 0.7490 l
0.5457 0.7588 l
0.5460 0.7434 l
0.5463 0.7041 l
0.5466 0.6448 l
0.5469 0.5713 l
0.5471 0.4909 l
0.5474 0.4113 l
0.5477 0.3405 l
0.5480 0.2852 l
0.5483 0.2510 l
0.5486 0.2411 l
0.5489 0.2566 l
0.5491 0.2959 l
0.5494 0.3551 l
0.5497 0.4286 l
0.5500 0.5090 l
0.5503 0.5885 l
0.5506 0.6594 l
0.5509 0.7147 l
0.5511 0.7489 l
0.5514 0.7588 l
0.5517 0.7433 l
0.5520 0.7040 l
0.5523 0.6448 l
0.5526 0.5713 l
0.5529 0.4909 l
0.5531 0.4114 l
0.5534 0.3405 l
0.5537 0.2852 l
0.5540 0.2510 l
0.5543 0.2412 l
0.5546 0.2566 l
0.5549 0.2959 l
0.5551 0.3552 l
0.5554 0.4287 l
0.5557 0.5091 l
0.5560 0.5887 l
0.5563 0.6595 l
0.5566 0.7148 l
0.5569 0.7490 l
0.5571 0.7589 l
0.5574 0.7434 l
0.5577 0.7041 l
0.5580 0.6449 l
0.5583 0.5714 l
0.5586 0.4910 l
0.5589 0.4114 l
0.5591 0.3406 l
0.5594 0.2853 l
0.5597 0.2511 l
0.5600 0.2412 l
0.5603 0.2567 l
0.5606 0.2960 l
0.5609 0.3552 l
0.5611 0.4287 l
0.5614 0.5091 l
0.5617 0.5887 l
0.5620 0.6595 l
0.5623 0.7148 l
0.5626 0.7490 l
0.5629 0.7589 l
0.5631 0.7434 l
0.5634 0.7041 l
0.5637 0.6448 l
0.5640 0.5713 l
0.5643 0.4909 l
0.5646 0.4114 l
0.5649 0.3405 l
0.5651 0.2852 l
0.5654 0.2510 l
0.5657 0.2411 l
0.5660 0.2566 l
0.5663 0.2959 l
0.5666 0.3551 l
0.5669 0.4286 l
0.5671 0.5090 l
0.5674 0.5886 l
0.5677 0.6594 l
0.5680 0.7147 l
0.5683 0.7489 l
0.5686 0.7588 l
0.5689 0.7433 l
0.5691 0.7040 l
0.5694 0.6448 l
0.5697 0.5713 l
0.5700 0.4909 l
0.5703 0.4113 l
0.5706 0.3405 l
0.5709 0.2852 l
0.5711 0.2510 l
0.5714 0.2411 l
0.5717 0.2566 l
0.5720 0.2959 l
0.5723 0.3552 l
0.5726 0.4286 l
0.5729 0.5091 l
0.5731 0.5886 l
0.5734 0.6595 l
0.5737 0.7148 l
0.5740 0.7490 l
0.5743 0.7589 l
0.5746 0.7434 l
0.5749 0.7041 l
0.5751 0.6448 l
0.5754 0.5714 l
0.5757 0.4910 l
0.5760 0.4114 l
0.5763 0.3406 l
0.5766 0.2853 l
0.5769 0.2511 l
0.5771 0.2412 l
0.5774 0.2567 l
0.5777 0.2960 l
0.5780 0.3552 l
0.5783 0.4287 l
0.5786 0.5091 l
0.5789 0.5887 l
0.5791 0.6595 l
0.5794 0.7148 l
0.5797 0.7490 l
0.5800 0.7589 l
0.5803 0.7434 l
0.5806 0.7041 l
0.5809 0.6448 l
0.5811 0.5714 l
0.5814 0.4909 l
0.5817 0.4114 l
0.5820 0.3405 l
0.5823 0.2852 l
0.5826 0.2510 l
0.5829 0.2411 l
0.5831 0.2566 l
0.5834 0.2959 l
0.5837 0.3552 l
0.5840 0.4286 l
0.5843 0.5090 l
0.5846 0.5886 l
0.5849 0.6594 l
0.5851 0.7147 l
0.5854 0.7489 l
0.5857 0.7588 l
0.5860 0.7433 l
0.5863 0.7040 l
0.5866 0.6448 l
0.5869 0.5713 l
0.5871 0.4909 l
0.5874 0.4113 l
0.5877 0.3405 l
0.5880 0.2852 l
0.5883 0.2510 l
0.5886 0.2411 l
0.5889 0.2566 l
0.5891 0.2959 l
0.5894 0.3552 l
0.5897 0.4286 l
0.5900 0.5091 l
0.5903 0.5886 l
0.5906 0.6595 l
0.5909 0.7147 l
0.5911 0.7490 l
0.5914 0.7589 l
0.5917 0.7434 l
0.5920 0.7041 l
0.5923 0.6448 l
0.5926 0.5714 l
0.5929 0.4910 l
0.5931 0.4114 l
0.5934 0.3405 l
0.5937 0.2853 l
0.5940 0.2511 l
0.5943 0.2412 l
0.5946 0.2567 l
0.5949 0.2960 l
0.5951 0.3552 l
0.5954 0.4287 l
0.5957 0.5091 l
0.5960 0.5887 l
0.5963 0.6595 l
0.5966 0.7148 l
0.5969 0.7490 l
0.5971 0.7589 l
0.5974 0.7434 l
0.5977 0.7041 l
0.5980 0.6448 l
0.5983 0.5714 l
0.5986 0.4909 l
0.5989 0.4114 l
0.5991 0.3405 l
0.5994 0.2853 l
0.5997 0.2510 l
0.6000 0.2412 l
0.6003 0.2566 l
0.6006 0.2959 l
0.6009 0.3552 l
0.6011 0.4286 l
0.6014 0.5091 l
0.6017 0.5886 l
0.6020 0.6595 l
0.6023 0.7147 l
0.6026 0.7490 l
0.6029 0.7588 l
0.6031 0.7433 l
0.6034 0.7040 l
0.6037 0.6448 l
0.6040 0.5713 l
0.6043 0.4909 l
0.6046 0.4114 l
0.6049 0.3405 l
0.6051 0.2852 l
0.6054 0.2510 l
0.6057 0.2411 l
0.6060 0.2566 l
0.6063 0.2959 l
0.6066 0.3552 l
0.6069 0.4286 l
0.6071 0.5091 l
0.6074 0.5886 l
0.6077 0.6595 l
0.6080 0.7147 l
0.6083 0.7490 l
0.6086 0.7588 l
0.6089 0.7434 l
0.6091 0.7041 l
0.6094 0.6448 l
0.6097 0.5714 l
0.6100 0.4909 l
0.6103 0.4114 l
0.6106 0.3405 l
0.6109 0.2853 l
0.6111 0.2510 l
0.6114 0.2412 l
0.6117 0.2567 l
0.6120 0.2960 l
0.6123 0.3552 l
0.6126 0.4287 l
0.6129 0.5091 l
0.6131 0.5886 l
0.6134 0.6595 l
0.6137 0.7148 l
0.6140 0.7490 l
0.6143 0.7589 l
0.6146 0.7434 l
0.6149 0.7041 l
0.6151 0.6448 l
0.6154 0.5714 l
0.6157 0.4909 l
0.6160 0.4114 l
0.6163 0.3405 l
0.6166 0.2853 l
0.6169 0.2510 l
0.6171 0.2412 l
0.6174 0.2566 l
0.6177 0.2959 l
0.6180 0.3552 l
0.6183 0.4286 l
0.6186 0.5091 l
0.6189 0.5886 l
0.6191 0.6595 l
0.6194 0.7147 l
0.6197 0.7490 l
0.6200 0.7588 l
0.6203 0.7434 l
0.6206 0.7041 l
0.6209 0.6448 l
0.6211 0.5713 l
0.6214 0.4909 l
0.6217 0.4114 l
0.6220 0.3405 l
0.6223 0.2852 l
0.6226 0.2510 l
0.6229 0.2411 l
0.6231 0.2566 l
0.6234 0.2959 l
0.6237 0.3552 l
0.6240 0.4286 l
0.6243 0.5091 l
0.6246 0.5886 l
0.6249 0.6595 l
0.6251 0.7147 l
0.6254 0.7490 l
0.6257 0.7588 l
0.6260 0.7434 l
0.6263 0.7041 l
0.6266 0.6448 l
0.6269 0.5714 l
0.6271 0.4909 l
0.6274 0.4114 l
0.6277 0.3405 l
0.6280 0.2853 l
0.6283 0.2510 l
0.6286 0.2412 l
0.6289 0.2566 l
0.6291 0.2959 l
0.6294 0.3552 l
0.6297 0.4287 l
0.6300 0.5091 l
0.6303 0.5886 l
0.6306 0.6595 l
0.6309 0.7148 l
0.6311 0.7490 l
0.6314 0.7589 l
0.6317 0.7434 l
0.6320 0.7041 l
0.6323 0.6448 l
0.6326 0.5714 l
0.6329 0.4909 l
0.6331 0.4114 l
0.6334 0.3405 l
0.6337 0.2853 l
0.6340 0.2510 l
0.6343 0.2412 l
0.6346 0.2566 l
0.6349 0.2959 l
0.6351 0.3552 l
0.6354 0.4286 l
0.6357 0.5091 l
0.6360 0.5886 l
0.6363 0.6595 l
0.6366 0.7147 l
0.6369 0.7490 l
0.6371 0.7588 l
0.6374 0.7434 l
0.6377 0.7041 l
0.6380 0.6448 l
0.6383 0.5713 l
0.6386 0.4909 l
0.6389 0.4114 l
0.6391 0.3405 l
0.6394 0.2852 l
0.6397 0.2510 l
0.6400 0.2411 l
0.6403 0.2566 l
0.6406 0.2959 l
0.6409 0.3552 l
0.6411 0.4286 l
0.6414 0.5091 l
0.6417 0.5886 l
0.6420 0.6595 l
0.6423 0.7147 l
0.6426 0.7490 l
0.6429 0.7588 l
0.6431 0.7434 l
0.6434 0.7041 l
0.6437 0.6448 l
0.6440 0.5714 l
0.6443 0.4909 l
0.6446 0.4114 l
0.6449 0.3405 l
0.6451 0.2853 l
0.6454 0.2510 l
0.6457 0.2412 l
0.6460 0.2566 l
0.6463 0.2959 l
0.6466 0.3552 l
0.6469 0.4287 l
0.6471 0.5091 l
0.6474 0.5886 l
0.6477 0.6595 l
0.6480 0.7148 l
0.6483 0.7490 l
0.6486 0.7589 l
0.6489 0.7434 l
0.6491 0.7041 l
0.6494 0.6448 l
0.6497 0.5714 l
0.6500 0.4909 l
0.6503 0.4114 l
0.6506 0.3405 l
0.6509 0.2853 l
0.6511 0.2510 l
0.6514 0.2412 l
0.6517 0.2566 l
0.6520 0.2959 l
0.6523 0.3552 l
0.6526 0.4286 l
0.6529 0.5091 l
0.6531 0.5886 l
0.6534 0.6595 l
0.6537 0.7147 l
0.6540 0.7490 l
0.6543 0.7588 l
0.6546 0.7434 l
0.6549 0.7041 l
0.6551 0.6448 l
0.6554 0.5713 l
0.6557 0.4909 l
0.6560 0.4114 l
0.6563 0.3405 l
0.6566 0.2852 l
0.6569 0.2510 l
0.6571 0.2411 l
0.6574 0.2566 l
0.6577 0.2959 l
0.6580 0.3552 l
0.6583 0.4286 l
0.6586 0.5091 l
0.6589 0.5886 l
0.6591 0.6595 l
0.6594 0.7147 l
0.6597 0.7490 l
0.6600 0.7588 l
0.6603 0.7434 l
0.6606 0.7041 l
0.6609 0.6448 l
0.6611 0.5714 l
0.6614 0.4909 l
0.6617 0.4114 l
0.6620 0.3405 l
0.6623 0.2853 l
0.6626 0.2510 l
0.6629 0.2412 l
0.6631 0.2566 l
0.6634 0.2959 l
0.6637 0.3552 l
0.6640 0.4287 l
0.6643 0.5091 l
0.6646 0.5886 l
0.6649 0.6595 l
0.6651 0.7148 l
0.6654 0.7490 l
0.6657 0.7589 l
0.6660 0.7434 l
0.6663 0.7041 l
0.6666 0.6448 l
0.6669 0.5714 l
0.6671 0.4909 l
0.6674 0.4114 l
0.6677 0.3405 l
0.6680 0.2853 l
0.6683 0.2510 l
0.6686 0.2412 l
0.6689 0.2566 l
0.6691 0.2959 l
0.6694 0.3552 l
0.6697 0.4286 l
0.6700 0.5091 l
0.6703 0.5886 l
0.6706 0.6595 l
0.6709 0.7147 l
0.6711 0.7490 l
0.6714 0.7588 l
0.6717 0.7434 l
0.6720 0.7041 l
0.6723 0.6448 l
0.6726 0.5714 l
0.6729 0.4909 l
0.6731 0.4114 l
0.6734 0.3405 l
0.6737 0.2853 l
0.6740 0.2510 l
0.6743 0.2411 l
0.6746 0.2566 l
0.6749 0.2959 l
0.6751 0.3552 l
0.6754 0.4286 l
0.6757 0.5091 l
0.6760 0.5886 l
0.6763 0.6595 l
0.6766 0.7147 l
0.6769 0.7490 l
0.6771 0.7588 l
0.6774 0.7434 l
0.6777 0.7041 l
0.6780 0.6448 l
0.6783 0.5713 l
0.6786 0.4909 l
0.6789 0.4114 l
0.6791 0.3405 l
0.6794 0.2853 l
0.6797 0.2510 l
0.6800 0.2412 l
0.6803 0.2566 l
0.6806 0.2959 l
0.6809 0.3552 l
0.6811 0.4286 l
0.6814 0.5091 l
0.6817 0.5886 l
0.6820 0.6595 l
0.6823 0.7147 l
0.6826 0.7490 l
0.6829 0.7588 l
0.6831 0.7434 l
0.6834 0.7041 l
0.6837 0.6448 l
0.6840 0.5714 l
0.6843 0.4909 l
0.6846 0.4114 l
0.6849 0.3405 l
0.6851 0.2853 l
0.6854 0.2510 l
0.6857 0.2412 l
0.6860 0.2566 l
0.6863 0.2959 l
0.6866 0.3552 l
0.6869 0.4287 l
0.6871 0.5091 l
0.6874 0.5886 l
0.6877 0.6595 l
0.6880 0.7147 l
0.6883 0.7490 l
0.6886 0.7588 l
0.6889 0.7434 l
0.6891 0.7041 l
0.6894 0.6448 l
0.6897 0.5714 l
0.6900 0.4909 l
0.6903 0.4114 l
0.6906 0.3405 l
0.6909 0.2853 l
0.6911 0.2510 l
0.6914 0.2412 l
0.6917 0.2566 l
0.6920 0.2959 l
0.6923 0.3552 l
0.6926 0.4286 l
0.6929 0.5091 l
0.6931 0.5886 l
0.6934 0.6595 l
0.6937 0.7147 l
0.6940 0.7490 l
0.6943 0.7588 l
0.6946 0.7434 l
0.6949 0.7041 l
0.6951 0.6448 l
0.6954 0.5714 l
0.6957 0.4909 l
0.6960 0.4114 l
0.6963 0.3405 l
0.6966 0.2853 l
0.6969 0.2510 l
0.6971 0.2412 l
0.6974 0.2566 l
0.6977 0.2959 l
0.6980 0.3552 l
0.6983 0.4286 l
0.6986 0.5091 l
0.6989 0.5886 l
0.6991 0.6595 l
0.6994 0.7147 l
0.6997 0.7490 l
0.7000 0.7588 l
0.7003 0.7434 l
0.7006 0.7041 l
0.7009 0.6448 l
0.7011 0.5714 l
0.7014 0.4909 l
0.7017 0.4114 l
0.7020 0.3405 l
0.7023 0.2853 l
0.7026 0.2510 l
0.7029 0.2412 l
0.7031 0.2566 l
0.7034 0.2959 l
0.7037 0.3552 l
0.7040 0.4286 l
0.7043 0.5091 l
0.7046 0.5886 l
0.7049 0.6595 l
0.7051 0.7147 l
0.7054 0.7490 l
0.7057 0.7588 l
0.7060 0.7434 l
0.7063 0.7041 l
0.7066 0.6448 l
0.7069 0.5714 l
0.7071 0.4909 l
0.7074 0.4114 l
0.7077 0.3405 l
0.7080 0.2853 l
0.7083 0.2510 l
0.7086 0.2412 l
0.7089 0.2566 l
0.7091 0.2959 l
0.7094 0.3552 l
0.7097 0.4286 l
0.7100 0.5091 l
0.7103 0.5886 l
0.7106 0.6595 l
0.7109 0.7147 l
0.7111 0.7490 l
0.7114 0.7588 l
0.7117 0.7434 l
0.7120 0.7041 l
0.7123 0.6448 l
0.7126 0.5714 l
0.7129 0.4909 l
0.7131 0.4114 l
0.7134 0.3405 l
0.7137 0.2853 l
0.7140 0.2510 l
0.7143 0.2412 l
0.7146 0.2566 l
0.7149 0.2959 l
0.7151 0.3552 l
0.7154 0.4286 l
0.7157 0.5091 l
0.7160 0.5886 l
0.7163 0.6595 l
0.7166 0.7147 l
0.7169 0.7490 l
0.7171 0.7588 l
0.7174 0.7434 l
0.7177 0.7041 l
0.7180 0.6448 l
0.7183 0.5714 l
0.7186 0.4909 l
0.7189 0.4114 l
0.7191 0.3405 l
0.7194 0.2853 l
0.7197 0.2510 l
0.7200 0.2412 l
0.7203 0.2566 l
0.7206 0.2959 l
0.7209 0.3552 l
0.7211 0.4286 l
0.7214 0.5091 l
0.7217 0.5886 l
0.7220 0.6595 l
0.7223 0.7147 l
0.7226 0.7490 l
0.7229 0.7588 l
0.7231 0.7434 l
0.7234 0.7041 l
0.7237 0.6448 l
0.7240 0.5714 l
0.7243 0.4909 l
0.7246 0.4114 l
0.7249 0.3405 l
0.7251 0.2853 l
0.7254 0.2510 l
0.7257 0.2412 l
0.7260 0.2566 l
0.7263 0.2959 l
0.7266 0.3552 l
0.7269 0.4286 l
0.7271 0.5091 l
0.7274 0.5886 l
0.7277 0.6595 l
0.7280 0.7147 l
0.7283 0.7490 l
0.7286 0.7588 l
0.7289 0.7434 l
0.7291 0.7041 l
0.7294 0.6448 l
0.7297 0.5714 l
0.7300 0.4909 l
0.7303 0.4114 l
0.7306 0.3405 l
0.7309 0.2853 l
0.7311 0.2510 l
0.7314 0.2412 l
0.7317 0.2566 l
0.7320 0.2959 l
0.7323 0.3552 l
0.7326 0.4286 l
0.7329 0.5091 l
0.7331 0.5886 l
0.7334 0.6595 l
0.7337 0.7147 l
0.7340 0.7490 l
0.7343 0.7588 l
0.7346 0.7434 l
0.7349 0.7041 l
0.7351 0.6448 l
0.7354 0.5714 l
0.7357 0.4909 l
0.7360 0.4114 l
0.7363 0.3405 l
0.7366 0.2853 l
0.7369 0.2510 l
0.7371 0.2412 l
0.7374 0.2566 l
0.7377 0.2959 l
0.7380 0.3552 l
0.7383 0.4286 l
0.7386 0.5091 l
0.7389 0.5886 l
0.7391 0.6595 l
0.7394 0.7147 l
0.7397 0.7490 l
0.7400 0.7588 l
0.7403 0.7434 l
0.7406 0.7041 l
0.7409 0.6448 l
0.7411 0.5714 l
0.7414 0.4909 l
0.7417 0.4114 l
0.7420 0.3405 l
0.7423 0.2853 l
0.7426 0.2510 l
0.7429 0.2412 l
0.7431 0.2566 l
0.7434 0.2959 l
0.7437 0.3552 l
0.7440 0.4286 l
0.7443 0.5091 l
0.7446 0.5886 l
0.7449 0.6595 l
0.7451 0.7147 l
0.7454 0.7490 l
0.7457 0.7588 l
0.7460 0.7434 l
0.7463 0.7041 l
0.7466 0.6448 l
0.7469 0.5714 l
0.7471 0.4909 l
0.7474 0.4114 l
0.7477 0.3405 l
0.7480 0.2853 l
0.7483 0.2510 l
0.7486 0.2412 l
0.7489 0.2566 l
0.7491 0.2959 l
0.7494 0.3552 l
0.7497 0.4286 l
0.7500 0.5091 l
0.7503 0.5886 l
0.7506 0.6595 l
0.7509 0.7147 l
0.7511 0.7490 l
0.7514 0.7588 l
0.7517 0.7434 l
0.7520 0.7041 l
0.7523 0.6448 l
0.7526 0.5714 l
0.7529 0.4909 l
0.7531 0.4114 l
0.7534 0.3405 l
0.7537 0.2853 l
0.7540 0.2510 l
0.7543 0.2412 l
0.7546 0.2566 l
0.7549 0.2959 l
0.7551 0.3552 l
0.7554 0.4286 l
0.7557 0.5091 l
0.7560 0.5886 l
0.7563 0.6595 l
0.7566 0.7147 l
0.7569 0.7490 l
0.7571 0.7588 l
0.7574 0.7434 l
0.7577 0.7041 l
0.7580 0.6448 l
0.7583 0.5714 l
0.7586 0.4909 l
0.7589 0.4114 l
0.7591 0.3405 l
0.7594 0.2853 l
0.7597 0.2510 l
0.7600 0.2412 l
0.7603 0.2566 l
0.7606 0.2959 l
0.7609 0.3552 l
0.7611 0.4286 l
0.7614 0.5091 l
0.7617 0.5886 l
0.7620 0.6595 l
0.7623 0.7147 l
0.7626 0.7490 l
0.7629 0.7588 l
0.7631 0.7434 l
0.7634 0.7041 l
0.7637 0.6448 l
0.7640 0.5714 l
0.7643 0.4909 l
0.7646 0.4114 l
0.7649 0.3405 l
0.7651 0.2853 l
0.7654 0.2510 l
0.7657 0.2412 l
0.7660 0.2566 l
0.7663 0.2959 l
0.7666 0.3552 l
0.7669 0.4286 l
0.7671 0.5091 l
0.7674 0.5886 l
0.7677 0.6595 l
0.7680 0.7147 l
0.7683 0.7490 l
0.7686 0.7588 l
0.7689 0.7434 l
0.7691 0.7041 l
0.7694 0.6448 l
0.7697 0.5714 l
0.7700 0.4909 l
0.7703 0.4114 l
0.7706 0.3405 l
0.7709 0.2853 l
0.7711 0.2510 l
0.7714 0.2412 l
0.7717 0.2566 l
0.7720 0.2959 l
0.7723 0.3552 l
0.7726 0.4286 l
0.7729 0.5091 l
0.7731 0.5886 l
0.7734 0.6595 l
0.7737 0.7147 l
0.7740 0.7490 l
0.7743 0.7588 l
0.7746 0.7434 l
0.7749 0.7041 l
0.7751 0.6448 l
0.7754 0.5714 l
0.7757 0.4909 l
0.7760 0.4114 l
0.7763 0.3405 l
0.7766 0.2853 l
0.7769 0.2510 l
0.7771 0.2412 l
0.7774 0.2566 l
0.7777 0.2959 l
0.7780 0.3552 l
0.7783 0.4286 l
0.7786 0.5091 l
0.7789 0.5886 l
0.7791 0.6595 l
0.7794 0.7147 l
0.7797 0.7490 l
0.7800 0.7588 l
0.7803 0.7434 l
0.7806 0.7041 l
0.7809 0.6448 l
0.7811 0.5714 l
0.7814 0.4909 l
0.7817 0.4114 l
0.7820 0.3405 l
0.7823 0.2853 l
0.7826 0.2510 l
0.7829 0.2412 l
0.7831 0.2566 l
0.7834 0.2959 l
0.7837 0.3552 l
0.7840 0.4286 l
0.7843 0.5091 l
0.7846 0.5886 l
0.7849 0.6595 l
0.7851 0.7147 l
0.7854 0.7490 l
0.7857 0.7588 l
0.7860 0.7434 l
0.7863 0.7041 l
0.7866 0.6448 l
0.7869 0.5714 l
0.7871 0.4909 l
0.7874 0.4114 l
0.7877 0.3405 l
0.7880 0.2853 l
0.7883 0.2510 l
0.7886 0.2412 l
0.7889 0.2566 l
0.7891 0.2959 l
0.7894 0.3552 l
0.7897 0.4286 l
0.7900 0.5091 l
0.7903 0.5886 l
0.7906 0.6595 l
0.7909 0.7147 l
0.7911 0.7490 l
0.7914 0.7588 l
0.7917 0.7434 l
0.7920 0.7041 l
0.7923 0.6448 l
0.7926 0.5714 l
0.7929 0.4909 l
0.7931 0.4114 l
0.7934 0.3405 l
0.7937 0.2853 l
0.7940 0.2510 l
0.7943 0.2412 l
0.7946 0.2566 l
0.7949 0.2959 l
0.7951 0.3552 l
0.7954 0.4286 l
0.7957 0.5091 l
0.7960 0.5886 l
0.7963 0.6595 l
0.7966 0.7147 l
0.7969 0.7490 l
0.7971 0.7588 l
0.7974 0.7434 l
0.7977 0.7041 l
0.7980 0.6448 l
0.7983 0.5714 l
0.7986 0.4909 l
0.7989 0.4114 l
0.7991 0.3405 l
0.7994 0.2853 l
0.7997 0.2510 l
0.8000 0.2412 l
0.8003 0.2566 l
0.8006 0.2959 l
0.8009 0.3552 l
0.8011 0.4286 l
0.8014 0.5091 l
0.8017 0.5886 l
0.8020 0.6595 l
0.8023 0.7147 l
0.8026 0.7490 l
0.8029 0.7588 l
0.8031 0.7434 l
0.8034 0.7041 l
0.8037 0.6448 l
0.8040 0.5714 l
0.8043 0.4909 l
0.8046 0.4114 l
0.8049 0.3405 l
0.8051 0.2853 l
0.8054 0.2510 l
0.8057 0.2412 l
0.8060 0.2566 l
0.8063 0.2959 l
0.8066 0.3552 l
0.8069 0.4286 l
0.8071 0.5091 l
0.8074 0.5886 l
0.8077 0.6595 l
0.8080 0.7147 l
0.8083 0.7490 l
0.8086 0.7588 l
0.8089 0.7434 l
0.8091 0.7041 l
0.8094 0.6448 l
0.8097 0.5714 l
0.8100 0.4909 l
0.8103 0.4114 l
0.8106 0.3405 l
0.8109 0.2853 l
0.8111 0.2510 l
0.8114 0.2412 l
0.8117 0.2566 l
0.8120 0.2959 l
0.8123 0.3552 l
0.8126 0.4286 l
0.8129 0.5091 l
0.8131 0.5886 l
0.8134 0.6595 l
0.8137 0.7147 l
0.8140 0.7490 l
0.8143 0.7588 l
0.8146 0.7434 l
0.8149 0.7041 l
0.8151 0.6448 l
0.8154 0.5714 l
0.8157 0.4909 l
0.8160 0.4114 l
0.8163 0.3405 l
0.8166 0.2853 l
0.8169 0.2510 l
0.8171 0.2412 l
0.8174 0.2566 l
0.8177 0.2959 l
0.8180 0.3552 l
0.8183 0.4286 l
0.8186 0.5091 l
0.8189 0.5886 l
0.8191 0.6595 l
0.8194 0.7147 l
0.8197 0.7490 l
0.8200 0.7588 l
0.8203 0.7434 l
0.8206 0.7041 l
0.8209 0.6448 l
0.8211 0.5714 l
0.8214 0.4909 l
0.8217 0.4114 l
0.8220 0.3405 l
0.8223 0.2853 l
0.8226 0.2510 l
0.8229 0.2412 l
0.8231 0.2566 l
0.8234 0.2959 l
0.8237 0.3552 l
0.8240 0.4286 l
0.8243 0.5091 l
0.8246 0.5886 l
0.8249 0.6595 l
0.8251 0.7147 l
0.8254 0.7490 l
0.8257 0.7588 l
0.8260 0.7434 l
0.8263 0.7041 l
0.8266 0.6448 l
0.8269 0.5714 l
0.8271 0.4909 l
0.8274 0.4114 l
0.8277 0.3405 l
0.8280 0.2853 l
0.8283 0.2510 l
0.8286 0.2412 l
0.8289 0.2566 l
0.8291 0.2959 l
0.8294 0.3552 l
0.8297 0.4286 l
0.8300 0.5091 l
0.8303 0.5886 l
0.8306 0.6595 l
0.8309 0.7147 l
0.8311 0.7490 l
0.8314 0.7588 l
0.8317 0.7434 l
0.8320 0.7041 l
0.8323 0.6448 l
0.8326 0.5714 l
0.8329 0.4909 l
0.8331 0.4114 l
0.8334 0.3405 l
0.8337 0.2853 l
0.8340 0.2510 l
0.8343 0.2412 l
0.8346 0.2566 l
0.8349 0.2959 l
0.8351 0.3552 l
0.8354 0.4286 l
0.8357 0.5091 l
0.8360 0.5886 l
0.8363 0.6595 l
0.8366 0.7147 l
0.8369 0.7490 l
0.8371 0.7588 l
0.8374 0.7434 l
0.8377 0.7041 l
0.8380 0.6448 l
0.8383 0.5714 l
0.8386 0.4909 l
0.8389 0.4114 l
0.8391 0.3405 l
0.8394 0.2853 l
0.8397 0.2510 l
0.8400 0.2412 l
0.8403 0.2566 l
0.8406 0.2959 l
0.8409 0.3552 l
0.8411 0.4286 l
0.8414 0.5091 l
0.8417 0.5886 l
0.8420 0.6595 l
0.8423 0.7147 l
0.8426 0.7490 l
0.8429 0.7588 l
0.8431 0.7434 l
0.8434 0.7041 l
0.8437 0.6448 l
0.8440 0.5714 l
0.8443 0.4909 l
0.8446 0.4114 l
0.8449 0.3405 l
0.8451 0.2853 l
0.8454 0.2510 l
0.8457 0.2412 l
0.8460 0.2566 l
0.8463 0.2959 l
0.8466 0.3552 l
0.8469 0.4286 l
0.8471 0.5091 l
0.8474 0.5886 l
0.8477 0.6595 l
0.8480 0.7147 l
0.8483 0.7490 l
0.8486 0.7588 l
0.8489 0.7434 l
0.8491 0.7041 l
0.8494 0.6448 l
0.8497 0.5714 l
0.8500 0.4909 l
0.8503 0.4114 l
0.8506 0.3405 l
0.8509 0.2853 l
0.8511 0.2510 l
0.8514 0.2412 l
0.8517 0.2566 l
0.8520 0.2959 l
0.8523 0.3552 l
0.8526 0.4286 l
0.8529 0.5091 l
0.8531 0.5886 l
0.8534 0.6595 l
0.8537 0.7147 l
0.8540 0.7490 l
0.8543 0.7588 l
0.8546 0.7434 l
0.8549 0.7041 l
0.8551 0.6448 l
0.8554 0.5714 l
0.8557 0.4909 l
0.8560 0.4114 l
0.8563 0.3405 l
0.8566 0.2853 l
0.8569 0.2510 l
0.8571 0.2412 l
0.8574 0.2566 l
0.8577 0.2959 l
0.8580 0.3552 l
0.8583 0.4286 l
0.8586 0.5091 l
0.8589 0.5886 l
0.8591 0.6595 l
0.8594 0.7147 l
0.8597 0.7490 l
0.8600 0.7588 l
0.8603 0.7434 l
0.8606 0.7041 l
0.8609 0.6448 l
0.8611 0.5714 l
0.8614 0.4909 l
0.8617 0.4114 l
0.8620 0.3405 l
0.8623 0.2853 l
0.8626 0.2510 l
0.8629 0.2412 l
0.8631 0.2566 l
0.8634 0.2959 l
0.8637 0.3552 l
0.8640 0.4286 l
0.8643 0.5091 l
0.8646 0.5886 l
0.8649 0.6595 l
0.8651 0.7147 l
0.8654 0.7490 l
0.8657 0.7588 l
0.8660 0.7434 l
0.8663 0.7041 l
0.8666 0.6448 l
0.8669 0.5714 l
0.8671 0.4909 l
0.8674 0.4114 l
0.8677 0.3405 l
0.8680 0.2853 l
0.8683 0.2510 l
0.8686 0.2412 l
0.8689 0.2566 l
0.8691 0.2959 l
0.8694 0.3552 l
0.8697 0.4286 l
0.8700 0.5091 l
0.8703 0.5886 l
0.8706 0.6595 l
0.8709 0.7147 l
0.8711 0.7490 l
0.8714 0.7588 l
0.8717 0.7434 l
0.8720 0.7041 l
0.8723 0.6448 l
0.8726 0.5714 l
0.8729 0.4909 l
0.8731 0.4114 l
0.8734 0.3405 l
0.8737 0.2853 l
0.8740 0.2510 l
0.8743 0.2412 l
0.8746 0.2566 l
0.8749 0.2959 l
0.8751 0.3552 l
0.8754 0.4286 l
0.8757 0.5091 l
0.8760 0.5886 l
0.8763 0.6595 l
0.8766 0.7147 l
0.8769 0.7490 l
0.8771 0.7588 l
0.8774 0.7434 l
0.8777 0.7041 l
0.8780 0.6448 l
0.8783 0.5714 l
0.8786 0.4909 l
0.8789 0.4114 l
0.8791 0.3405 l
0.8794 0.2853 l
0.8797 0.2510 l
0.8800 0.2412 l
0.8803 0.2566 l
0.8806 0.2959 l
0.8809 0.3552 l
0.8811 0.4286 l
0.8814 0.5091 l
0.8817 0.5886 l
0.8820 0.6595 l
0.8823 0.7147 l
0.8826 0.7490 l
0.8829 0.7588 l
0.8831 0.7434 l
0.8834 0.7041 l
0.8837 0.6448 l
0.8840 0.5714 l
0.8843 0.4909 l
0.8846 0.4114 l
0.8849 0.3405 l
0.8851 0.2853 l
0.8854 0.2510 l
0.8857 0.2412 l
0.8860 0.2566 l
0.8863 0.2959 l
0.8866 0.3552 l
0.8869 0.4286 l
0.8871 0.5091 l
0.8874 0.5886 l
0.8877 0.6595 l
0.8880 0.7147 l
0.8883 0.7490 l
0.8886 0.7588 l
0.8889 0.7434 l
0.8891 0.7041 l
0.8894 0.6448 l
0.8897 0.5714 l
0.8900 0.4909 l
0.8903 0.4114 l
0.8906 0.3405 l
0.8909 0.2853 l
0.8911 0.2510 l
0.8914 0.2412 l
0.8917 0.2566 l
0.8920 0.2959 l
0.8923 0.3552 l
0.8926 0.4286 l
0.8929 0.5091 l
0.8931 0.5886 l
0.8934 0.6595 l
0.8937 0.7147 l
0.8940 0.7490 l
0.8943 0.7588 l
0.8946 0.7434 l
0.8949 0.7041 l
0.8951 0.6448 l
0.8954 0.5714 l
0.8957 0.4909 l
0.8960 0.4114 l
0.8963 0.3405 l
0.8966 0.2853 l
0.8969 0.2510 l
0.8971 0.2412 l
0.8974 0.2566 l
0.8977 0.2959 l
0.8980 0.3552 l
0.8983 0.4286 l
0.8986 0.5091 l
0.8989 0.5886 l
0.8991 0.6595 l
0.8994 0.7147 l
0.8997 0.7490 l
0.9000 0.7588 l
0.9003 0.7434 l
0.9006 0.7041 l
0.9009 0.6448 l
0.9011 0.5714 l
0.9014 0.4909 l
0.9017 0.4114 l
0.9020 0.3405 l
0.9023 0.2853 l
0.9026 0.2510 l
0.9029 0.2412 l
0.9031 0.2566 l
0.9034 0.2959 l
0.9037 0.3552 l
0.9040 0.4286 l
0.9043 0.5091 l
0.9046 0.5886 l
0.9049 0.6595 l
0.9051 0.7147 l
0.9054 0.7490 l
0.9057 0.7588 l
0.9060 0.7434 l
0.9063 0.7041 l
0.9066 0.6448 l
0.9069 0.5714 l
0.9071 0.4909 l
0.9074 0.4114 l
0.9077 0.3405 l
0.9080 0.2853 l
0.9083 0.2510 l
0.9086 0.2412 l
0.9089 0.2566 l
0.9091 0.2959 l
0.9094 0.3552 l
0.9097 0.4286 l
0.9100 0.5091 l
0.9103 0.5886 l
0.9106 0.6595 l
0.9109 0.7147 l
0.9111 0.7490 l
0.9114 0.7588 l
0.9117 0.7434 l
0.9120 0.7041 l
0.9123 0.6448 l
0.9126 0.5714 l
0.9129 0.4909 l
0.9131 0.4114 l
0.9134 0.3405 l
0.9137 0.2853 l
0.9140 0.2510 l
0.9143 0.2412 l
0.9146 0.2566 l
0.9149 0.2959 l
0.9151 0.3552 l
0.9154 0.4286 l
0.9157 0.5091 l
0.9160 0.5886 l
0.9163 0.6595 l
0.9166 0.7147 l
0.9169 0.7490 l
0.9171 0.7588 l
0.9174 0.7434 l
0.9177 0.7041 l
0.9180 0.6448 l
0.9183 0.5714 l
0.9186 0.4909 l
0.9189 0.4114 l
0.9191 0.3405 l
0.9194 0.2853 l
0.9197 0.2510 l
0.9200 0.2412 l
0.9203 0.2566 l
0.9206 0.2959 l
0.9209 0.3552 l
0.9211 0.4286 l
0.9214 0.5091 l
0.9217 0.5886 l
0.9220 0.6595 l
0.9223 0.7147 l
0.9226 0.7490 l
0.9229 0.7588 l
0.9231 0.7434 l
0.9234 0.7041 l
0.9237 0.6448 l
0.9240 0.5714 l
0.9243 0.4909 l
0.9246 0.4114 l
0.9249 0.3405 l
0.9251 0.2853 l
0.9254 0.2510 l
0.9257 0.2412 l
0.9260 0.2566 l
0.9263 0.2959 l
0.9266 0.3552 l
0.9269 0.4286 l
0.9271 0.5091 l
0.9274 0.5886 l
0.9277 0.6595 l
0.9280 0.7147 l
0.9283 0.7490 l
0.9286 0.7588 l
0.9289 0.7434 l
0.9291 0.7041 l
0.9294 0.6448 l
0.9297 0.5714 l
0.9300 0.4909 l
0.9303 0.4114 l
0.9306 0.3405 l
0.9309 0.2853 l
0.9311 0.2510 l
0.9314 0.2412 l
0.9317 0.2566 l
0.9320 0.2959 l
0.9323 0.3552 l
0.9326 0.4286 l
0.9329 0.5091 l
0.9331 0.5886 l
0.9334 0.6595 l
0.9337 0.7147 l
0.9340 0.7490 l
0.9343 0.7588 l
0.9346 0.7434 l
0.9349 0.7041 l
0.9351 0.6448 l
0.9354 0.5714 l
0.9357 0.4909 l
0.9360 0.4114 l
0.9363 0.3405 l
0.9366 0.2853 l
0.9369 0.2510 l
0.9371 0.2412 l
0.9374 0.2566 l
0.9377 0.2959 l
0.9380 0.3552 l
0.9383 0.4286 l
0.9386 0.5091 l
0.9389 0.5886 l
0.9391 0.6595 l
0.9394 0.7147 l
0.9397 0.7490 l
0.9400 0.7588 l
0.9403 0.7434 l
0.9406 0.7041 l
0.9409 0.6448 l
0.9411 0.5714 l
0.9414 0.4909 l
0.9417 0.4114 l
0.9420 0.3405 l
0.9423 0.2853 l
0.9426 0.2510 l
0.9429 0.2412 l
0.9431 0.2566 l
0.9434 0.2959 l
0.9437 0.3552 l
0.9440 0.4286 l
0.9443 0.5091 l
0.9446 0.5886 l
0.9449 0.6595 l
0.9451 0.7147 l
0.9454 0.7490 l
0.9457 0.7588 l
0.9460 0.7434 l
0.9463 0.7041 l
0.9466 0.6448 l
0.9469 0.5714 l
0.9471 0.4909 l
0.9474 0.4114 l
0.9477 0.3405 l
0.9480 0.2853 l
0.9483 0.2510 l
0.9486 0.2412 l
0.9489 0.2566 l
0.9491 0.2959 l
0.9494 0.3552 l
0.9497 0.4286 l
0.9500 0.5091 l
0.9503 0.5886 l
0.9506 0.6595 l
0.9509 0.7147 l
0.9511 0.7490 l
0.9514 0.7588 l
0.9517 0.7434 l
0.9520 0.7041 l
0.9523 0.6448 l
0.9526 0.5714 l
0.9529 0.4909 l
0.9531 0.4114 l
0.9534 0.3405 l
0.9537 0.2853 l
0.9540 0.2510 l
0.9543 0.2412 l
0.9546 0.2566 l
0.9549 0.2959 l
0.9551 0.3552 l
0.9554 0.4286 l
0.9557 0.5091 l
0.9560 0.5886 l
0.9563 0.6595 l
0.9566 0.7147 l
0.9569 0.7490 l
0.9571 0.7588 l
0.9574 0.7434 l
0.9577 0.7041 l
0.9580 0.6448 l
0.9583 0.5714 l
0.9586 0.4909 l
0.9589 0.4114 l
0.9591 0.3405 l
0.9594 0.2853 l
0.9597 0.2510 l
0.9600 0.2412 l
0.9603 0.2566 l
0.9606 0.2959 l
0.9609 0.3552 l
0.9611 0.4286 l
0.9614 0.5091 l
0.9617 0.5886 l
0.9620 0.6595 l
0.9623 0.7147 l
0.9626 0.7490 l
0.9629 0.7588 l
0.9631 0.7434 l
0.9634 0.7041 l
0.9637 0.6448 l
0.9640 0.5714 l
0.9643 0.4909 l
0.9646 0.4114 l
0.9649 0.3405 l
0.9651 0.2853 l
0.9654 0.2510 l
0.9657 0.2412 l
0.9660 0.2566 l
0.9663 0.2959 l
0.9666 0.3552 l
0.9669 0.4286 l
0.9671 0.5091 l
0.9674 0.5886 l
0.9677 0.6595 l
0.9680 0.7147 l
0.9683 0.7490 l
0.9686 0.7588 l
0.9689 0.7434 l
0.9691 0.7041 l
0.9694 0.6448 l
0.9697 0.5714 l
0.9700 0.4909 l
0.9703 0.4114 l
0.9706 0.3405 l
0.9709 0.2853 l
0.9711 0.2510 l
0.9714 0.2412 l
0.9717 0.2566 l
0.9720 0.2959 l
0.9723 0.3552 l
0.9726 0.4286 l
0.9729 0.5091 l
0.9731 0.5886 l
0.9734 0.6595 l
0.9737 0.7147 l
0.9740 0.7490 l
0.9743 0.7588 l
0.9746 0.7434 l
0.9749 0.7041 l
0.9751 0.6448 l
0.9754 0.5714 l
0.9757 0.4909 l
0.9760 0.4114 l
0.9763 0.3405 l
0.9766 0.2853 l
0.9769 0.2510 l
0.9771 0.2412 l
0.9774 0.2566 l
0.9777 0.2959 l
0.9780 0.3552 l
0.9783 0.4286 l
0.9786 0.5091 l
0.9789 0.5886 l
0.9791 0.6595 l
0.9794 0.7147 l
0.9797 0.7490 l
0.9800 0.7588 l
0.9803 0.7434 l
0.9806 0.7041 l
0.9809 0.6448 l
0.9811 0.5714 l
0.9814 0.4909 l
0.9817 0.4114 l
0.9820 0.3405 l
0.9823 0.2853 l
0.9826 0.2510 l
0.9829 0.2412 l
0.9831 0.2566 l
0.9834 0.2959 l
0.9837 0.3552 l
0.9840 0.4286 l
0.9843 0.5091 l
0.9846 0.5886 l
0.9849 0.6595 l
0.9851 0.7147 l
0.9854 0.7490 l
0.9857 0.7588 l
0.9860 0.7434 l
0.9863 0.7041 l
0.9866 0.6448 l
0.9869 0.5714 l
0.9871 0.4909 l
0.9874 0.4114 l
0.9877 0.3405 l
0.9880 0.2853 l
0.9883 0.2510 l
0.9886 0.2412 l
0.9889 0.2566 l
0.9891 0.2959 l
0.9894 0.3552 l
0.9897 0.4286 l
0.9900 0.5091 l
0.9903 0.5886 l
0.9906 0.6595 l
0.9909 0.7147 l
0.9911 0.7490 l
0.9914 0.7588 l
0.9917 0.7434 l
0.9920 0.7041 l
0.9923 0.6448 l
0.9926 0.5714 l
0.9929 0.4909 l
0.9931 0.4114 l
0.9934 0.3405 l
0.9937 0.2853 l
0.9940 0.2510 l
0.9943 0.2412 l
0.9946 0.2566 l
0.9949 0.2959 l
0.9951 0.3552 l
0.9954 0.4286 l
0.9957 0.5091 l
0.9960 0.5886 l
0.9963 0.6595 l
0.9966 0.7147 l
0.9969 0.7490 l
0.9971 0.7588 l
0.9974 0.7434 l
0.9977 0.7041 l
0.9980 0.6448 l
0.9983 0.5714 l
0.9986 0.4909 l
0.9989 0.4114 l
0.9991 0.3405 l
0.9994 0.2853 l
0.9997 0.2510 l
1.0000 0.2412 l
1.0003 0.2566 l
1.0006 0.2959 l
1.0009 0.3552 l
1.0011 0.4286 l
1.0014 0.5091 l
1.0017 0.5886 l
1.0020 0.6595 l
1.0023 0.7147 l
1.0026 0.7490 l
1.0029 0.7588 l
1.0031 0.7434 l
1.0034 0.7041 l
1.0037 0.6448 l
1.0040 0.5714 l
1.0043 0.4909 l
1.0046 0.4114 l
1.0049 0.3405 l
1.0051 0.2853 l
1.0054 0.2510 l
1.0057 0.2412 l
1.0060 0.2566 l
1.0063 0.2959 l
1.0066 0.3552 l
1.0069 0.4286 l
1.0071 0.5091 l
1.0074 0.5886 l
1.0077 0.6595 l
1.0080 0.7147 l
1.0083 0.7490 l
1.0086 0.7588 l
1.0089 0.7434 l
1.0091 0.7041 l
1.0094 0.6448 l
1.0097 0.5714 l
1.0100 0.4909 l
1.0103 0.4114 l
1.0106 0.3405 l
1.0109 0.2853 l
1.0111 0.2510 l
1.0114 0.2412 l
1.0117 0.2566 l
1.0120 0.2959 l
1.0123 0.3552 l
1.0126 0.4286 l
1.0129 0.5091 l
1.0131 0.5886 l
1.0134 0.6595 l
1.0137 0.7147 l
1.0140 0.7490 l
1.0143 0.7588 l
1.0146 0.7434 l
1.0149 0.7041 l
1.0151 0.6448 l
1.0154 0.5714 l
1.0157 0.4909 l
1.0160 0.4114 l
1.0163 0.3405 l
1.0166 0.2853 l
1.0169 0.2510 l
1.0171 0.2412 l
1.0174 0.2566 l
1.0177 0.2959 l
1.0180 0.3552 l
1.0183 0.4286 l
1.0186 0.5091 l
1.0189 0.5886 l
1.0191 0.6595 l
1.0194 0.7147 l
1.0197 0.7490 l
1.0200 0.7588 l
1.0203 0.7434 l
1.0206 0.7041 l
1.0209 0.6448 l
1.0211 0.5714 l
1.0214 0.4909 l
1.0217 0.4114 l
1.0220 0.3405 l
1.0223 0.2853 l
1.0226 0.2510 l
1.0229 0.2412 l
1.0231 0.2566 l
1.0234 0.2959 l
1.0237 0.3552 l
1.0240 0.4286 l
1.0243 0.5091 l
1.0246 0.5886 l
1.0249 0.6595 l
1.0251 0.7147 l
1.0254 0.7490 l
1.0257 0.7588 l
1.0260 0.7434 l
1.0263 0.7041 l
1.0266 0.6448 l
1.0269 0.5714 l
1.0271 0.4909 l
1.0274 0.4114 l
1.0277 0.3405 l
1.0280 0.2853 l
1.0283 0.2510 l
1.0286 0.2412 l
1.0289 0.2566 l
1.0291 0.2959 l
1.0294 0.3552 l
1.0297 0.4286 l
1.0300 0.5091 l
1.0303 0.5886 l
1.0306 0.6595 l
1.0309 0.7147 l
1.0311 0.7490 l
1.0314 0.7588 l
1.0317 0.7434 l
1.0320 0.7041 l
1.0323 0.6448 l
1.0326 0.5714 l
1.0329 0.4909 l
1.0331 0.4114 l
1.0334 0.3405 l
1.0337 0.2853 l
1.0340 0.2510 l
1.0343 0.2412 l
1.0346 0.2566 l
1.0349 0.2959 l
1.0351 0.3552 l
1.0354 0.4286 l
1.0357 0.5091 l
1.0360 0.5886 l
1.0363 0.6595 l
1.0366 0.7147 l
1.0369 0.7490 l
1.0371 0.7588 l
1.0374 0.7434 l
1.0377 0.7041 l
1.0380 0.6448 l
1.0383 0.5714 l
1.0386 0.4909 l
1.0389 0.4114 l
1.0391 0.3405 l
1.0394 0.2853 l
1.0397 0.2510 l
1.0400 0.2412 l
1.0403 0.2566 l
1.0406 0.2959 l
1.0409 0.3552 l
1.0411 0.4286 l
1.0414 0.5091 l
1.0417 0.5886 l
1.0420 0.6595 l
1.0423 0.7147 l
1.0426 0.7490 l
1.0429 0.7588 l
1.0431 0.7434 l
1.0434 0.7041 l
1.0437 0.6448 l
1.0440 0.5714 l
1.0443 0.4909 l
1.0446 0.4114 l
1.0449 0.3405 l
1.0451 0.2853 l
1.0454 0.2510 l
1.0457 0.2412 l
1.0460 0.2566 l
1.0463 0.2959 l
1.0466 0.3552 l
1.0469 0.4286 l
1.0471 0.5091 l
1.0474 0.5886 l
1.0476 0.6322 l
s
[/DeviceRGB] SCS
Color1 SC
n
0.1500 0.1500 m
1.1500 0.1500 l
s
n
0.1500 0.8500 m
1.1500 0.8500 l
s
[0.0015 0.0045 ] 0 SD
0.0015 SLW
n
0.2214 0.1500 m
0.2214 0.1600 l
s
n
0.2214 0.8500 m
0.2214 0.8400 l
s
n
0.3643 0.1500 m
0.3643 0.1600 l
s
n
0.3643 0.8500 m
0.3643 0.8400 l
s
n
0.5071 0.1500 m
0.5071 0.1600 l
s
n
0.5071 0.8500 m
0.5071 0.8400 l
s
n
0.6500 0.1500 m
0.6500 0.1600 l
s
n
0.6500 0.8500 m
0.6500 0.8400 l
s
n
0.7929 0.1500 m
0.7929 0.1600 l
s
n
0.7929 0.8500 m
0.7929 0.8400 l
s
n
0.9357 0.1500 m
0.9357 0.1600 l
s
n
0.9357 0.8500 m
0.9357 0.8400 l
s
n
1.0786 0.1500 m
1.0786 0.1600 l
s
n
1.0786 0.8500 m
1.0786 0.8400 l
s
n
0.1500 0.1500 m
0.1500 0.1700 l
s
n
0.1500 0.8500 m
0.1500 0.8300 l
s
n
0.2929 0.1500 m
0.2929 0.1700 l
s
n
0.2929 0.8500 m
0.2929 0.8300 l
s
n
0.4357 0.1500 m
0.4357 0.1700 l
s
n
0.4357 0.8500 m
0.4357 0.8300 l
s
n
0.5786 0.1500 m
0.5786 0.1700 l
s
n
0.5786 0.8500 m
0.5786 0.8300 l
s
n
0.7214 0.1500 m
0.7214 0.1700 l
s
n
0.7214 0.8500 m
0.7214 0.8300 l
s
n
0.8643 0.1500 m
0.8643 0.1700 l
s
n
0.8643 0.8500 m
0.8643 0.8300 l
s
n
1.0071 0.1500 m
1.0071 0.1700 l
s
n
1.0071 0.8500 m
1.0071 0.8300 l
s
n
1.1500 0.1500 m
1.1500 0.1700 l
s
n
1.1500 0.8500 m
1.1500 0.8300 l
s
/Times-Roman findfont
dup length dict begin
 {1 index /FID ne {def} {pop pop} ifelse} forall
 /Encoding DefEncoding def
 currentdict
end
/Font34 exch definefont pop
/Font34 FFSF
0.1448 0.1247 m
GS
[0.0224 0.0000 0.0000 0.0224 0 0] CC
(0) show
GR
/Font34 FFSF
0.2880 0.1247 m
GS
[0.0224 0.0000 0.0000 0.0224 0 0] CC
(5) show
GR
/Font34 FFSF
0.4248 0.1247 m
GS
[0.0224 0.0000 0.0000 0.0224 0 0] CC
(10) show
GR
/Font34 FFSF
0.5681 0.1247 m
GS
[0.0224 0.0000 0.0000 0.0224 0 0] CC
(15) show
GR
/Font34 FFSF
0.7105 0.1247 m
GS
[0.0224 0.0000 0.0000 0.0224 0 0] CC
(20) show
GR
/Font34 FFSF
0.8538 0.1247 m
GS
[0.0224 0.0000 0.0000 0.0224 0 0] CC
(25) show
GR
/Font34 FFSF
0.9963 0.1247 m
GS
[0.0224 0.0000 0.0000 0.0224 0 0] CC
(30) show
GR
/Font34 FFSF
1.1395 0.1247 m
GS
[0.0224 0.0000 0.0000 0.0224 0 0] CC
(35) show
GR
/Font34 FFSF
0.6284 0.0629 m
GS
[0.0280 0.0000 0.0000 0.0280 0 0] CC
(t \(s\)) show
GR
[] 0 SD
0.0015 SLW
n
0.1500 0.1500 m
0.1500 0.8500 l
s
n
1.1500 0.1500 m
1.1500 0.8500 l
s
n
0.1500 0.2083 m
0.1600 0.2083 l
s
n
1.1500 0.2083 m
1.1400 0.2083 l
s
n
0.1500 0.3250 m
0.1600 0.3250 l
s
n
1.1500 0.3250 m
1.1400 0.3250 l
s
n
0.1500 0.4417 m
0.1600 0.4417 l
s
n
1.1500 0.4417 m
1.1400 0.4417 l
s
n
0.1500 0.5583 m
0.1600 0.5583 l
s
n
1.1500 0.5583 m
1.1400 0.5583 l
s
n
0.1500 0.6750 m
0.1600 0.6750 l
s
n
1.1500 0.6750 m
1.1400 0.6750 l
s
n
0.1500 0.7917 m
0.1600 0.7917 l
s
n
1.1500 0.7917 m
1.1400 0.7917 l
s
[0.0015 0.0045 ] 0 SD
0.0015 SLW
n
0.1500 0.1500 m
0.1700 0.1500 l
s
n
1.1500 0.1500 m
1.1300 0.1500 l
s
n
0.1500 0.2667 m
0.1700 0.2667 l
s
n
1.1500 0.2667 m
1.1300 0.2667 l
s
n
0.1500 0.3833 m
0.1700 0.3833 l
s
n
1.1500 0.3833 m
1.1300 0.3833 l
s
n
0.1500 0.5000 m
0.1700 0.5000 l
s
n
1.1500 0.5000 m
1.1300 0.5000 l
s
n
0.1500 0.6167 m
0.1700 0.6167 l
s
n
1.1500 0.6167 m
1.1300 0.6167 l
s
n
0.1500 0.7333 m
0.1700 0.7333 l
s
n
1.1500 0.7333 m
1.1300 0.7333 l
s
n
0.1500 0.8500 m
0.1700 0.8500 l
s
n
1.1500 0.8500 m
1.1300 0.8500 l
s
/Font34 FFSF
0.1118 0.1425 m
GS
[0.0224 0.0000 0.0000 0.0224 0 0] CC
(-15) show
GR
/Font34 FFSF
0.1110 0.2592 m
GS
[0.0224 0.0000 0.0000 0.0224 0 0] CC
(-10) show
GR
/Font34 FFSF
0.1231 0.3759 m
GS
[0.0224 0.0000 0.0000 0.0224 0 0] CC
(-5) show
GR
/Font34 FFSF
0.1295 0.4925 m
GS
[0.0224 0.0000 0.0000 0.0224 0 0] CC
(0) show
GR
/Font34 FFSF
0.1303 0.6092 m
GS
[0.0224 0.0000 0.0000 0.0224 0 0] CC
(5) show
GR
/Font34 FFSF
0.1182 0.7259 m
GS
[0.0224 0.0000 0.0000 0.0224 0 0] CC
(10) show
GR
/Font34 FFSF
0.1190 0.8425 m
GS
[0.0224 0.0000 0.0000 0.0224 0 0] CC
(15) show
GR
/Font34 FFSF
0.0826 0.3911 m
GS
[0.0000 0.0280 -0.0280 0.0000 0 0] CC
(Acceleration \(m/s) show
GR
/Font34 FFSF
0.0658 0.5908 m
GS
[0.0000 0.0198 -0.0198 0.0000 0 0] CC
(2) show
GR
/Font34 FFSF
0.0826 0.6008 m
GS
[0.0000 0.0280 -0.0280 0.0000 0 0] CC
(\)) show
GR
[] 0 SD
0.0015 SLW
n
0.1500 0.1500 m
0.1500 0.8500 l
1.1500 0.8500 l
1.1500 0.1500 l
0.1500 0.1500 l
c
s
/Font34 FFSF
0.4644 0.9193 m
GS
[0.0420 0.0000 0.0000 0.0420 0 0] CC
(Acceleration response) show
GR
%%Trailer
%%BoundingBox: 30 33 692 565
%%DocumentNeededResources: font Times-Roman
%%EOF
