%!PS-Adobe-3.0 EPSF-3.0
%%BoundingBox: (atend)
%%LanguageLevel: 2
%%Creator: Grace-5.1.25
%%CreationDate: Sat Nov 25 08:12:18 2017
%%DocumentData: Clean8Bit
%%Orientation: Portrait
%%Title: fort.29.wrk
%%For: digvijay
%%DocumentNeededResources: (atend)
%%EndComments
%%BeginProlog
/m {moveto} def
/l {lineto} def
/s {stroke} def
/n {newpath} def
/c {closepath} def
/RL {rlineto} def
/SLW {setlinewidth} def
/GS {gsave} def
/GR {grestore} def
/SC {setcolor} def
/SGRY {setgray} def
/SRGB {setrgbcolor} def
/SD {setdash} def
/SLC {setlinecap} def
/SLJ {setlinejoin} def
/SCS {setcolorspace} def
/FFSF {findfont setfont} def
/CC {concat} def
/PXL {n m 0 0 RL s} def
/Color0 {1.0000 1.0000 1.0000} def
/Color1 {0.0000 0.0000 0.0000} def
/Color2 {1.0000 0.0000 0.0000} def
/Color3 {0.0000 1.0000 0.0000} def
/Color4 {0.0000 0.0000 1.0000} def
/Color5 {1.0000 1.0000 0.0000} def
/Color6 {0.7373 0.5608 0.5608} def
/Color7 {0.8627 0.8627 0.8627} def
/Color8 {0.5804 0.0000 0.8275} def
/Color9 {0.0000 1.0000 1.0000} def
/Color10 {1.0000 0.0000 1.0000} def
/Color11 {1.0000 0.6471 0.0000} def
/Color12 {0.4471 0.1294 0.7373} def
/Color13 {0.4039 0.0275 0.2824} def
/Color14 {0.2510 0.8784 0.8157} def
/Color15 {0.0000 0.5451 0.0000} def
/PTRN {
 /pat_bits exch def 
 <<
  /PaintType 2
  /PatternType 1 /TilingType 1
  /BBox[0 0 16 16]
  /XStep 16 /YStep 16
  /PaintProc {
   pop
   16 16 true [-1 0 0 -1 16 16] pat_bits imagemask
  }
 >>
 [0.0017 0 0 0.0017 0 0]
 makepattern
} def
/Pattern0 {<0000000000000000000000000000000000000000000000000000000000000000> PTRN} bind def
/Pattern1 {<ffffffffffffffffffffffffffffffffffffffffffffffffffffffffffffffff> PTRN} bind def
/Pattern2 {<eeeeffffbbbbffffeeeeffffbbbbffffeeeeffffbbbbffffeeeeffffbbbbffff> PTRN} bind def
/Pattern3 {<eeeebbbbeeeebbbbeeeebbbbeeeebbbbeeeebbbbeeeebbbbeeeebbbbeeeebbbb> PTRN} bind def
/Pattern4 {<5555aaaa5555aaaa5555aaaa5555aaaa5555aaaa5555aaaa5555aaaa5555aaaa> PTRN} bind def
/Pattern5 {<1111444411114444111144441111444411114444111144441111444411114444> PTRN} bind def
/Pattern6 {<1111000044440000111100004444000011110000444400001111000044440000> PTRN} bind def
/Pattern7 {<1010000000000000010100000000000010100000000000000101000000000000> PTRN} bind def
/Pattern8 {<0000000000000000000000000000000000000000000000000000000000000000> PTRN} bind def
/Pattern9 {<1e1e0f0f8787c3c3e1e1f0f078783c3c1e1e0f0f8787c3c3e1e1f0f078783c3c> PTRN} bind def
/Pattern10 {<7878f0f0e1e1c3c387870f0f1e1e3c3c7878f0f0e1e1c3c387870f0f1e1e3c3c> PTRN} bind def
/Pattern11 {<3333333333333333333333333333333333333333333333333333333333333333> PTRN} bind def
/Pattern12 {<ffffffff00000000ffffffff00000000ffffffff00000000ffffffff00000000> PTRN} bind def
/Pattern13 {<8181424224241818181824244242818181814242242418181818242442428181> PTRN} bind def
/Pattern14 {<8080404020201010080804040202010180804040202010100808040402020101> PTRN} bind def
/Pattern15 {<0101020204040808101020204040808001010202040408081010202040408080> PTRN} bind def
/Pattern16 {<2222222222222222222222222222222222222222222222222222222222222222> PTRN} bind def
/Pattern17 {<0000ffff000000000000ffff000000000000ffff000000000000ffff00000000> PTRN} bind def
/Pattern18 {<2222ffff222222222222ffff222222222222ffff222222222222ffff22222222> PTRN} bind def
/Pattern19 {<ffffffff33333333ffffffff33333333ffffffff33333333ffffffff33333333> PTRN} bind def
/Pattern20 {<0f0f0f0f0f0f0f0ff0f0f0f0f0f0f0f00f0f0f0f0f0f0f0ff0f0f0f0f0f0f0f0> PTRN} bind def
/Pattern21 {<ff00ff00ff00ff00ff00ff00ff00ff0000ff00ff00ff00ff00ff00ff00ff00ff> PTRN} bind def
/Pattern22 {<8001800180018001800180018001ffffffff8001800180018001800180018001> PTRN} bind def
/Pattern23 {<c003c003c003c003c003c003ffffffffffffffffc003c003c003c003c003c003> PTRN} bind def
/Pattern24 {<040404040404ffff404040404040ffff040404040404ffff404040404040ffff> PTRN} bind def
/Pattern25 {<180018001800180018001800ffffffff001800180018001800180018ffffffff> PTRN} bind def
/Pattern26 {<1111b8b87c7c3a3a1111a3a3c7c78b8b1111b8b87c7c3a3a1111a3a3c7c78b8b> PTRN} bind def
/Pattern27 {<101010102828c7c70101010182827c7c101010102828c7c70101010182827c7c> PTRN} bind def
/Pattern28 {<1c1c121211112121c1c12121111112121c1c121211112121c1c1212111111212> PTRN} bind def
/Pattern29 {<3e3e414180808080e3e31414080808083e3e414180808080e3e3141408080808> PTRN} bind def
/Pattern30 {<4848888884848383848488884848383848488888848483838484888848483838> PTRN} bind def
/Pattern31 {<03030404080808080c0c12122121c0c003030404080808080c0c12122121c0c0> PTRN} bind def
/ellipsedict 8 dict def
ellipsedict /mtrx matrix put
/EARC {
 ellipsedict begin
  /endangle exch def
  /startangle exch def
  /yrad exch def
  /xrad exch def
  /y exch def
  /x exch def
  /savematrix mtrx currentmatrix def
  x y translate
  xrad yrad scale
  0 0 1 startangle endangle arc
  savematrix setmatrix
 end
} def
/TL {
  /kcomp exch def
  /linewidth exch def
  /offset exch def
  GS
  0 offset rmoveto
  linewidth SLW
  dup stringwidth exch kcomp add exch RL s
  GR
} def
/KINIT
{
 /kvector exch def
 /kid 0 def
} def
/KPROC
{
 pop pop
 kvector kid get
 0 rmoveto
 /kid 1 kid add def
} def
/DefEncoding [
 /.notdef
 /.notdef
 /.notdef
 /.notdef
 /.notdef
 /.notdef
 /.notdef
 /.notdef
 /.notdef
 /.notdef
 /.notdef
 /.notdef
 /.notdef
 /.notdef
 /.notdef
 /.notdef
 /.notdef
 /.notdef
 /.notdef
 /.notdef
 /.notdef
 /.notdef
 /.notdef
 /.notdef
 /.notdef
 /.notdef
 /.notdef
 /.notdef
 /.notdef
 /.notdef
 /.notdef
 /.notdef
 /space
 /exclam
 /quotedbl
 /numbersign
 /dollar
 /percent
 /ampersand
 /quoteright
 /parenleft
 /parenright
 /asterisk
 /plus
 /comma
 /hyphen
 /period
 /slash
 /zero
 /one
 /two
 /three
 /four
 /five
 /six
 /seven
 /eight
 /nine
 /colon
 /semicolon
 /less
 /equal
 /greater
 /question
 /at
 /A
 /B
 /C
 /D
 /E
 /F
 /G
 /H
 /I
 /J
 /K
 /L
 /M
 /N
 /O
 /P
 /Q
 /R
 /S
 /T
 /U
 /V
 /W
 /X
 /Y
 /Z
 /bracketleft
 /backslash
 /bracketright
 /asciicircum
 /underscore
 /grave
 /a
 /b
 /c
 /d
 /e
 /f
 /g
 /h
 /i
 /j
 /k
 /l
 /m
 /n
 /o
 /p
 /q
 /r
 /s
 /t
 /u
 /v
 /w
 /x
 /y
 /z
 /braceleft
 /bar
 /braceright
 /asciitilde
 /.notdef
 /.notdef
 /.notdef
 /.notdef
 /.notdef
 /.notdef
 /.notdef
 /.notdef
 /.notdef
 /.notdef
 /.notdef
 /.notdef
 /.notdef
 /.notdef
 /.notdef
 /.notdef
 /.notdef
 /.notdef
 /.notdef
 /.notdef
 /.notdef
 /.notdef
 /.notdef
 /.notdef
 /.notdef
 /.notdef
 /.notdef
 /.notdef
 /.notdef
 /.notdef
 /.notdef
 /.notdef
 /.notdef
 /space
 /exclamdown
 /cent
 /sterling
 /currency
 /yen
 /brokenbar
 /section
 /dieresis
 /copyright
 /ordfeminine
 /guillemotleft
 /logicalnot
 /hyphen
 /registered
 /macron
 /degree
 /plusminus
 /twosuperior
 /threesuperior
 /acute
 /mu
 /paragraph
 /periodcentered
 /cedilla
 /onesuperior
 /ordmasculine
 /guillemotright
 /onequarter
 /onehalf
 /threequarters
 /questiondown
 /Agrave
 /Aacute
 /Acircumflex
 /Atilde
 /Adieresis
 /Aring
 /AE
 /Ccedilla
 /Egrave
 /Eacute
 /Ecircumflex
 /Edieresis
 /Igrave
 /Iacute
 /Icircumflex
 /Idieresis
 /Eth
 /Ntilde
 /Ograve
 /Oacute
 /Ocircumflex
 /Otilde
 /Odieresis
 /multiply
 /Oslash
 /Ugrave
 /Uacute
 /Ucircumflex
 /Udieresis
 /Yacute
 /Thorn
 /germandbls
 /agrave
 /aacute
 /acircumflex
 /atilde
 /adieresis
 /aring
 /ae
 /ccedilla
 /egrave
 /eacute
 /ecircumflex
 /edieresis
 /igrave
 /iacute
 /icircumflex
 /idieresis
 /eth
 /ntilde
 /ograve
 /oacute
 /ocircumflex
 /otilde
 /odieresis
 /divide
 /oslash
 /ugrave
 /uacute
 /ucircumflex
 /udieresis
 /yacute
 /thorn
 /ydieresis
] def
%%EndProlog
%%BeginSetup
%%EndSetup
594.96 594.96 scale
n
0.0000 0.0000 m
0.0000 1.0000 l
1.4151 1.0000 l
1.4151 0.0000 l
c
[/DeviceRGB] SCS
Color0 SC
fill
[/DeviceRGB] SCS
Color1 SC
[0.0015 0.0045 ] 0 SD
0.0015 SLW
0 SLC
0 SLJ
n
0.1738 0.1500 m
0.1738 0.8500 l
s
n
0.3643 0.1500 m
0.3643 0.8500 l
s
n
0.5548 0.1500 m
0.5548 0.8500 l
s
n
0.7452 0.1500 m
0.7452 0.8500 l
s
n
0.9357 0.1500 m
0.9357 0.8500 l
s
n
1.1262 0.1500 m
1.1262 0.8500 l
s
n
0.1500 0.2834 m
1.1500 0.2834 l
s
n
0.1500 0.4252 m
1.1500 0.4252 l
s
n
0.1500 0.5671 m
1.1500 0.5671 l
s
n
0.1500 0.7089 m
1.1500 0.7089 l
s
[/DeviceRGB] SCS
Color2 SC
[] 0 SD
0.0015 SLW
n
0.1738 0.5706 m
0.1757 0.5706 l
0.1776 0.5706 l
0.1795 0.5706 l
0.1814 0.5706 l
0.1833 0.5706 l
0.1852 0.5706 l
0.1871 0.5706 l
0.1890 0.5706 l
0.1910 0.5707 l
0.1929 0.5707 l
0.1948 0.5707 l
0.1967 0.5707 l
0.1986 0.5707 l
0.2005 0.5707 l
0.2024 0.5707 l
0.2043 0.5707 l
0.2062 0.5707 l
0.2081 0.5708 l
0.2100 0.5708 l
0.2119 0.5708 l
0.2138 0.5708 l
0.2157 0.5708 l
0.2176 0.5709 l
0.2195 0.5709 l
0.2214 0.5709 l
0.2233 0.5709 l
0.2252 0.5710 l
0.2271 0.5710 l
0.2290 0.5710 l
0.2310 0.5711 l
0.2329 0.5711 l
0.2348 0.5712 l
0.2367 0.5712 l
0.2386 0.5712 l
0.2405 0.5713 l
0.2424 0.5713 l
0.2443 0.5714 l
0.2462 0.5715 l
0.2481 0.5715 l
0.2500 0.5716 l
0.2519 0.5717 l
0.2538 0.5717 l
0.2557 0.5718 l
0.2576 0.5719 l
0.2595 0.5720 l
0.2614 0.5721 l
0.2633 0.5722 l
0.2652 0.5723 l
0.2671 0.5725 l
0.2690 0.5726 l
0.2710 0.5728 l
0.2729 0.5730 l
0.2748 0.5732 l
0.2767 0.5734 l
0.2786 0.5737 l
0.2805 0.5740 l
0.2824 0.5743 l
0.2843 0.5747 l
0.2862 0.5751 l
0.2881 0.5757 l
0.2900 0.5763 l
0.2919 0.5771 l
0.2938 0.5781 l
0.2957 0.5794 l
0.2976 0.5811 l
0.2995 0.5835 l
0.3014 0.5872 l
0.3033 0.5935 l
0.3052 0.6066 l
0.3071 0.6515 l
0.3090 0.1667 l
0.3110 0.5111 l
0.3129 0.5379 l
0.3148 0.5479 l
0.3167 0.5530 l
0.3186 0.5562 l
0.3205 0.5583 l
0.3224 0.5599 l
0.3243 0.5611 l
0.3262 0.5620 l
0.3281 0.5627 l
0.3300 0.5633 l
0.3319 0.5638 l
0.3338 0.5643 l
0.3357 0.5646 l
0.3376 0.5650 l
0.3395 0.5652 l
0.3414 0.5655 l
0.3433 0.5657 l
0.3452 0.5659 l
0.3471 0.5661 l
0.3490 0.5663 l
0.3510 0.5664 l
0.3529 0.5666 l
0.3548 0.5667 l
0.3567 0.5668 l
0.3586 0.5669 l
0.3605 0.5670 l
0.3624 0.5671 l
0.3643 0.5672 l
0.3662 0.5673 l
0.3681 0.5674 l
0.3700 0.5675 l
0.3719 0.5676 l
0.3738 0.5676 l
0.3757 0.5677 l
0.3776 0.5678 l
0.3795 0.5678 l
0.3814 0.5679 l
0.3833 0.5679 l
0.3852 0.5680 l
0.3871 0.5681 l
0.3890 0.5681 l
0.3910 0.5682 l
0.3929 0.5682 l
0.3948 0.5683 l
0.3967 0.5683 l
0.3986 0.5684 l
0.4005 0.5684 l
0.4024 0.5685 l
0.4043 0.5685 l
0.4062 0.5686 l
0.4081 0.5686 l
0.4100 0.5686 l
0.4119 0.5687 l
0.4138 0.5687 l
0.4157 0.5688 l
0.4176 0.5688 l
0.4195 0.5689 l
0.4214 0.5689 l
0.4233 0.5690 l
0.4252 0.5690 l
0.4271 0.5690 l
0.4290 0.5691 l
0.4310 0.5691 l
0.4329 0.5692 l
0.4348 0.5692 l
0.4367 0.5693 l
0.4386 0.5693 l
0.4405 0.5694 l
0.4424 0.5694 l
0.4443 0.5695 l
0.4462 0.5695 l
0.4481 0.5696 l
0.4500 0.5696 l
0.4519 0.5697 l
0.4538 0.5698 l
0.4557 0.5698 l
0.4576 0.5699 l
0.4595 0.5699 l
0.4614 0.5700 l
0.4633 0.5701 l
0.4652 0.5701 l
0.4671 0.5702 l
0.4690 0.5703 l
0.4710 0.5704 l
0.4729 0.5704 l
0.4748 0.5705 l
0.4767 0.5706 l
0.4786 0.5707 l
0.4805 0.5708 l
0.4824 0.5709 l
0.4843 0.5710 l
0.4862 0.5711 l
0.4881 0.5712 l
0.4900 0.5713 l
0.4919 0.5715 l
0.4938 0.5716 l
0.4957 0.5718 l
0.4976 0.5719 l
0.4995 0.5721 l
0.5014 0.5723 l
0.5033 0.5724 l
0.5052 0.5727 l
0.5071 0.5729 l
0.5090 0.5731 l
0.5110 0.5734 l
0.5129 0.5737 l
0.5148 0.5740 l
0.5167 0.5743 l
0.5186 0.5747 l
0.5205 0.5752 l
0.5224 0.5757 l
0.5243 0.5762 l
0.5262 0.5768 l
0.5281 0.5776 l
0.5300 0.5785 l
0.5319 0.5795 l
0.5338 0.5807 l
0.5357 0.5823 l
0.5376 0.5842 l
0.5395 0.5868 l
0.5414 0.5903 l
0.5433 0.5953 l
0.5452 0.6033 l
0.5471 0.6177 l
0.5490 0.6518 l
0.5510 0.8333 l
0.5529 0.3390 l
0.5548 0.4879 l
0.5567 0.5194 l
0.5586 0.5331 l
0.5605 0.5408 l
0.5624 0.5457 l
0.5643 0.5491 l
0.5662 0.5516 l
0.5681 0.5535 l
0.5700 0.5550 l
0.5719 0.5563 l
0.5738 0.5573 l
0.5757 0.5582 l
0.5776 0.5589 l
0.5795 0.5595 l
0.5814 0.5601 l
0.5833 0.5606 l
0.5852 0.5610 l
0.5871 0.5614 l
0.5890 0.5618 l
0.5910 0.5621 l
0.5929 0.5624 l
0.5948 0.5626 l
0.5967 0.5629 l
0.5986 0.5631 l
0.6005 0.5633 l
0.6024 0.5635 l
0.6043 0.5637 l
0.6062 0.5639 l
0.6081 0.5640 l
0.6100 0.5642 l
0.6119 0.5643 l
0.6138 0.5645 l
0.6157 0.5646 l
0.6176 0.5647 l
0.6195 0.5648 l
0.6214 0.5650 l
0.6233 0.5651 l
0.6252 0.5652 l
0.6271 0.5653 l
0.6290 0.5654 l
0.6310 0.5655 l
0.6329 0.5656 l
0.6348 0.5657 l
0.6367 0.5658 l
0.6386 0.5659 l
0.6405 0.5659 l
0.6424 0.5660 l
0.6443 0.5661 l
0.6462 0.5662 l
0.6481 0.5663 l
0.6500 0.5664 l
0.6519 0.5665 l
0.6538 0.5666 l
0.6557 0.5667 l
0.6576 0.5667 l
0.6595 0.5668 l
0.6614 0.5669 l
0.6633 0.5670 l
0.6652 0.5671 l
0.6671 0.5672 l
0.6690 0.5673 l
0.6710 0.5674 l
0.6729 0.5676 l
0.6748 0.5677 l
0.6767 0.5678 l
0.6786 0.5680 l
0.6805 0.5681 l
0.6824 0.5683 l
0.6843 0.5684 l
0.6862 0.5686 l
0.6881 0.5688 l
0.6900 0.5691 l
0.6919 0.5693 l
0.6938 0.5696 l
0.6957 0.5699 l
0.6976 0.5703 l
0.6995 0.5708 l
0.7014 0.5713 l
0.7033 0.5720 l
0.7052 0.5728 l
0.7071 0.5738 l
0.7090 0.5753 l
0.7110 0.5773 l
0.7129 0.5803 l
0.7148 0.5855 l
0.7167 0.5965 l
0.7186 0.6354 l
0.7205 0.3087 l
0.7224 0.5208 l
0.7243 0.5412 l
0.7262 0.5489 l
0.7281 0.5530 l
0.7300 0.5555 l
0.7319 0.5572 l
0.7338 0.5584 l
0.7357 0.5594 l
0.7376 0.5601 l
0.7395 0.5607 l
0.7414 0.5612 l
0.7433 0.5616 l
0.7452 0.5620 l
0.7471 0.5623 l
0.7490 0.5625 l
0.7510 0.5628 l
0.7529 0.5630 l
0.7548 0.5631 l
0.7567 0.5633 l
0.7586 0.5635 l
0.7605 0.5636 l
0.7624 0.5637 l
0.7643 0.5638 l
0.7662 0.5640 l
0.7681 0.5641 l
0.7700 0.5641 l
0.7719 0.5642 l
0.7738 0.5643 l
0.7757 0.5644 l
0.7776 0.5645 l
0.7795 0.5645 l
0.7814 0.5646 l
0.7833 0.5646 l
0.7852 0.5647 l
0.7871 0.5648 l
0.7890 0.5648 l
0.7910 0.5649 l
0.7929 0.5649 l
0.7948 0.5649 l
0.7967 0.5650 l
0.7986 0.5650 l
0.8005 0.5651 l
0.8024 0.5651 l
0.8043 0.5651 l
0.8062 0.5652 l
0.8081 0.5652 l
0.8100 0.5652 l
0.8119 0.5653 l
0.8138 0.5653 l
0.8157 0.5653 l
0.8176 0.5654 l
0.8195 0.5654 l
0.8214 0.5654 l
0.8233 0.5654 l
0.8252 0.5655 l
0.8271 0.5655 l
0.8290 0.5655 l
0.8310 0.5655 l
0.8329 0.5655 l
0.8348 0.5656 l
0.8367 0.5656 l
0.8386 0.5656 l
0.8405 0.5656 l
0.8424 0.5656 l
0.8443 0.5657 l
0.8462 0.5657 l
0.8481 0.5657 l
0.8500 0.5657 l
0.8519 0.5657 l
0.8538 0.5657 l
0.8557 0.5658 l
0.8576 0.5658 l
0.8595 0.5658 l
0.8614 0.5658 l
0.8633 0.5658 l
0.8652 0.5658 l
0.8671 0.5659 l
0.8690 0.5659 l
0.8710 0.5659 l
0.8729 0.5659 l
0.8748 0.5659 l
0.8767 0.5659 l
0.8786 0.5659 l
0.8805 0.5659 l
0.8824 0.5660 l
0.8843 0.5660 l
0.8862 0.5660 l
0.8881 0.5660 l
0.8900 0.5660 l
0.8919 0.5660 l
0.8938 0.5660 l
0.8957 0.5660 l
0.8976 0.5660 l
0.8995 0.5660 l
0.9014 0.5661 l
0.9033 0.5661 l
0.9052 0.5661 l
0.9071 0.5661 l
0.9090 0.5661 l
0.9110 0.5661 l
0.9129 0.5661 l
0.9148 0.5661 l
0.9167 0.5661 l
0.9186 0.5661 l
0.9205 0.5661 l
0.9224 0.5662 l
0.9243 0.5662 l
0.9262 0.5662 l
0.9281 0.5662 l
0.9300 0.5662 l
0.9319 0.5662 l
0.9338 0.5662 l
0.9357 0.5662 l
0.9376 0.5662 l
0.9395 0.5662 l
0.9414 0.5662 l
0.9433 0.5662 l
0.9452 0.5662 l
0.9471 0.5662 l
0.9490 0.5663 l
0.9510 0.5663 l
0.9529 0.5663 l
0.9548 0.5663 l
0.9567 0.5663 l
0.9586 0.5663 l
0.9605 0.5663 l
0.9624 0.5663 l
0.9643 0.5663 l
0.9662 0.5663 l
0.9681 0.5663 l
0.9700 0.5663 l
0.9719 0.5663 l
0.9738 0.5663 l
0.9757 0.5663 l
0.9776 0.5663 l
0.9795 0.5663 l
0.9814 0.5664 l
0.9833 0.5664 l
0.9852 0.5664 l
0.9871 0.5664 l
0.9890 0.5664 l
0.9910 0.5664 l
0.9929 0.5664 l
0.9948 0.5664 l
0.9967 0.5664 l
0.9986 0.5664 l
1.0005 0.5664 l
1.0024 0.5664 l
1.0043 0.5664 l
1.0062 0.5664 l
1.0081 0.5664 l
1.0100 0.5664 l
1.0119 0.5664 l
1.0138 0.5664 l
1.0157 0.5664 l
1.0176 0.5664 l
1.0195 0.5664 l
1.0214 0.5664 l
1.0233 0.5665 l
1.0252 0.5665 l
1.0271 0.5665 l
1.0290 0.5665 l
1.0310 0.5665 l
1.0329 0.5665 l
1.0348 0.5665 l
1.0367 0.5665 l
1.0386 0.5665 l
1.0405 0.5665 l
1.0424 0.5665 l
1.0443 0.5665 l
1.0462 0.5665 l
1.0481 0.5665 l
1.0500 0.5665 l
1.0519 0.5665 l
1.0538 0.5665 l
1.0557 0.5665 l
1.0576 0.5665 l
1.0595 0.5665 l
1.0614 0.5665 l
1.0633 0.5665 l
1.0652 0.5665 l
1.0671 0.5665 l
1.0690 0.5665 l
1.0710 0.5665 l
1.0729 0.5665 l
1.0748 0.5665 l
1.0767 0.5665 l
1.0786 0.5666 l
1.0805 0.5666 l
1.0824 0.5666 l
1.0843 0.5666 l
1.0862 0.5666 l
1.0881 0.5666 l
1.0900 0.5666 l
1.0919 0.5666 l
1.0938 0.5666 l
1.0957 0.5666 l
1.0976 0.5666 l
1.0995 0.5666 l
1.1014 0.5666 l
1.1033 0.5666 l
1.1052 0.5666 l
1.1071 0.5666 l
1.1090 0.5666 l
1.1110 0.5666 l
1.1129 0.5666 l
1.1148 0.5666 l
1.1167 0.5666 l
1.1186 0.5666 l
1.1205 0.5666 l
1.1224 0.5666 l
1.1243 0.5666 l
1.1262 0.5666 l
s
[/DeviceRGB] SCS
Color3 SC
n
0.1738 0.5671 m
0.1757 0.5671 l
0.1776 0.5671 l
0.1795 0.5671 l
0.1814 0.5671 l
0.1833 0.5671 l
0.1852 0.5671 l
0.1871 0.5671 l
0.1890 0.5671 l
0.1910 0.5671 l
0.1929 0.5671 l
0.1948 0.5671 l
0.1967 0.5671 l
0.1986 0.5671 l
0.2005 0.5671 l
0.2024 0.5671 l
0.2043 0.5671 l
0.2062 0.5671 l
0.2081 0.5671 l
0.2100 0.5671 l
0.2119 0.5671 l
0.2138 0.5671 l
0.2157 0.5671 l
0.2176 0.5671 l
0.2195 0.5671 l
0.2214 0.5671 l
0.2233 0.5671 l
0.2252 0.5671 l
0.2271 0.5671 l
0.2290 0.5671 l
0.2310 0.5671 l
0.2329 0.5671 l
0.2348 0.5671 l
0.2367 0.5671 l
0.2386 0.5671 l
0.2405 0.5671 l
0.2424 0.5671 l
0.2443 0.5671 l
0.2462 0.5671 l
0.2481 0.5671 l
0.2500 0.5671 l
0.2519 0.5671 l
0.2538 0.5671 l
0.2557 0.5671 l
0.2576 0.5671 l
0.2595 0.5671 l
0.2614 0.5671 l
0.2633 0.5671 l
0.2652 0.5671 l
0.2671 0.5671 l
0.2690 0.5671 l
0.2710 0.5671 l
0.2729 0.5671 l
0.2748 0.5671 l
0.2767 0.5671 l
0.2786 0.5671 l
0.2805 0.5671 l
0.2824 0.5671 l
0.2843 0.5671 l
0.2862 0.5671 l
0.2881 0.5671 l
0.2900 0.5671 l
0.2919 0.5671 l
0.2938 0.5671 l
0.2957 0.5671 l
0.2976 0.5671 l
0.2995 0.5671 l
0.3014 0.5671 l
0.3033 0.5671 l
0.3052 0.5671 l
0.3071 0.5671 l
0.3090 0.5671 l
0.3110 0.5671 l
0.3129 0.5671 l
0.3148 0.5671 l
0.3167 0.5671 l
0.3186 0.5671 l
0.3205 0.5671 l
0.3224 0.5671 l
0.3243 0.5671 l
0.3262 0.5671 l
0.3281 0.5671 l
0.3300 0.5671 l
0.3319 0.5671 l
0.3338 0.5671 l
0.3357 0.5671 l
0.3376 0.5671 l
0.3395 0.5671 l
0.3414 0.5671 l
0.3433 0.5671 l
0.3452 0.5671 l
0.3471 0.5671 l
0.3490 0.5671 l
0.3510 0.5671 l
0.3529 0.5671 l
0.3548 0.5671 l
0.3567 0.5671 l
0.3586 0.5671 l
0.3605 0.5671 l
0.3624 0.5671 l
0.3643 0.5671 l
0.3662 0.5671 l
0.3681 0.5671 l
0.3700 0.5671 l
0.3719 0.5671 l
0.3738 0.5671 l
0.3757 0.5671 l
0.3776 0.5671 l
0.3795 0.5671 l
0.3814 0.5671 l
0.3833 0.5671 l
0.3852 0.5671 l
0.3871 0.5671 l
0.3890 0.5671 l
0.3910 0.5671 l
0.3929 0.5671 l
0.3948 0.5671 l
0.3967 0.5671 l
0.3986 0.5671 l
0.4005 0.5671 l
0.4024 0.5671 l
0.4043 0.5671 l
0.4062 0.5671 l
0.4081 0.5671 l
0.4100 0.5671 l
0.4119 0.5671 l
0.4138 0.5671 l
0.4157 0.5671 l
0.4176 0.5671 l
0.4195 0.5671 l
0.4214 0.5671 l
0.4233 0.5671 l
0.4252 0.5671 l
0.4271 0.5671 l
0.4290 0.5671 l
0.4310 0.5671 l
0.4329 0.5671 l
0.4348 0.5671 l
0.4367 0.5671 l
0.4386 0.5671 l
0.4405 0.5671 l
0.4424 0.5671 l
0.4443 0.5671 l
0.4462 0.5671 l
0.4481 0.5671 l
0.4500 0.5671 l
0.4519 0.5671 l
0.4538 0.5671 l
0.4557 0.5671 l
0.4576 0.5671 l
0.4595 0.5671 l
0.4614 0.5671 l
0.4633 0.5671 l
0.4652 0.5671 l
0.4671 0.5671 l
0.4690 0.5671 l
0.4710 0.5671 l
0.4729 0.5671 l
0.4748 0.5671 l
0.4767 0.5671 l
0.4786 0.5671 l
0.4805 0.5671 l
0.4824 0.5671 l
0.4843 0.5671 l
0.4862 0.5671 l
0.4881 0.5671 l
0.4900 0.5671 l
0.4919 0.5671 l
0.4938 0.5671 l
0.4957 0.5671 l
0.4976 0.5671 l
0.4995 0.5671 l
0.5014 0.5671 l
0.5033 0.5671 l
0.5052 0.5671 l
0.5071 0.5671 l
0.5090 0.5671 l
0.5110 0.5671 l
0.5129 0.5671 l
0.5148 0.5671 l
0.5167 0.5671 l
0.5186 0.5671 l
0.5205 0.5671 l
0.5224 0.5671 l
0.5243 0.5671 l
0.5262 0.5671 l
0.5281 0.5671 l
0.5300 0.5671 l
0.5319 0.5671 l
0.5338 0.5671 l
0.5357 0.5671 l
0.5376 0.5671 l
0.5395 0.5671 l
0.5414 0.5671 l
0.5433 0.5671 l
0.5452 0.5671 l
0.5471 0.5671 l
0.5490 0.5671 l
0.5510 0.5671 l
0.5529 0.5671 l
0.5548 0.5671 l
0.5567 0.5671 l
0.5586 0.5671 l
0.5605 0.5671 l
0.5624 0.5671 l
0.5643 0.5671 l
0.5662 0.5671 l
0.5681 0.5671 l
0.5700 0.5671 l
0.5719 0.5671 l
0.5738 0.5671 l
0.5757 0.5671 l
0.5776 0.5671 l
0.5795 0.5671 l
0.5814 0.5671 l
0.5833 0.5671 l
0.5852 0.5671 l
0.5871 0.5671 l
0.5890 0.5671 l
0.5910 0.5671 l
0.5929 0.5671 l
0.5948 0.5671 l
0.5967 0.5671 l
0.5986 0.5671 l
0.6005 0.5671 l
0.6024 0.5671 l
0.6043 0.5671 l
0.6062 0.5671 l
0.6081 0.5671 l
0.6100 0.5671 l
0.6119 0.5671 l
0.6138 0.5671 l
0.6157 0.5671 l
0.6176 0.5671 l
0.6195 0.5671 l
0.6214 0.5671 l
0.6233 0.5671 l
0.6252 0.5671 l
0.6271 0.5671 l
0.6290 0.5671 l
0.6310 0.5671 l
0.6329 0.5671 l
0.6348 0.5671 l
0.6367 0.5671 l
0.6386 0.5671 l
0.6405 0.5671 l
0.6424 0.5671 l
0.6443 0.5671 l
0.6462 0.5671 l
0.6481 0.5671 l
0.6500 0.5671 l
0.6519 0.5671 l
0.6538 0.5671 l
0.6557 0.5671 l
0.6576 0.5671 l
0.6595 0.5671 l
0.6614 0.5671 l
0.6633 0.5671 l
0.6652 0.5671 l
0.6671 0.5671 l
0.6690 0.5671 l
0.6710 0.5671 l
0.6729 0.5671 l
0.6748 0.5671 l
0.6767 0.5671 l
0.6786 0.5671 l
0.6805 0.5671 l
0.6824 0.5671 l
0.6843 0.5671 l
0.6862 0.5671 l
0.6881 0.5671 l
0.6900 0.5671 l
0.6919 0.5671 l
0.6938 0.5671 l
0.6957 0.5671 l
0.6976 0.5671 l
0.6995 0.5671 l
0.7014 0.5671 l
0.7033 0.5671 l
0.7052 0.5671 l
0.7071 0.5671 l
0.7090 0.5671 l
0.7110 0.5671 l
0.7129 0.5671 l
0.7148 0.5671 l
0.7167 0.5671 l
0.7186 0.5671 l
0.7205 0.5671 l
0.7224 0.5671 l
0.7243 0.5671 l
0.7262 0.5671 l
0.7281 0.5671 l
0.7300 0.5671 l
0.7319 0.5671 l
0.7338 0.5671 l
0.7357 0.5671 l
0.7376 0.5671 l
0.7395 0.5671 l
0.7414 0.5671 l
0.7433 0.5671 l
0.7452 0.5671 l
0.7471 0.5671 l
0.7490 0.5671 l
0.7510 0.5671 l
0.7529 0.5671 l
0.7548 0.5671 l
0.7567 0.5671 l
0.7586 0.5671 l
0.7605 0.5671 l
0.7624 0.5671 l
0.7643 0.5671 l
0.7662 0.5671 l
0.7681 0.5671 l
0.7700 0.5671 l
0.7719 0.5671 l
0.7738 0.5671 l
0.7757 0.5671 l
0.7776 0.5671 l
0.7795 0.5671 l
0.7814 0.5671 l
0.7833 0.5671 l
0.7852 0.5671 l
0.7871 0.5671 l
0.7890 0.5671 l
0.7910 0.5671 l
0.7929 0.5671 l
0.7948 0.5671 l
0.7967 0.5671 l
0.7986 0.5671 l
0.8005 0.5671 l
0.8024 0.5671 l
0.8043 0.5671 l
0.8062 0.5671 l
0.8081 0.5671 l
0.8100 0.5671 l
0.8119 0.5671 l
0.8138 0.5671 l
0.8157 0.5671 l
0.8176 0.5671 l
0.8195 0.5671 l
0.8214 0.5671 l
0.8233 0.5671 l
0.8252 0.5671 l
0.8271 0.5671 l
0.8290 0.5671 l
0.8310 0.5671 l
0.8329 0.5671 l
0.8348 0.5671 l
0.8367 0.5671 l
0.8386 0.5671 l
0.8405 0.5671 l
0.8424 0.5671 l
0.8443 0.5671 l
0.8462 0.5671 l
0.8481 0.5671 l
0.8500 0.5671 l
0.8519 0.5671 l
0.8538 0.5671 l
0.8557 0.5671 l
0.8576 0.5671 l
0.8595 0.5671 l
0.8614 0.5671 l
0.8633 0.5671 l
0.8652 0.5671 l
0.8671 0.5671 l
0.8690 0.5671 l
0.8710 0.5671 l
0.8729 0.5671 l
0.8748 0.5671 l
0.8767 0.5671 l
0.8786 0.5671 l
0.8805 0.5671 l
0.8824 0.5671 l
0.8843 0.5671 l
0.8862 0.5671 l
0.8881 0.5671 l
0.8900 0.5671 l
0.8919 0.5671 l
0.8938 0.5671 l
0.8957 0.5671 l
0.8976 0.5671 l
0.8995 0.5671 l
0.9014 0.5671 l
0.9033 0.5671 l
0.9052 0.5671 l
0.9071 0.5671 l
0.9090 0.5671 l
0.9110 0.5671 l
0.9129 0.5671 l
0.9148 0.5671 l
0.9167 0.5671 l
0.9186 0.5671 l
0.9205 0.5671 l
0.9224 0.5671 l
0.9243 0.5671 l
0.9262 0.5671 l
0.9281 0.5671 l
0.9300 0.5671 l
0.9319 0.5671 l
0.9338 0.5671 l
0.9357 0.5671 l
0.9376 0.5671 l
0.9395 0.5671 l
0.9414 0.5671 l
0.9433 0.5671 l
0.9452 0.5671 l
0.9471 0.5671 l
0.9490 0.5671 l
0.9510 0.5671 l
0.9529 0.5671 l
0.9548 0.5671 l
0.9567 0.5671 l
0.9586 0.5671 l
0.9605 0.5671 l
0.9624 0.5671 l
0.9643 0.5671 l
0.9662 0.5671 l
0.9681 0.5671 l
0.9700 0.5671 l
0.9719 0.5671 l
0.9738 0.5671 l
0.9757 0.5671 l
0.9776 0.5671 l
0.9795 0.5671 l
0.9814 0.5671 l
0.9833 0.5671 l
0.9852 0.5671 l
0.9871 0.5671 l
0.9890 0.5671 l
0.9910 0.5671 l
0.9929 0.5671 l
0.9948 0.5671 l
0.9967 0.5671 l
0.9986 0.5671 l
1.0005 0.5671 l
1.0024 0.5671 l
1.0043 0.5671 l
1.0062 0.5671 l
1.0081 0.5671 l
1.0100 0.5671 l
1.0119 0.5671 l
1.0138 0.5671 l
1.0157 0.5671 l
1.0176 0.5671 l
1.0195 0.5671 l
1.0214 0.5671 l
1.0233 0.5671 l
1.0252 0.5671 l
1.0271 0.5671 l
1.0290 0.5671 l
1.0310 0.5671 l
1.0329 0.5671 l
1.0348 0.5671 l
1.0367 0.5671 l
1.0386 0.5671 l
1.0405 0.5671 l
1.0424 0.5671 l
1.0443 0.5671 l
1.0462 0.5671 l
1.0481 0.5671 l
1.0500 0.5671 l
1.0519 0.5671 l
1.0538 0.5671 l
1.0557 0.5671 l
1.0576 0.5671 l
1.0595 0.5671 l
1.0614 0.5671 l
1.0633 0.5671 l
1.0652 0.5671 l
1.0671 0.5671 l
1.0690 0.5671 l
1.0710 0.5671 l
1.0729 0.5671 l
1.0748 0.5671 l
1.0767 0.5671 l
1.0786 0.5671 l
1.0805 0.5671 l
1.0824 0.5671 l
1.0843 0.5671 l
1.0862 0.5671 l
1.0881 0.5671 l
1.0900 0.5671 l
1.0919 0.5671 l
1.0938 0.5671 l
1.0957 0.5671 l
1.0976 0.5671 l
1.0995 0.5671 l
1.1014 0.5671 l
1.1033 0.5671 l
1.1052 0.5671 l
1.1071 0.5671 l
1.1090 0.5671 l
1.1110 0.5671 l
1.1129 0.5671 l
1.1148 0.5671 l
1.1167 0.5671 l
1.1186 0.5671 l
1.1205 0.5671 l
1.1224 0.5671 l
1.1243 0.5671 l
1.1262 0.5671 l
s
[/DeviceRGB] SCS
Color1 SC
n
0.1500 0.1500 m
1.1500 0.1500 l
s
n
0.1500 0.8500 m
1.1500 0.8500 l
s
[0.0015 0.0045 ] 0 SD
0.0015 SLW
n
0.2690 0.1500 m
0.2690 0.1600 l
s
n
0.2690 0.8500 m
0.2690 0.8400 l
s
n
0.4595 0.1500 m
0.4595 0.1600 l
s
n
0.4595 0.8500 m
0.4595 0.8400 l
s
n
0.6500 0.1500 m
0.6500 0.1600 l
s
n
0.6500 0.8500 m
0.6500 0.8400 l
s
n
0.8405 0.1500 m
0.8405 0.1600 l
s
n
0.8405 0.8500 m
0.8405 0.8400 l
s
n
1.0310 0.1500 m
1.0310 0.1600 l
s
n
1.0310 0.8500 m
1.0310 0.8400 l
s
n
0.1738 0.1500 m
0.1738 0.1700 l
s
n
0.1738 0.8500 m
0.1738 0.8300 l
s
n
0.3643 0.1500 m
0.3643 0.1700 l
s
n
0.3643 0.8500 m
0.3643 0.8300 l
s
n
0.5548 0.1500 m
0.5548 0.1700 l
s
n
0.5548 0.8500 m
0.5548 0.8300 l
s
n
0.7452 0.1500 m
0.7452 0.1700 l
s
n
0.7452 0.8500 m
0.7452 0.8300 l
s
n
0.9357 0.1500 m
0.9357 0.1700 l
s
n
0.9357 0.8500 m
0.9357 0.8300 l
s
n
1.1262 0.1500 m
1.1262 0.1700 l
s
n
1.1262 0.8500 m
1.1262 0.8300 l
s
/Times-Roman findfont
dup length dict begin
 {1 index /FID ne {def} {pop pop} ifelse} forall
 /Encoding DefEncoding def
 currentdict
end
/Font21 exch definefont pop
/Font21 FFSF
0.1686 0.1247 m
GS
[0.0224 0.0000 0.0000 0.0224 0 0] CC
(0) show
GR
/Font21 FFSF
0.3598 0.1247 m
GS
[0.0224 0.0000 0.0000 0.0224 0 0] CC
(1) show
GR
/Font21 FFSF
0.5495 0.1247 m
GS
[0.0224 0.0000 0.0000 0.0224 0 0] CC
(2) show
GR
/Font21 FFSF
0.7404 0.1247 m
GS
[0.0224 0.0000 0.0000 0.0224 0 0] CC
(3) show
GR
/Font21 FFSF
0.9305 0.1247 m
GS
[0.0224 0.0000 0.0000 0.0224 0 0] CC
(4) show
GR
/Font21 FFSF
1.1213 0.1247 m
GS
[0.0224 0.0000 0.0000 0.0224 0 0] CC
(5) show
GR
/Font21 FFSF
0.5625 0.0635 m
GS
[0.0280 0.0000 0.0000 0.0280 0 0] CC
(Frequency \(Hz\)) show
GR
[] 0 SD
0.0015 SLW
n
0.1500 0.1500 m
0.1500 0.8500 l
s
n
1.1500 0.1500 m
1.1500 0.8500 l
s
n
0.1500 0.2124 m
0.1600 0.2124 l
s
n
1.1500 0.2124 m
1.1400 0.2124 l
s
n
0.1500 0.3543 m
0.1600 0.3543 l
s
n
1.1500 0.3543 m
1.1400 0.3543 l
s
n
0.1500 0.4961 m
0.1600 0.4961 l
s
n
1.1500 0.4961 m
1.1400 0.4961 l
s
n
0.1500 0.6380 m
0.1600 0.6380 l
s
n
1.1500 0.6380 m
1.1400 0.6380 l
s
n
0.1500 0.7799 m
0.1600 0.7799 l
s
n
1.1500 0.7799 m
1.1400 0.7799 l
s
[0.0015 0.0045 ] 0 SD
0.0015 SLW
n
0.1500 0.2834 m
0.1700 0.2834 l
s
n
1.1500 0.2834 m
1.1300 0.2834 l
s
n
0.1500 0.4252 m
0.1700 0.4252 l
s
n
1.1500 0.4252 m
1.1300 0.4252 l
s
n
0.1500 0.5671 m
0.1700 0.5671 l
s
n
1.1500 0.5671 m
1.1300 0.5671 l
s
n
0.1500 0.7089 m
0.1700 0.7089 l
s
n
1.1500 0.7089 m
1.1300 0.7089 l
s
/Font21 FFSF
0.1227 0.2759 m
GS
[0.0224 0.0000 0.0000 0.0224 0 0] CC
(-8) show
GR
/Font21 FFSF
0.1223 0.4176 m
GS
[0.0224 0.0000 0.0000 0.0224 0 0] CC
(-4) show
GR
/Font21 FFSF
0.1295 0.5596 m
GS
[0.0224 0.0000 0.0000 0.0224 0 0] CC
(0) show
GR
/Font21 FFSF
0.1295 0.7013 m
GS
[0.0224 0.0000 0.0000 0.0224 0 0] CC
(4) show
GR
[] 0 SD
0.0015 SLW
n
0.1500 0.1500 m
0.1500 0.8500 l
1.1500 0.8500 l
1.1500 0.1500 l
0.1500 0.1500 l
c
s
n
0.8500 0.8000 m
0.8500 0.7418 l
0.9529 0.7418 l
0.9529 0.8000 l
c
[/DeviceRGB] SCS
Color0 SC
fill
[/DeviceRGB] SCS
Color1 SC
n
0.8500 0.8000 m
0.8500 0.7418 l
0.9529 0.7418 l
0.9529 0.8000 l
0.8500 0.8000 l
c
s
/Font21 FFSF
0.9208 0.7759 m
GS
[0.0210 0.0000 0.0000 0.0210 0 0] CC
(frf) show
GR
[/DeviceRGB] SCS
Color2 SC
n
0.8608 0.7829 m
0.9008 0.7829 l
s
/Font21 FFSF
[/DeviceRGB] SCS
Color1 SC
0.9208 0.7518 m
GS
[0.0210 0.0000 0.0000 0.0210 0 0] CC
(frf) show
GR
[/DeviceRGB] SCS
Color3 SC
n
0.8608 0.7588 m
0.9008 0.7588 l
s
/Font21 FFSF
[/DeviceRGB] SCS
Color1 SC
0.4312 0.9193 m
GS
[0.0420 0.0000 0.0000 0.0420 0 0] CC
(Frequency response curve) show
GR
%%Trailer
%%BoundingBox: 71 33 686 565
%%DocumentNeededResources: font Times-Roman
%%EOF
