<VTKFile type="UnstructuredGrid" version="0.1" byte_order="LittleEndian">
<UnstructuredGrid>
<Piece NumberOfPoints="    1122" NumberOfCells="    1122">
<PointData Scalars="SIEF_ELGA">
<DataArray type="Float64" NumberOfComponents="1" ComponentName0="SIXX"  Name="SIEF_ELGA" format="ascii">
0.00000E+00
0.00000E+00
0.00000E+00
0.00000E+00
0.00000E+00
0.00000E+00
0.00000E+00
0.00000E+00
0.00000E+00
0.00000E+00
0.00000E+00
0.00000E+00
0.00000E+00
0.00000E+00
0.00000E+00
0.00000E+00
0.00000E+00
0.00000E+00
0.00000E+00
0.00000E+00
0.00000E+00
0.00000E+00
0.00000E+00
0.00000E+00
0.00000E+00
0.00000E+00
0.00000E+00
0.00000E+00
0.00000E+00
0.00000E+00
0.00000E+00
0.00000E+00
0.00000E+00
0.00000E+00
0.00000E+00
0.00000E+00
0.00000E+00
0.00000E+00
0.00000E+00
0.00000E+00
0.00000E+00
0.00000E+00
0.00000E+00
0.00000E+00
0.00000E+00
0.00000E+00
0.00000E+00
0.00000E+00
0.00000E+00
0.00000E+00
0.00000E+00
0.00000E+00
0.00000E+00
0.00000E+00
0.00000E+00
0.00000E+00
0.00000E+00
0.00000E+00
0.00000E+00
0.00000E+00
0.00000E+00
0.00000E+00
0.00000E+00
0.00000E+00
0.00000E+00
0.00000E+00
0.00000E+00
0.00000E+00
0.00000E+00
0.00000E+00
0.00000E+00
0.00000E+00
0.00000E+00
0.00000E+00
0.00000E+00
0.00000E+00
0.00000E+00
0.00000E+00
0.00000E+00
0.00000E+00
0.00000E+00
0.00000E+00
0.00000E+00
0.00000E+00
0.00000E+00
0.00000E+00
0.00000E+00
0.00000E+00
0.00000E+00
0.00000E+00
0.00000E+00
0.00000E+00
0.00000E+00
0.00000E+00
0.00000E+00
0.00000E+00
0.00000E+00
0.00000E+00
0.00000E+00
0.00000E+00
0.00000E+00
0.00000E+00
0.00000E+00
0.00000E+00
0.00000E+00
0.00000E+00
0.00000E+00
0.00000E+00
0.00000E+00
0.00000E+00
0.00000E+00
0.00000E+00
0.00000E+00
0.00000E+00
0.00000E+00
0.00000E+00
0.00000E+00
0.00000E+00
0.00000E+00
0.00000E+00
0.00000E+00
0.00000E+00
0.00000E+00
0.00000E+00
0.00000E+00
0.00000E+00
0.00000E+00
0.00000E+00
0.00000E+00
0.00000E+00
0.00000E+00
0.00000E+00
0.00000E+00
0.00000E+00
0.00000E+00
0.00000E+00
0.00000E+00
0.00000E+00
0.00000E+00
0.00000E+00
0.00000E+00
0.00000E+00
0.00000E+00
0.00000E+00
0.00000E+00
0.00000E+00
0.00000E+00
0.00000E+00
0.00000E+00
0.00000E+00
0.00000E+00
0.00000E+00
0.00000E+00
0.00000E+00
0.00000E+00
0.00000E+00
0.00000E+00
0.00000E+00
0.00000E+00
0.00000E+00
0.00000E+00
0.00000E+00
0.00000E+00
0.00000E+00
0.00000E+00
0.00000E+00
0.00000E+00
0.00000E+00
0.00000E+00
0.00000E+00
0.00000E+00
0.00000E+00
0.00000E+00
0.00000E+00
0.00000E+00
0.00000E+00
0.00000E+00
0.00000E+00
0.00000E+00
0.00000E+00
0.00000E+00
0.00000E+00
0.00000E+00
0.00000E+00
0.00000E+00
0.00000E+00
0.00000E+00
0.00000E+00
0.00000E+00
0.00000E+00
0.00000E+00
0.00000E+00
0.00000E+00
0.00000E+00
0.00000E+00
0.00000E+00
0.00000E+00
0.00000E+00
0.00000E+00
0.00000E+00
0.00000E+00
0.00000E+00
0.00000E+00
0.00000E+00
0.00000E+00
0.00000E+00
0.00000E+00
0.00000E+00
0.00000E+00
0.00000E+00
0.00000E+00
0.00000E+00
0.00000E+00
0.00000E+00
0.00000E+00
0.00000E+00
0.00000E+00
0.00000E+00
0.00000E+00
0.00000E+00
0.00000E+00
0.00000E+00
0.00000E+00
0.00000E+00
0.00000E+00
0.00000E+00
0.00000E+00
0.00000E+00
0.00000E+00
0.00000E+00
0.00000E+00
0.00000E+00
0.00000E+00
0.00000E+00
0.00000E+00
0.00000E+00
0.00000E+00
0.00000E+00
0.00000E+00
0.00000E+00
0.00000E+00
0.00000E+00
0.00000E+00
0.00000E+00
0.00000E+00
0.00000E+00
0.00000E+00
0.00000E+00
0.00000E+00
0.00000E+00
0.00000E+00
0.00000E+00
0.00000E+00
0.00000E+00
0.00000E+00
0.00000E+00
0.00000E+00
0.00000E+00
0.00000E+00
0.00000E+00
0.00000E+00
0.00000E+00
0.00000E+00
0.00000E+00
0.00000E+00
0.00000E+00
0.00000E+00
0.00000E+00
0.00000E+00
0.00000E+00
0.00000E+00
0.00000E+00
0.00000E+00
0.00000E+00
0.00000E+00
0.00000E+00
0.00000E+00
0.00000E+00
0.00000E+00
0.00000E+00
0.00000E+00
0.00000E+00
0.00000E+00
0.00000E+00
0.00000E+00
0.00000E+00
0.00000E+00
0.00000E+00
0.00000E+00
0.00000E+00
0.00000E+00
0.00000E+00
0.00000E+00
0.00000E+00
0.00000E+00
0.00000E+00
0.00000E+00
0.00000E+00
0.00000E+00
0.00000E+00
0.00000E+00
0.00000E+00
0.00000E+00
0.00000E+00
0.00000E+00
0.00000E+00
0.00000E+00
0.00000E+00
0.00000E+00
0.00000E+00
0.00000E+00
0.00000E+00
0.00000E+00
0.00000E+00
0.00000E+00
0.00000E+00
0.00000E+00
0.00000E+00
0.00000E+00
0.00000E+00
0.00000E+00
0.00000E+00
0.00000E+00
0.00000E+00
0.00000E+00
0.00000E+00
0.00000E+00
0.00000E+00
0.00000E+00
0.00000E+00
0.00000E+00
0.00000E+00
0.00000E+00
0.00000E+00
0.00000E+00
0.00000E+00
0.00000E+00
0.00000E+00
0.00000E+00
0.00000E+00
0.00000E+00
0.00000E+00
0.00000E+00
0.00000E+00
0.00000E+00
0.00000E+00
0.00000E+00
0.00000E+00
0.00000E+00
0.00000E+00
0.00000E+00
0.00000E+00
0.00000E+00
0.00000E+00
0.00000E+00
0.00000E+00
0.00000E+00
0.00000E+00
0.00000E+00
0.00000E+00
0.00000E+00
0.00000E+00
0.00000E+00
0.00000E+00
0.00000E+00
0.00000E+00
0.00000E+00
0.00000E+00
0.00000E+00
0.00000E+00
0.00000E+00
0.00000E+00
0.00000E+00
0.00000E+00
0.00000E+00
0.00000E+00
0.00000E+00
0.00000E+00
0.00000E+00
0.00000E+00
0.00000E+00
0.00000E+00
0.00000E+00
0.00000E+00
0.00000E+00
0.00000E+00
0.00000E+00
0.00000E+00
0.00000E+00
0.00000E+00
0.00000E+00
0.00000E+00
0.00000E+00
0.00000E+00
0.00000E+00
0.00000E+00
0.00000E+00
0.00000E+00
0.00000E+00
0.00000E+00
0.00000E+00
0.00000E+00
0.00000E+00
0.00000E+00
0.00000E+00
0.00000E+00
0.00000E+00
0.00000E+00
0.00000E+00
0.00000E+00
0.00000E+00
0.00000E+00
0.00000E+00
0.00000E+00
0.00000E+00
0.00000E+00
0.00000E+00
0.00000E+00
0.00000E+00
0.00000E+00
0.00000E+00
0.00000E+00
0.00000E+00
0.00000E+00
0.00000E+00
0.00000E+00
0.00000E+00
0.00000E+00
0.00000E+00
0.00000E+00
0.00000E+00
0.00000E+00
0.00000E+00
0.00000E+00
0.00000E+00
0.00000E+00
0.00000E+00
0.00000E+00
0.00000E+00
0.00000E+00
0.00000E+00
0.00000E+00
0.00000E+00
0.00000E+00
0.00000E+00
0.00000E+00
0.00000E+00
0.00000E+00
0.00000E+00
0.00000E+00
0.00000E+00
0.00000E+00
0.00000E+00
0.00000E+00
0.00000E+00
0.00000E+00
0.00000E+00
0.00000E+00
0.00000E+00
0.00000E+00
0.00000E+00
0.00000E+00
0.00000E+00
0.00000E+00
0.00000E+00
0.00000E+00
0.00000E+00
0.00000E+00
0.00000E+00
0.00000E+00
0.00000E+00
0.00000E+00
0.00000E+00
0.00000E+00
0.00000E+00
0.00000E+00
0.00000E+00
0.00000E+00
0.00000E+00
0.00000E+00
0.00000E+00
0.00000E+00
0.00000E+00
0.00000E+00
0.00000E+00
0.00000E+00
0.00000E+00
0.00000E+00
0.00000E+00
0.00000E+00
0.00000E+00
0.00000E+00
0.00000E+00
0.00000E+00
0.00000E+00
0.00000E+00
0.00000E+00
0.00000E+00
0.00000E+00
0.00000E+00
0.00000E+00
0.00000E+00
0.00000E+00
0.00000E+00
0.00000E+00
0.00000E+00
0.00000E+00
0.00000E+00
0.00000E+00
0.00000E+00
0.00000E+00
0.00000E+00
0.00000E+00
0.00000E+00
0.00000E+00
0.00000E+00
0.00000E+00
0.00000E+00
0.00000E+00
0.00000E+00
0.00000E+00
0.00000E+00
0.00000E+00
0.00000E+00
0.00000E+00
0.00000E+00
0.00000E+00
0.00000E+00
0.00000E+00
0.00000E+00
0.00000E+00
0.00000E+00
0.00000E+00
0.00000E+00
0.00000E+00
0.00000E+00
0.00000E+00
0.00000E+00
0.00000E+00
0.00000E+00
0.00000E+00
0.00000E+00
0.00000E+00
0.00000E+00
0.00000E+00
0.00000E+00
0.00000E+00
0.00000E+00
0.00000E+00
0.00000E+00
0.00000E+00
0.00000E+00
0.00000E+00
0.00000E+00
0.00000E+00
0.00000E+00
0.00000E+00
0.00000E+00
0.00000E+00
0.00000E+00
0.00000E+00
0.00000E+00
0.00000E+00
0.00000E+00
0.00000E+00
0.00000E+00
0.00000E+00
0.00000E+00
0.00000E+00
0.00000E+00
0.00000E+00
0.00000E+00
0.00000E+00
0.00000E+00
0.00000E+00
0.00000E+00
0.00000E+00
0.00000E+00
0.00000E+00
0.00000E+00
0.00000E+00
0.00000E+00
0.00000E+00
0.00000E+00
0.00000E+00
0.00000E+00
0.00000E+00
0.00000E+00
0.00000E+00
0.00000E+00
0.00000E+00
0.00000E+00
0.00000E+00
0.00000E+00
0.00000E+00
0.00000E+00
0.00000E+00
0.00000E+00
0.00000E+00
0.00000E+00
0.00000E+00
0.00000E+00
0.00000E+00
0.00000E+00
0.00000E+00
0.00000E+00
0.00000E+00
0.00000E+00
0.00000E+00
0.00000E+00
0.00000E+00
0.00000E+00
0.00000E+00
0.00000E+00
0.00000E+00
0.00000E+00
0.00000E+00
0.00000E+00
0.00000E+00
0.00000E+00
0.00000E+00
0.00000E+00
0.00000E+00
0.00000E+00
0.00000E+00
0.00000E+00
0.00000E+00
0.00000E+00
0.00000E+00
0.00000E+00
0.00000E+00
0.00000E+00
0.00000E+00
0.00000E+00
0.00000E+00
0.00000E+00
0.00000E+00
0.00000E+00
0.00000E+00
0.00000E+00
0.00000E+00
0.00000E+00
0.00000E+00
0.00000E+00
0.00000E+00
0.00000E+00
0.00000E+00
0.00000E+00
0.00000E+00
0.00000E+00
0.00000E+00
0.00000E+00
0.00000E+00
0.00000E+00
0.00000E+00
0.00000E+00
0.00000E+00
0.00000E+00
0.00000E+00
0.00000E+00
0.00000E+00
0.00000E+00
0.00000E+00
0.00000E+00
0.00000E+00
0.00000E+00
0.00000E+00
0.00000E+00
0.00000E+00
0.00000E+00
0.00000E+00
0.00000E+00
0.00000E+00
0.00000E+00
0.00000E+00
0.00000E+00
0.00000E+00
0.00000E+00
0.00000E+00
0.00000E+00
0.00000E+00
0.00000E+00
0.00000E+00
0.00000E+00
0.00000E+00
0.00000E+00
0.00000E+00
0.00000E+00
0.00000E+00
0.00000E+00
0.00000E+00
0.00000E+00
0.00000E+00
0.00000E+00
0.00000E+00
0.00000E+00
0.00000E+00
0.00000E+00
0.00000E+00
0.00000E+00
0.00000E+00
0.00000E+00
0.00000E+00
0.00000E+00
0.00000E+00
0.00000E+00
0.00000E+00
0.00000E+00
0.00000E+00
0.00000E+00
0.00000E+00
0.00000E+00
0.00000E+00
0.00000E+00
0.00000E+00
0.00000E+00
0.00000E+00
0.00000E+00
0.00000E+00
0.00000E+00
0.00000E+00
0.00000E+00
0.00000E+00
0.00000E+00
0.00000E+00
0.00000E+00
0.00000E+00
0.00000E+00
0.00000E+00
0.00000E+00
0.00000E+00
0.00000E+00
0.00000E+00
0.00000E+00
0.00000E+00
0.00000E+00
0.00000E+00
0.00000E+00
0.00000E+00
0.00000E+00
0.00000E+00
0.00000E+00
0.00000E+00
0.00000E+00
0.00000E+00
0.00000E+00
0.00000E+00
0.00000E+00
0.00000E+00
0.00000E+00
0.00000E+00
0.00000E+00
0.00000E+00
0.00000E+00
0.00000E+00
0.00000E+00
0.00000E+00
0.00000E+00
0.00000E+00
0.00000E+00
0.00000E+00
0.00000E+00
0.00000E+00
0.00000E+00
0.00000E+00
0.00000E+00
0.00000E+00
0.00000E+00
0.00000E+00
0.00000E+00
0.00000E+00
0.00000E+00
0.00000E+00
0.00000E+00
0.00000E+00
0.00000E+00
0.00000E+00
0.00000E+00
0.00000E+00
0.00000E+00
0.00000E+00
0.00000E+00
0.00000E+00
0.00000E+00
0.00000E+00
0.00000E+00
0.00000E+00
0.00000E+00
0.00000E+00
0.00000E+00
0.00000E+00
0.00000E+00
0.00000E+00
0.00000E+00
0.00000E+00
0.00000E+00
0.00000E+00
0.00000E+00
0.00000E+00
0.00000E+00
0.00000E+00
0.00000E+00
0.00000E+00
0.00000E+00
0.00000E+00
0.00000E+00
0.00000E+00
0.00000E+00
0.00000E+00
0.00000E+00
0.00000E+00
0.00000E+00
0.00000E+00
0.00000E+00
0.00000E+00
0.00000E+00
0.00000E+00
0.00000E+00
0.00000E+00
0.00000E+00
0.00000E+00
0.00000E+00
0.00000E+00
0.00000E+00
0.00000E+00
0.00000E+00
0.00000E+00
0.00000E+00
0.00000E+00
0.00000E+00
0.00000E+00
0.00000E+00
0.00000E+00
0.00000E+00
0.00000E+00
0.00000E+00
0.00000E+00
0.00000E+00
0.00000E+00
0.00000E+00
0.00000E+00
0.00000E+00
0.00000E+00
0.00000E+00
0.00000E+00
0.00000E+00
0.00000E+00
0.00000E+00
0.00000E+00
0.00000E+00
0.00000E+00
0.00000E+00
0.00000E+00
0.00000E+00
0.00000E+00
0.00000E+00
0.00000E+00
0.00000E+00
0.00000E+00
0.00000E+00
0.00000E+00
0.00000E+00
0.00000E+00
0.00000E+00
0.00000E+00
0.00000E+00
0.00000E+00
0.00000E+00
0.00000E+00
0.00000E+00
0.00000E+00
0.00000E+00
0.00000E+00
0.00000E+00
0.00000E+00
0.00000E+00
0.00000E+00
0.00000E+00
0.00000E+00
0.00000E+00
0.00000E+00
0.00000E+00
0.00000E+00
0.00000E+00
0.00000E+00
0.00000E+00
0.00000E+00
0.00000E+00
0.00000E+00
0.00000E+00
0.00000E+00
0.00000E+00
0.00000E+00
0.00000E+00
0.00000E+00
0.00000E+00
0.00000E+00
0.00000E+00
0.00000E+00
0.00000E+00
0.00000E+00
0.00000E+00
0.00000E+00
0.00000E+00
0.00000E+00
0.00000E+00
0.00000E+00
0.00000E+00
0.00000E+00
0.00000E+00
0.00000E+00
0.00000E+00
0.00000E+00
0.00000E+00
0.00000E+00
0.00000E+00
0.00000E+00
0.00000E+00
0.00000E+00
0.00000E+00
0.00000E+00
0.00000E+00
0.00000E+00
0.00000E+00
0.00000E+00
0.00000E+00
0.00000E+00
0.00000E+00
0.00000E+00
0.00000E+00
0.00000E+00
0.00000E+00
0.00000E+00
0.00000E+00
0.00000E+00
0.00000E+00
0.00000E+00
0.00000E+00
0.00000E+00
0.00000E+00
0.00000E+00
0.00000E+00
0.00000E+00
0.00000E+00
0.00000E+00
0.00000E+00
0.00000E+00
0.00000E+00
0.00000E+00
0.00000E+00
0.00000E+00
0.00000E+00
0.00000E+00
0.00000E+00
0.00000E+00
0.00000E+00
0.00000E+00
0.00000E+00
0.00000E+00
0.00000E+00
0.00000E+00
0.00000E+00
0.00000E+00
0.00000E+00
0.00000E+00
0.00000E+00
0.00000E+00
0.00000E+00
0.00000E+00
0.00000E+00
0.00000E+00
0.00000E+00
0.00000E+00
0.00000E+00
0.00000E+00
0.00000E+00
0.00000E+00
0.00000E+00
0.00000E+00
0.00000E+00
0.00000E+00
0.00000E+00
0.00000E+00
0.00000E+00
0.00000E+00
0.00000E+00
0.00000E+00
0.00000E+00
0.00000E+00
0.00000E+00
0.00000E+00
0.00000E+00
0.00000E+00
0.00000E+00
0.00000E+00
0.00000E+00
0.00000E+00
0.00000E+00
0.00000E+00
0.00000E+00
0.00000E+00
0.00000E+00
0.00000E+00
0.00000E+00
0.00000E+00
0.00000E+00
0.00000E+00
0.00000E+00
0.00000E+00
0.00000E+00
0.00000E+00
0.00000E+00
0.00000E+00
0.00000E+00
0.00000E+00
0.00000E+00
0.00000E+00
0.00000E+00
0.00000E+00
0.00000E+00
0.00000E+00
0.00000E+00
0.00000E+00
0.00000E+00
0.00000E+00
0.00000E+00
0.00000E+00
0.00000E+00
0.00000E+00
0.00000E+00
0.00000E+00
0.00000E+00
0.00000E+00
0.00000E+00
0.00000E+00
0.00000E+00
0.00000E+00
0.00000E+00
0.00000E+00
0.00000E+00
0.00000E+00
0.00000E+00
0.00000E+00
0.00000E+00
0.00000E+00
0.00000E+00
0.00000E+00
0.00000E+00
0.00000E+00
0.00000E+00
0.00000E+00
0.00000E+00
0.00000E+00
0.00000E+00
0.00000E+00
0.00000E+00
0.00000E+00
0.00000E+00
0.00000E+00
0.00000E+00
0.00000E+00
0.00000E+00
0.00000E+00
0.00000E+00
0.00000E+00
0.00000E+00
0.00000E+00
0.00000E+00
0.00000E+00
0.00000E+00
0.00000E+00
0.00000E+00
0.00000E+00
0.00000E+00
0.00000E+00
0.00000E+00
0.00000E+00
0.00000E+00
0.00000E+00
0.00000E+00
0.00000E+00
0.00000E+00
0.00000E+00
0.00000E+00
0.00000E+00
0.00000E+00
0.00000E+00
0.00000E+00
0.00000E+00
0.00000E+00
0.00000E+00
0.00000E+00
0.00000E+00
0.00000E+00
0.00000E+00
0.00000E+00
0.00000E+00
0.00000E+00
0.00000E+00
0.00000E+00
0.00000E+00
0.00000E+00
0.00000E+00
0.00000E+00
0.00000E+00
0.00000E+00
0.00000E+00
0.00000E+00
0.00000E+00
0.00000E+00
0.00000E+00
0.00000E+00
0.00000E+00
0.00000E+00
0.00000E+00
0.00000E+00
0.00000E+00
0.00000E+00
0.00000E+00
0.00000E+00
0.00000E+00
0.00000E+00
</DataArray>
</PointData>
<CellData>
</CellData>
<Points>
<DataArray type="Float64" NumberOfComponents="3" format="ascii">
5.77350E-01 -1.36836E-01 -2.87819E-01
5.77350E-01 -1.40882E-01 -2.49910E-01
5.77350E-01 -1.45069E-01 -2.01898E-01
5.77350E-01 -1.44117E-01 -1.83440E-01
5.77350E-01 -1.39186E-01 -1.92354E-01
5.77350E-01 -1.43993E-01 -1.64159E-01
5.77350E-01 -1.38109E-01 -1.73062E-01
5.77350E-01 -1.42702E-01 -1.38775E-01
5.77350E-01 -1.36695E-01 -1.51058E-01
5.77350E-01 -1.33695E-01 -5.49906E-02
5.77350E-01 -1.32427E-01 4.66017E-03
5.77350E-01 -1.16122E-01 -2.57324E-02
5.77350E-01 -1.35251E-01 6.06421E-02
5.77350E-01 -1.17677E-01 3.29663E-02
5.77350E-01 -1.39875E-01 1.36895E-01
5.77350E-01 -1.42778E-01 1.85380E-01
5.77350E-01 -1.44000E-01 2.03867E-01
5.77350E-01 -1.36979E-01 2.20536E-01
5.77350E-01 -1.44453E-01 2.49178E-01
5.77350E-01 -1.38956E-01 2.76665E-01
5.77350E-01 -1.23204E-01 2.89052E-01
5.77350E-01 -1.33409E-01 2.59483E-01
5.77350E-01 -9.01438E-02 -2.89306E-01
5.77350E-01 2.13575E-03 -2.83067E-01
5.77350E-01 9.36816E-02 -2.88258E-01
5.77350E-01 1.36836E-01 -2.87690E-01
5.77350E-01 -8.00912E-02 2.89279E-01
5.77350E-01 -1.00616E-01 2.78331E-01
5.77350E-01 7.91437E-02 2.90086E-01
5.77350E-01 1.22733E-01 2.89750E-01
5.77350E-01 1.38485E-01 2.77222E-01
5.77350E-01 9.91334E-02 2.79836E-01
5.77350E-01 1.42633E-01 -2.45607E-01
5.77350E-01 1.40617E-01 -1.60310E-01
5.77350E-01 1.36864E-01 -8.64969E-02
5.77350E-01 1.32173E-01 3.27664E-02
5.77350E-01 1.40295E-01 1.35116E-01
5.77350E-01 1.35717E-01 1.76242E-01
5.77350E-01 1.44000E-01 1.95181E-01
5.77350E-01 1.29419E-01 2.58001E-01
5.77350E-01 -1.12805E-01 2.33620E-01
5.77350E-01 -9.62102E-02 2.36453E-01
5.77350E-01 -7.98210E-02 2.30714E-01
5.77350E-01 -6.72395E-02 2.17730E-01
5.77350E-01 -6.34489E-02 2.00014E-01
5.77350E-01 -6.79333E-02 1.82427E-01
5.77350E-01 -7.97821E-02 1.69966E-01
5.77350E-01 -9.62043E-02 1.62775E-01
5.77350E-01 -1.13847E-01 1.66040E-01
5.77350E-01 -1.26466E-01 1.75773E-01
5.77350E-01 -1.23522E-01 1.66137E-01
5.77350E-01 -1.37073E-01 1.76337E-01
5.77350E-01 -1.11233E-01 -1.97422E-01
5.77350E-01 -1.08934E-01 -1.92344E-01
5.77350E-01 -1.02435E-01 -1.88790E-01
5.77350E-01 -9.68327E-02 -1.88810E-01
5.77350E-01 -9.19071E-02 -1.91867E-01
5.77350E-01 -8.85337E-02 -1.97768E-01
5.77350E-01 -8.90319E-02 -2.03188E-01
5.77350E-01 -9.16114E-02 -2.07904E-01
5.77350E-01 -9.76419E-02 -2.11349E-01
5.77350E-01 -1.03144E-01 -2.10859E-01
5.77350E-01 -1.07949E-01 -2.07888E-01
5.77350E-01 -1.10859E-01 -2.03171E-01
5.77350E-01 1.11018E-01 -1.96877E-01
5.77350E-01 1.08285E-01 -1.91932E-01
5.77350E-01 1.03447E-01 -1.89125E-01
5.77350E-01 9.67949E-02 -1.89139E-01
5.77350E-01 9.20685E-02 -1.91670E-01
5.77350E-01 8.85119E-02 -1.97386E-01
5.77350E-01 8.87452E-02 -2.02854E-01
5.77350E-01 9.15081E-02 -2.07819E-01
5.77350E-01 9.71619E-02 -2.11246E-01
5.77350E-01 1.02659E-01 -2.11489E-01
5.77350E-01 1.08982E-01 -2.07812E-01
5.77350E-01 1.11343E-01 -2.02555E-01
5.77350E-01 1.21973E-01 2.28891E-01
5.77350E-01 1.12720E-01 2.34081E-01
5.77350E-01 9.25281E-02 2.35987E-01
5.77350E-01 7.55311E-02 2.28788E-01
5.77350E-01 6.44280E-02 2.08727E-01
5.77350E-01 6.42607E-02 1.91761E-01
5.77350E-01 7.56224E-02 1.73151E-01
5.77350E-01 9.07607E-02 1.65530E-01
5.77350E-01 1.08414E-01 1.65082E-01
5.77350E-01 -1.23922E-01 8.17512E-02
5.77350E-01 -1.44538E-01 -2.22025E-01
5.77350E-01 -1.20964E-01 -7.92458E-02
5.77350E-01 -1.37269E-01 -1.03167E-01
5.77350E-01 -1.29709E-01 1.48027E-01
5.77350E-01 -1.38671E-01 1.03456E-01
5.77350E-01 -1.44295E-01 1.65882E-01
5.77350E-01 -1.44201E-01 2.27660E-01
5.77350E-01 2.87083E-02 -2.69295E-01
5.77350E-01 -4.87980E-02 -2.86160E-01
5.77350E-01 5.16736E-02 -2.86228E-01
5.77350E-01 1.20010E-01 -2.75948E-01
5.77350E-01 -6.98081E-02 -2.75466E-01
5.77350E-01 5.80894E-02 2.78361E-01
5.77350E-01 -2.23991E-02 2.88802E-01
5.77350E-01 3.23587E-02 2.88274E-01
5.77350E-01 -1.22387E-01 2.33294E-01
5.77350E-01 1.44321E-01 -2.18817E-01
5.77350E-01 1.39853E-01 -1.27154E-01
5.77350E-01 1.33293E-01 -3.19810E-02
5.77350E-01 1.35202E-01 9.09835E-02
5.77350E-01 1.43229E-01 1.66608E-01
5.77350E-01 -8.65120E-02 2.39531E-01
5.77350E-01 1.42488E-01 2.16601E-01
5.77350E-01 -1.05453E-01 2.40732E-01
5.77350E-01 -1.26372E-01 2.23999E-01
5.77350E-01 -1.39607E-01 -2.12050E-01
5.77350E-01 -1.28545E-01 1.19397E-01
5.77350E-01 7.47921E-02 -2.74486E-01
5.77350E-01 1.39455E-01 -2.08314E-01
5.77350E-01 9.22526E-03 2.77076E-01
5.77350E-01 1.30470E-01 -1.45195E-01
5.77350E-01 1.20157E-01 -6.23985E-02
5.77350E-01 1.17375E-01 6.06145E-02
5.77350E-01 1.33524E-01 1.50403E-01
5.77350E-01 1.33421E-01 2.29376E-01
5.77350E-01 -6.91838E-02 2.28845E-01
5.77350E-01 -5.93860E-02 2.10671E-01
5.77350E-01 -6.00798E-02 1.89514E-01
5.77350E-01 -6.98386E-02 1.71992E-01
5.77350E-01 -8.64672E-02 1.60377E-01
5.77350E-01 -1.06488E-01 1.58156E-01
5.77350E-01 -1.09204E-01 -1.88937E-01
5.77350E-01 -1.05659E-01 -1.87060E-01
5.77350E-01 -1.12253E-01 -1.94295E-01
5.77350E-01 -9.93602E-02 -1.86663E-01
5.77350E-01 -9.34334E-02 -1.88486E-01
5.77350E-01 -8.63278E-02 -1.94974E-01
5.77350E-01 -8.66843E-02 -2.00847E-01
5.77350E-01 -8.85034E-02 -2.06469E-01
5.77350E-01 -9.48291E-02 -2.13308E-01
5.77350E-01 -1.00781E-01 -2.13088E-01
5.77350E-01 -1.06541E-01 -2.10865E-01
5.77350E-01 -1.10924E-01 -2.06511E-01
5.77350E-01 1.11384E-01 -1.93335E-01
5.77350E-01 1.07131E-01 -1.88916E-01
5.77350E-01 1.01855E-01 -1.86593E-01
5.77350E-01 9.34388E-02 -1.88663E-01
5.77350E-01 8.84263E-02 -1.91464E-01
5.77350E-01 8.63785E-02 -2.00230E-01
5.77350E-01 8.81534E-02 -2.06130E-01
5.77350E-01 9.11721E-02 -2.11413E-01
5.77350E-01 9.98866E-02 -2.13614E-01
5.77350E-01 1.06070E-01 -2.13785E-01
5.77350E-01 1.12464E-01 -2.05806E-01
5.77350E-01 1.13239E-01 -1.99431E-01
5.77350E-01 -5.78258E-02 -1.66420E-01
5.77350E-01 1.05519E-01 2.40895E-01
5.77350E-01 8.28024E-02 2.39599E-01
5.77350E-01 6.38358E-02 2.30700E-01
5.77350E-01 5.78634E-02 2.00488E-01
5.77350E-01 5.84397E-02 1.82287E-01
5.77350E-01 8.11263E-02 1.63857E-01
5.77350E-01 9.94445E-02 1.59786E-01
5.77350E-01 1.18408E-01 1.63622E-01
5.77350E-01 1.24269E-01 1.73096E-01
5.77350E-01 -1.07354E-01 -2.74034E-01
5.77350E-01 -1.12973E-01 -2.00593E-01
5.77350E-01 -2.44199E-02 -2.69227E-01
5.77350E-01 1.26717E-01 -1.08896E-01
5.77350E-01 1.15466E-01 -2.28488E-03
5.77350E-01 1.25496E-01 1.12341E-01
5.77350E-01 -8.93199E-02 -7.86779E-02
5.77350E-01 -1.27338E-01 -1.70778E-01
5.77350E-01 -1.11744E-01 1.46777E-01
5.77350E-01 -8.02773E-02 3.08741E-02
5.77350E-01 7.83286E-02 -2.54289E-01
5.77350E-01 -1.36778E-01 1.93594E-01
5.77350E-01 -1.31707E-01 -2.12666E-01
5.77350E-01 -1.16956E-01 -2.01631E-01
5.77350E-01 2.94983E-02 -2.42450E-01
5.77350E-01 -1.38654E-01 2.38495E-01
5.77350E-01 1.04642E-01 -1.12189E-01
5.77350E-01 -6.31169E-02 2.74593E-01
5.77350E-01 -9.84087E-02 2.60889E-01
5.77350E-01 1.12691E-01 -1.46446E-01
5.77350E-01 9.99987E-02 -1.31697E-01
5.77350E-01 -1.27447E-01 2.40667E-01
5.77350E-01 -8.43736E-02 2.52170E-01
5.77350E-01 7.69777E-02 -8.06907E-03
5.77350E-01 1.04991E-01 1.12167E-01
5.77350E-01 1.36488E-01 1.88368E-01
5.77350E-01 -1.36778E-01 2.10273E-01
5.77350E-01 1.36488E-01 2.06813E-01
5.77350E-01 -1.16906E-01 -1.93387E-01
5.77350E-01 1.20151E-01 1.50563E-01
5.77350E-01 -7.94381E-02 -2.65091E-02
5.77350E-01 -5.83428E-02 1.79123E-03
5.77350E-01 -6.53677E-02 -5.51995E-02
5.77350E-01 9.62361E-02 2.62619E-01
5.77350E-01 8.22466E-02 5.47192E-02
5.77350E-01 -4.84077E-02 2.12968E-01
5.77350E-01 -5.08583E-02 1.86692E-01
5.77350E-01 -6.30054E-02 1.62678E-01
5.77350E-01 -8.19607E-02 1.50241E-01
5.77350E-01 -9.92015E-02 -1.82534E-01
5.77350E-01 -9.15512E-02 -1.85659E-01
5.77350E-01 -8.80874E-02 -1.91968E-01
5.77350E-01 -8.26079E-02 -2.01810E-01
5.77350E-01 -8.48566E-02 -2.08102E-01
5.77350E-01 -9.16736E-02 -2.11507E-01
5.77350E-01 -1.01854E-01 -2.16699E-01
5.77350E-01 -1.08371E-01 -2.13644E-01
5.77350E-01 -1.13692E-01 -2.08588E-01
5.77350E-01 1.14838E-01 -1.91692E-01
5.77350E-01 1.08880E-01 -1.85694E-01
5.77350E-01 9.85903E-02 -1.86606E-01
5.77350E-01 9.20184E-02 -1.85497E-01
5.77350E-01 8.65077E-02 -1.94307E-01
5.77350E-01 8.18185E-02 -2.00281E-01
5.77350E-01 8.52315E-02 -2.07749E-01
5.77350E-01 9.39578E-02 -2.13165E-01
5.77350E-01 9.95788E-02 -2.17415E-01
5.77350E-01 1.09475E-01 -2.11787E-01
5.77350E-01 1.17312E-01 -2.06501E-01
5.77350E-01 1.17553E-01 -1.98662E-01
5.77350E-01 -6.11080E-02 2.40419E-01
5.77350E-01 8.12596E-02 2.53814E-01
5.77350E-01 5.80091E-02 2.19844E-01
5.77350E-01 4.74400E-02 2.00770E-01
5.77350E-01 6.45250E-02 1.72881E-01
5.77350E-01 7.84643E-02 1.53241E-01
5.77350E-01 9.84558E-02 1.50365E-01
5.77350E-01 1.09167E-01 1.42602E-01
5.77350E-01 8.71101E-02 1.45493E-01
5.77350E-01 -9.83925E-02 8.14284E-02
5.77350E-01 -1.01870E-01 1.34887E-01
5.77350E-01 -8.70403E-02 1.36745E-01
5.77350E-01 -1.08507E-01 1.18639E-01
5.77350E-01 -1.34130E-01 1.59503E-01
5.77350E-01 -4.60641E-02 1.74554E-01
5.77350E-01 -5.08250E-02 1.63542E-01
5.77350E-01 1.25807E-01 -2.56761E-01
5.77350E-01 -1.17610E-01 -2.06287E-01
5.77350E-01 1.18767E-02 -2.26002E-01
5.77350E-01 -6.96069E-02 2.54927E-01
5.77350E-01 8.60252E-02 -9.47756E-02
5.77350E-01 6.31026E-02 2.59306E-01
5.77350E-01 -1.35420E-01 -2.36571E-01
5.77350E-01 -4.03422E-02 2.74115E-01
5.77350E-01 1.30531E-01 -2.08587E-01
5.77350E-01 1.24271E-02 2.56139E-01
5.77350E-01 -1.09790E-01 2.52529E-01
5.77350E-01 -8.11859E-02 -1.95010E-01
5.77350E-01 -7.93155E-02 -1.98767E-01
5.77350E-01 1.02035E-01 1.29963E-01
5.77350E-01 1.36954E-01 -2.30886E-01
5.77350E-01 9.13934E-02 -6.73847E-02
5.77350E-01 5.85564E-02 2.10869E-02
5.77350E-01 1.38554E-01 -1.86404E-01
5.77350E-01 -1.19869E-01 -1.97551E-01
5.77350E-01 1.10769E-01 2.53312E-01
5.77350E-01 6.60414E-02 -4.27514E-02
5.77350E-01 -8.71754E-02 -1.85649E-01
5.77350E-01 -8.52377E-02 -1.88577E-01
5.77350E-01 -3.84925E-02 2.03931E-01
5.77350E-01 -4.02494E-02 1.93706E-01
5.77350E-01 -1.05802E-01 -1.82993E-01
5.77350E-01 -1.02419E-01 -1.80594E-01
5.77350E-01 -7.23217E-02 5.82271E-02
5.77350E-01 6.60374E-02 1.50471E-01
5.77350E-01 5.76020E-02 1.60817E-01
5.77350E-01 4.40072E-02 1.82056E-01
5.77350E-01 3.94047E-02 1.91812E-01
5.77350E-01 -4.51991E-02 2.39120E-01
5.77350E-01 -3.09232E-02 2.53151E-01
5.77350E-01 -3.99239E-02 2.25322E-01
5.77350E-01 1.20505E-01 -2.02480E-01
5.77350E-01 1.18590E-01 -2.11099E-01
5.77350E-01 1.14235E-01 -2.14379E-01
5.77350E-01 1.06204E-01 -2.19316E-01
5.77350E-01 1.02486E-01 -2.20821E-01
5.77350E-01 9.61427E-02 -2.19239E-01
5.77350E-01 9.32463E-02 -2.17358E-01
5.77350E-01 8.72724E-02 -2.14042E-01
5.77350E-01 8.46865E-02 -2.12067E-01
5.77350E-01 8.18074E-02 -2.06568E-01
5.77350E-01 7.97280E-02 -2.03347E-01
5.77350E-01 7.88579E-02 -1.96718E-01
5.77350E-01 8.14136E-02 -1.93587E-01
5.77350E-01 8.60364E-02 -1.87398E-01
5.77350E-01 8.82584E-02 -1.84438E-01
5.77350E-01 9.41112E-02 -1.81967E-01
5.77350E-01 9.73270E-02 -1.82599E-01
5.77350E-01 -1.18113E-01 -1.88645E-01
5.77350E-01 -1.13729E-01 -1.86146E-01
5.77350E-01 1.03137E-01 -1.82652E-01
5.77350E-01 1.06479E-01 -1.81962E-01
5.77350E-01 1.13207E-01 -1.83805E-01
5.77350E-01 1.16114E-01 -1.86602E-01
5.77350E-01 -1.12547E-01 -2.12743E-01
5.77350E-01 -1.15491E-01 -2.16491E-01
5.77350E-01 -1.06048E-01 -2.17248E-01
5.77350E-01 -1.07786E-01 -2.21017E-01
5.77350E-01 -9.49208E-02 -2.18111E-01
5.77350E-01 -9.88069E-02 -2.19763E-01
5.77350E-01 -8.41209E-02 -2.12202E-01
5.77350E-01 -8.78299E-02 -2.14171E-01
5.77350E-01 -9.57420E-02 -1.79652E-01
5.77350E-01 -9.23610E-02 -1.81431E-01
5.77350E-01 -1.30065E-01 -1.92129E-01
5.77350E-01 -6.84424E-02 1.50516E-01
5.77350E-01 5.29501E-02 2.47003E-01
5.77350E-01 3.33127E-02 2.45121E-01
5.77350E-01 1.40933E-01 2.44706E-01
5.77350E-01 -8.13087E-02 -2.05784E-01
5.77350E-01 -2.63567E-02 -2.41720E-01
5.77350E-01 1.24081E-01 -1.90742E-01
5.77350E-01 -1.23794E-01 -2.37829E-01
5.77350E-01 1.26081E-01 -2.29577E-01
5.77350E-01 -7.95414E-02 -1.00479E-01
5.77350E-01 -9.53183E-03 -2.25339E-01
5.77350E-01 -1.27718E-01 -2.72547E-01
5.77350E-01 -1.21008E-01 -1.59511E-01
5.77350E-01 -1.24482E-01 -1.48695E-01
5.77350E-01 4.49632E-02 2.20924E-01
5.77350E-01 1.70595E-02 -2.03180E-01
5.77350E-01 -9.77836E-03 2.46900E-01
5.77350E-01 1.27190E-01 -2.01515E-01
5.77350E-01 -1.12411E-01 -2.45089E-01
5.77350E-01 -1.22202E-01 2.52789E-01
5.77350E-01 1.34036E-01 -1.74045E-01
5.77350E-01 8.70213E-02 1.32504E-01
5.77350E-01 4.09586E-02 2.10089E-01
5.77350E-01 -1.10967E-01 -1.58305E-01
5.77350E-01 -1.15175E-01 -1.37369E-01
5.77350E-01 3.11526E-02 2.29898E-01
5.77350E-01 9.29151E-04 2.01501E-01
5.77350E-01 1.29534E-01 -1.93975E-01
5.77350E-01 7.39174E-02 1.26050E-01
5.77350E-01 -1.01817E-01 -1.39108E-01
5.77350E-01 -1.01082E-01 -1.49227E-01
5.77350E-01 6.54193E-02 -1.27377E-01
5.77350E-01 -6.08934E-02 1.36247E-01
5.77350E-01 -9.58716E-02 -1.15494E-01
5.77350E-01 1.10514E-01 -2.49147E-01
5.77350E-01 -4.23957E-02 6.58146E-02
5.77350E-01 2.80449E-02 2.08612E-01
5.77350E-01 2.66582E-02 1.96691E-01
5.77350E-01 1.96730E-02 2.20727E-01
5.77350E-01 1.18785E-01 -1.94464E-01
5.77350E-01 6.37161E-02 -1.04808E-01
5.77350E-01 1.16466E-01 -2.36685E-01
5.77350E-01 3.54931E-02 -5.65207E-02
5.77350E-01 -4.54506E-02 -1.11802E-01
5.77350E-01 -9.31033E-02 1.02375E-01
5.77350E-01 -7.63086E-02 -2.07412E-01
5.77350E-01 9.50889E-02 -2.48138E-01
5.77350E-01 -1.76408E-02 -2.00749E-01
5.77350E-01 1.22501E-01 -1.84952E-01
5.77350E-01 -1.29971E-01 -1.20364E-01
5.77350E-01 -1.18864E-03 -1.88503E-01
5.77350E-01 6.50021E-02 -2.43230E-01
5.77350E-01 1.25123E-01 -2.14149E-01
5.77350E-01 1.37835E-02 2.27574E-02
5.77350E-01 1.23174E-01 -2.20930E-01
5.77350E-01 -1.21743E-01 -2.08901E-01
5.77350E-01 6.15793E-02 1.36269E-01
5.77350E-01 3.85360E-02 -9.11864E-02
5.77350E-01 -7.41669E-02 -1.99714E-01
5.77350E-01 -7.24592E-02 -2.04385E-01
5.77350E-01 -9.11119E-02 -1.52198E-01
5.77350E-01 8.66752E-02 9.90417E-02
5.77350E-01 -8.02910E-02 -1.87887E-01
5.77350E-01 -7.79988E-02 -1.91314E-01
5.77350E-01 -3.01176E-02 1.86232E-01
5.77350E-01 -3.38205E-02 1.75041E-01
5.77350E-01 -1.03363E-01 -1.75938E-01
5.77350E-01 4.81950E-03 2.19020E-01
5.77350E-01 -4.18908E-02 1.51938E-01
5.77350E-01 -4.65222E-02 1.36805E-01
5.77350E-01 -1.27818E-01 -2.05890E-01
5.77350E-01 4.08904E-02 1.58922E-01
5.77350E-01 1.08934E-01 -2.30977E-01
5.77350E-01 -2.48303E-02 2.21896E-01
5.77350E-01 -1.08266E-01 -1.65941E-01
5.77350E-01 -2.48169E-02 2.08594E-01
5.77350E-01 7.12331E-02 -2.31027E-01
5.77350E-01 -1.44044E-02 -4.13984E-03
5.77350E-01 -1.20770E-01 -2.14951E-01
5.77350E-01 1.15574E-01 -2.20257E-01
5.77350E-01 7.06153E-02 1.10383E-01
5.77350E-01 -9.54870E-02 -1.73959E-01
5.77350E-01 3.33809E-02 1.70755E-01
5.77350E-01 8.95253E-02 -2.20432E-01
5.77350E-01 8.63371E-02 -2.18868E-01
5.77350E-01 8.08121E-02 -2.13226E-01
5.77350E-01 7.90373E-02 -2.09813E-01
5.77350E-01 7.45067E-02 -2.04790E-01
5.77350E-01 7.26873E-02 -1.96796E-01
5.77350E-01 7.92353E-02 -1.89808E-01
5.77350E-01 8.19395E-02 -1.86462E-01
5.77350E-01 8.75266E-02 -1.79527E-01
5.77350E-01 9.15650E-02 -1.77904E-01
5.77350E-01 1.00151E-01 -1.79982E-01
5.77350E-01 9.99272E-02 -1.74353E-01
5.77350E-01 -1.13289E-01 -1.81708E-01
5.77350E-01 -1.08906E-01 -1.80432E-01
5.77350E-01 1.08361E-01 -1.77688E-01
5.77350E-01 -1.14657E-01 -1.21321E-01
5.77350E-01 1.13130E-01 -1.78403E-01
5.77350E-01 -1.03673E-01 -2.55774E-01
5.77350E-01 -9.99965E-02 -2.25014E-01
5.77350E-01 -1.04781E-01 -2.25719E-01
5.77350E-01 -2.89280E-02 -6.33276E-02
5.77350E-01 -8.74768E-02 -2.18646E-01
5.77350E-01 -9.14122E-02 -2.20785E-01
5.77350E-01 -8.85489E-02 -1.79087E-01
5.77350E-01 -8.54379E-02 -1.81960E-01
5.77350E-01 -1.26598E-01 -1.99196E-01
5.77350E-01 -3.44024E-02 -1.91583E-01
5.77350E-01 -7.18303E-02 -2.57049E-01
5.77350E-01 -9.69108E-02 -2.36457E-01
5.77350E-01 -1.24543E-01 -1.85742E-01
5.77350E-01 1.23436E-01 -1.75827E-01
5.77350E-01 6.27849E-02 -2.21700E-01
5.77350E-01 -6.12772E-02 -2.44661E-01
5.77350E-01 -1.22588E-01 -2.26855E-01
5.77350E-01 9.39992E-04 -4.05683E-02
5.77350E-01 -7.17655E-02 1.08030E-01
5.77350E-01 -7.55756E-02 -2.11918E-01
5.77350E-01 -7.98400E-02 -2.14390E-01
5.77350E-01 -7.23389E-02 1.26152E-01
5.77350E-01 -1.26313E-01 -2.19031E-01
5.77350E-01 -4.71288E-02 9.46710E-02
5.77350E-01 -1.28376E-02 1.98622E-01
5.77350E-01 -3.05318E-03 5.44314E-02
5.77350E-01 4.64916E-02 1.32218E-01
5.77350E-01 3.42381E-02 1.44525E-01
5.77350E-01 -8.79468E-02 -1.29282E-01
5.77350E-01 1.06048E-01 -1.58868E-01
5.77350E-01 7.20525E-02 7.70144E-02
5.77350E-01 4.70554E-02 8.08273E-02
5.77350E-01 1.97515E-02 7.64726E-02
5.77350E-01 5.13258E-02 1.03900E-01
5.77350E-01 1.43960E-02 1.91286E-01
5.77350E-01 9.35612E-02 -2.36424E-01
5.77350E-01 1.65162E-02 1.75106E-01
5.77350E-01 9.97490E-02 -2.25448E-01
5.77350E-01 9.27758E-02 -1.58593E-01
5.77350E-01 -1.87895E-02 -9.81292E-02
5.77350E-01 -1.14606E-01 -2.27444E-01
5.77350E-01 -4.26754E-02 -1.69228E-01
5.77350E-01 -8.84848E-02 -2.52630E-01
5.77350E-01 -9.98904E-02 -1.72186E-01
5.77350E-01 -1.63814E-02 1.86484E-01
5.77350E-01 8.25056E-02 -1.51326E-01
5.77350E-01 -1.08748E-01 -2.30729E-01
5.77350E-01 7.13719E-02 -1.58502E-01
5.77350E-01 3.29926E-02 -1.96238E-01
5.77350E-01 -8.96061E-03 2.29443E-01
5.77350E-01 -4.69115E-03 -1.63371E-01
5.77350E-01 4.94531E-02 -2.20830E-01
5.77350E-01 4.58634E-02 -2.06469E-01
5.77350E-01 7.98583E-02 -2.28599E-01
5.77350E-01 -7.16114E-02 -1.91315E-01
5.77350E-01 -9.55273E-02 -2.29080E-01
5.77350E-01 1.45134E-01 -1.93671E-01
5.77350E-01 -6.51322E-02 -2.05783E-01
5.77350E-01 -9.08290E-02 -2.26503E-01
5.77350E-01 3.95402E-02 1.15517E-01
5.77350E-01 1.04797E-01 -1.72749E-01
5.77350E-01 -7.78488E-02 -1.83231E-01
5.77350E-01 -2.34706E-02 1.66133E-01
5.77350E-01 -1.07880E-02 1.73133E-01
5.77350E-01 -2.67800E-02 1.54042E-01
5.77350E-01 3.54762E-02 -1.75314E-01
5.77350E-01 -2.94163E-02 -1.53261E-01
5.77350E-01 -1.05346E-01 -2.37400E-01
5.77350E-01 1.60405E-02 -1.57124E-01
5.77350E-01 -1.00729E-01 -1.65725E-01
5.77350E-01 3.46428E-03 1.66359E-01
5.77350E-01 1.10782E-01 -1.67601E-01
5.77350E-01 7.04266E-02 -2.01802E-01
5.77350E-01 -8.10580E-02 -1.80232E-01
5.77350E-01 1.10948E-01 -2.23196E-01
5.77350E-01 -6.96499E-02 -1.95958E-01
5.77350E-01 -8.25933E-02 -2.22428E-01
5.77350E-01 1.01454E-01 -2.31724E-01
5.77350E-01 6.98135E-02 -1.91767E-01
5.77350E-01 7.38057E-02 -1.87911E-01
5.77350E-01 4.86395E-02 -2.36582E-01
5.77350E-01 -7.07408E-02 -2.14862E-01
5.77350E-01 5.06741E-02 -1.71234E-01
5.77350E-01 8.30855E-02 -1.36852E-01
5.77350E-01 6.60199E-02 -2.13803E-01
5.77350E-01 -7.04161E-02 -2.34243E-01
5.77350E-01 -7.86655E-02 -2.20141E-01
5.77350E-01 -8.12723E-02 -2.35003E-01
5.77350E-01 -8.46970E-02 -2.27881E-01
5.77350E-01 -6.67008E-02 -2.25594E-01
5.77350E-01 5.99112E-02 -1.80696E-01
5.77350E-01 5.08237E-02 -1.40112E-01
5.77350E-01 2.47059E-02 -1.36393E-01
5.77350E-01 -1.13053E-01 -2.21161E-01
5.77350E-01 2.15131E-03 1.45660E-01
5.77350E-01 1.57499E-02 1.36072E-01
5.77350E-01 -1.54104E-02 1.40343E-01
5.77350E-01 -2.93382E-02 1.27371E-01
5.77350E-01 9.45575E-02 -1.72907E-01
5.77350E-01 5.73562E-02 -1.56763E-01
5.77350E-01 3.54795E-03 1.00266E-01
5.77350E-01 -4.59303E-02 -1.34330E-01
5.77350E-01 -7.28085E-02 -2.20851E-01
5.77350E-01 -9.34602E-02 -1.61059E-01
5.77350E-01 -7.22472E-02 -1.81840E-01
5.77350E-01 -6.83020E-02 -1.86497E-01
5.77350E-01 -4.55967E-02 -2.02173E-01
5.77350E-01 -7.20963E-02 -1.36795E-01
5.77350E-01 -7.59963E-02 -1.49592E-01
5.77350E-01 9.55952E-02 -2.24086E-01
5.77350E-01 -8.12562E-02 -1.75006E-01
5.77350E-01 7.95134E-02 -1.81569E-01
5.77350E-01 1.41214E-02 -1.10036E-01
5.77350E-01 -8.87879E-02 -2.41001E-01
5.77350E-01 8.28785E-02 -1.77594E-01
5.77350E-01 7.40320E-02 -1.82312E-01
5.77350E-01 -9.01434E-02 -1.71184E-01
5.77350E-01 -7.81389E-02 -1.64441E-01
5.77350E-01 -4.61463E-02 -2.35570E-01
5.77350E-01 -8.72779E-02 -1.64745E-01
5.77350E-01 -1.11559E-01 -1.72300E-01
5.77350E-01 -1.16021E-01 -1.76294E-01
5.77350E-01 -7.56744E-02 -1.71354E-01
5.77350E-01 -6.98746E-02 -1.75189E-01
5.77350E-01 -4.82430E-02 -2.18478E-01
5.77350E-01 9.10664E-02 -2.25057E-01
5.77350E-01 5.69219E-02 -1.99091E-01
5.77350E-01 -6.29679E-02 -1.99943E-01
5.77350E-01 -5.64407E-02 -1.93593E-01
5.77350E-01 8.21758E-02 -1.70613E-01
5.77350E-01 8.04091E-02 -2.20974E-01
5.77350E-01 8.73273E-02 -2.31119E-01
5.77350E-01 8.98164E-02 -1.67549E-01
5.77350E-01 7.46005E-02 -2.09172E-01
5.77350E-01 7.74701E-02 -2.17307E-01
5.77350E-01 7.27937E-02 -2.14431E-01
5.77350E-01 -1.07495E-01 -1.75836E-01
5.77350E-01 1.90662E-02 1.16237E-01
5.77350E-01 -5.96587E-02 -2.18919E-01
5.77350E-01 7.40015E-02 -1.68833E-01
5.77350E-01 6.92229E-02 -1.76557E-01
5.77350E-01 1.16972E-01 -1.72075E-01
5.77350E-01 -2.39898E-02 1.07081E-01
5.77350E-01 6.37466E-02 -2.05556E-01
5.77350E-01 -6.92056E-02 -1.58149E-01
5.77350E-01 -6.41468E-02 -2.11753E-01
5.77350E-01 -8.65862E-02 -1.74532E-01
5.77350E-01 -1.22893E-01 -1.77829E-01
5.77350E-01 6.07281E-02 -1.90308E-01
5.77350E-01 -5.98132E-02 -1.84791E-01
5.77350E-01 -6.09593E-02 -1.76547E-01
5.77350E-01 1.00000E-01 2.00000E-01
5.77350E-01 -1.00000E-01 2.00000E-01
5.77350E-01 1.00000E-01 -2.00000E-01
5.77350E-01 -1.00000E-01 -2.00000E-01
-5.77350E-01 -1.36836E-01 -2.87819E-01
-5.77350E-01 -1.40882E-01 -2.49910E-01
-5.77350E-01 -1.45069E-01 -2.01898E-01
-5.77350E-01 -1.44117E-01 -1.83440E-01
-5.77350E-01 -1.39186E-01 -1.92354E-01
-5.77350E-01 -1.43993E-01 -1.64159E-01
-5.77350E-01 -1.38109E-01 -1.73062E-01
-5.77350E-01 -1.42702E-01 -1.38775E-01
-5.77350E-01 -1.36695E-01 -1.51058E-01
-5.77350E-01 -1.33695E-01 -5.49906E-02
-5.77350E-01 -1.32427E-01 4.66017E-03
-5.77350E-01 -1.16122E-01 -2.57324E-02
-5.77350E-01 -1.35251E-01 6.06421E-02
-5.77350E-01 -1.17677E-01 3.29663E-02
-5.77350E-01 -1.39875E-01 1.36895E-01
-5.77350E-01 -1.42778E-01 1.85380E-01
-5.77350E-01 -1.44000E-01 2.03867E-01
-5.77350E-01 -1.36979E-01 2.20536E-01
-5.77350E-01 -1.44453E-01 2.49178E-01
-5.77350E-01 -1.38956E-01 2.76665E-01
-5.77350E-01 -1.23204E-01 2.89052E-01
-5.77350E-01 -1.33409E-01 2.59483E-01
-5.77350E-01 -9.01438E-02 -2.89306E-01
-5.77350E-01 2.13575E-03 -2.83067E-01
-5.77350E-01 9.36816E-02 -2.88258E-01
-5.77350E-01 1.36836E-01 -2.87690E-01
-5.77350E-01 -8.00912E-02 2.89279E-01
-5.77350E-01 -1.00616E-01 2.78331E-01
-5.77350E-01 7.91437E-02 2.90086E-01
-5.77350E-01 1.22733E-01 2.89750E-01
-5.77350E-01 1.38485E-01 2.77222E-01
-5.77350E-01 9.91334E-02 2.79836E-01
-5.77350E-01 1.42633E-01 -2.45607E-01
-5.77350E-01 1.40617E-01 -1.60310E-01
-5.77350E-01 1.36864E-01 -8.64969E-02
-5.77350E-01 1.32173E-01 3.27664E-02
-5.77350E-01 1.40295E-01 1.35116E-01
-5.77350E-01 1.35717E-01 1.76242E-01
-5.77350E-01 1.44000E-01 1.95181E-01
-5.77350E-01 1.29419E-01 2.58001E-01
-5.77350E-01 -1.12805E-01 2.33620E-01
-5.77350E-01 -9.62102E-02 2.36453E-01
-5.77350E-01 -7.98210E-02 2.30714E-01
-5.77350E-01 -6.72395E-02 2.17730E-01
-5.77350E-01 -6.34489E-02 2.00014E-01
-5.77350E-01 -6.79333E-02 1.82427E-01
-5.77350E-01 -7.97821E-02 1.69966E-01
-5.77350E-01 -9.62043E-02 1.62775E-01
-5.77350E-01 -1.13847E-01 1.66040E-01
-5.77350E-01 -1.26466E-01 1.75773E-01
-5.77350E-01 -1.23522E-01 1.66137E-01
-5.77350E-01 -1.37073E-01 1.76337E-01
-5.77350E-01 -1.11233E-01 -1.97422E-01
-5.77350E-01 -1.08934E-01 -1.92344E-01
-5.77350E-01 -1.02435E-01 -1.88790E-01
-5.77350E-01 -9.68327E-02 -1.88810E-01
-5.77350E-01 -9.19071E-02 -1.91867E-01
-5.77350E-01 -8.85337E-02 -1.97768E-01
-5.77350E-01 -8.90319E-02 -2.03188E-01
-5.77350E-01 -9.16114E-02 -2.07904E-01
-5.77350E-01 -9.76419E-02 -2.11349E-01
-5.77350E-01 -1.03144E-01 -2.10859E-01
-5.77350E-01 -1.07949E-01 -2.07888E-01
-5.77350E-01 -1.10859E-01 -2.03171E-01
-5.77350E-01 1.11018E-01 -1.96877E-01
-5.77350E-01 1.08285E-01 -1.91932E-01
-5.77350E-01 1.03447E-01 -1.89125E-01
-5.77350E-01 9.67949E-02 -1.89139E-01
-5.77350E-01 9.20685E-02 -1.91670E-01
-5.77350E-01 8.85119E-02 -1.97386E-01
-5.77350E-01 8.87452E-02 -2.02854E-01
-5.77350E-01 9.15081E-02 -2.07819E-01
-5.77350E-01 9.71619E-02 -2.11246E-01
-5.77350E-01 1.02659E-01 -2.11489E-01
-5.77350E-01 1.08982E-01 -2.07812E-01
-5.77350E-01 1.11343E-01 -2.02555E-01
-5.77350E-01 1.21973E-01 2.28891E-01
-5.77350E-01 1.12720E-01 2.34081E-01
-5.77350E-01 9.25281E-02 2.35987E-01
-5.77350E-01 7.55311E-02 2.28788E-01
-5.77350E-01 6.44280E-02 2.08727E-01
-5.77350E-01 6.42607E-02 1.91761E-01
-5.77350E-01 7.56224E-02 1.73151E-01
-5.77350E-01 9.07607E-02 1.65530E-01
-5.77350E-01 1.08414E-01 1.65082E-01
-5.77350E-01 -1.23922E-01 8.17512E-02
-5.77350E-01 -1.44538E-01 -2.22025E-01
-5.77350E-01 -1.20964E-01 -7.92458E-02
-5.77350E-01 -1.37269E-01 -1.03167E-01
-5.77350E-01 -1.29709E-01 1.48027E-01
-5.77350E-01 -1.38671E-01 1.03456E-01
-5.77350E-01 -1.44295E-01 1.65882E-01
-5.77350E-01 -1.44201E-01 2.27660E-01
-5.77350E-01 2.87083E-02 -2.69295E-01
-5.77350E-01 -4.87980E-02 -2.86160E-01
-5.77350E-01 5.16736E-02 -2.86228E-01
-5.77350E-01 1.20010E-01 -2.75948E-01
-5.77350E-01 -6.98081E-02 -2.75466E-01
-5.77350E-01 5.80894E-02 2.78361E-01
-5.77350E-01 -2.23991E-02 2.88802E-01
-5.77350E-01 3.23587E-02 2.88274E-01
-5.77350E-01 -1.22387E-01 2.33294E-01
-5.77350E-01 1.44321E-01 -2.18817E-01
-5.77350E-01 1.39853E-01 -1.27154E-01
-5.77350E-01 1.33293E-01 -3.19810E-02
-5.77350E-01 1.35202E-01 9.09835E-02
-5.77350E-01 1.43229E-01 1.66608E-01
-5.77350E-01 -8.65120E-02 2.39531E-01
-5.77350E-01 1.42488E-01 2.16601E-01
-5.77350E-01 -1.05453E-01 2.40732E-01
-5.77350E-01 -1.26372E-01 2.23999E-01
-5.77350E-01 -1.39607E-01 -2.12050E-01
-5.77350E-01 -1.28545E-01 1.19397E-01
-5.77350E-01 7.47921E-02 -2.74486E-01
-5.77350E-01 1.39455E-01 -2.08314E-01
-5.77350E-01 9.22526E-03 2.77076E-01
-5.77350E-01 1.30470E-01 -1.45195E-01
-5.77350E-01 1.20157E-01 -6.23985E-02
-5.77350E-01 1.17375E-01 6.06145E-02
-5.77350E-01 1.33524E-01 1.50403E-01
-5.77350E-01 1.33421E-01 2.29376E-01
-5.77350E-01 -6.91838E-02 2.28845E-01
-5.77350E-01 -5.93860E-02 2.10671E-01
-5.77350E-01 -6.00798E-02 1.89514E-01
-5.77350E-01 -6.98386E-02 1.71992E-01
-5.77350E-01 -8.64672E-02 1.60377E-01
-5.77350E-01 -1.06488E-01 1.58156E-01
-5.77350E-01 -1.09204E-01 -1.88937E-01
-5.77350E-01 -1.05659E-01 -1.87060E-01
-5.77350E-01 -1.12253E-01 -1.94295E-01
-5.77350E-01 -9.93602E-02 -1.86663E-01
-5.77350E-01 -9.34334E-02 -1.88486E-01
-5.77350E-01 -8.63278E-02 -1.94974E-01
-5.77350E-01 -8.66843E-02 -2.00847E-01
-5.77350E-01 -8.85034E-02 -2.06469E-01
-5.77350E-01 -9.48291E-02 -2.13308E-01
-5.77350E-01 -1.00781E-01 -2.13088E-01
-5.77350E-01 -1.06541E-01 -2.10865E-01
-5.77350E-01 -1.10924E-01 -2.06511E-01
-5.77350E-01 1.11384E-01 -1.93335E-01
-5.77350E-01 1.07131E-01 -1.88916E-01
-5.77350E-01 1.01855E-01 -1.86593E-01
-5.77350E-01 9.34388E-02 -1.88663E-01
-5.77350E-01 8.84263E-02 -1.91464E-01
-5.77350E-01 8.63785E-02 -2.00230E-01
-5.77350E-01 8.81534E-02 -2.06130E-01
-5.77350E-01 9.11721E-02 -2.11413E-01
-5.77350E-01 9.98866E-02 -2.13614E-01
-5.77350E-01 1.06070E-01 -2.13785E-01
-5.77350E-01 1.12464E-01 -2.05806E-01
-5.77350E-01 1.13239E-01 -1.99431E-01
-5.77350E-01 -5.78258E-02 -1.66420E-01
-5.77350E-01 1.05519E-01 2.40895E-01
-5.77350E-01 8.28024E-02 2.39599E-01
-5.77350E-01 6.38358E-02 2.30700E-01
-5.77350E-01 5.78634E-02 2.00488E-01
-5.77350E-01 5.84397E-02 1.82287E-01
-5.77350E-01 8.11263E-02 1.63857E-01
-5.77350E-01 9.94445E-02 1.59786E-01
-5.77350E-01 1.18408E-01 1.63622E-01
-5.77350E-01 1.24269E-01 1.73096E-01
-5.77350E-01 -1.07354E-01 -2.74034E-01
-5.77350E-01 -1.12973E-01 -2.00593E-01
-5.77350E-01 -2.44199E-02 -2.69227E-01
-5.77350E-01 1.26717E-01 -1.08896E-01
-5.77350E-01 1.15466E-01 -2.28488E-03
-5.77350E-01 1.25496E-01 1.12341E-01
-5.77350E-01 -8.93199E-02 -7.86779E-02
-5.77350E-01 -1.27338E-01 -1.70778E-01
-5.77350E-01 -1.11744E-01 1.46777E-01
-5.77350E-01 -8.02773E-02 3.08741E-02
-5.77350E-01 7.83286E-02 -2.54289E-01
-5.77350E-01 -1.36778E-01 1.93594E-01
-5.77350E-01 -1.31707E-01 -2.12666E-01
-5.77350E-01 -1.16956E-01 -2.01631E-01
-5.77350E-01 2.94983E-02 -2.42450E-01
-5.77350E-01 -1.38654E-01 2.38495E-01
-5.77350E-01 1.04642E-01 -1.12189E-01
-5.77350E-01 -6.31169E-02 2.74593E-01
-5.77350E-01 -9.84087E-02 2.60889E-01
-5.77350E-01 1.12691E-01 -1.46446E-01
-5.77350E-01 9.99987E-02 -1.31697E-01
-5.77350E-01 -1.27447E-01 2.40667E-01
-5.77350E-01 -8.43736E-02 2.52170E-01
-5.77350E-01 7.69777E-02 -8.06907E-03
-5.77350E-01 1.04991E-01 1.12167E-01
-5.77350E-01 1.36488E-01 1.88368E-01
-5.77350E-01 -1.36778E-01 2.10273E-01
-5.77350E-01 1.36488E-01 2.06813E-01
-5.77350E-01 -1.16906E-01 -1.93387E-01
-5.77350E-01 1.20151E-01 1.50563E-01
-5.77350E-01 -7.94381E-02 -2.65091E-02
-5.77350E-01 -5.83428E-02 1.79123E-03
-5.77350E-01 -6.53677E-02 -5.51995E-02
-5.77350E-01 9.62361E-02 2.62619E-01
-5.77350E-01 8.22466E-02 5.47192E-02
-5.77350E-01 -4.84077E-02 2.12968E-01
-5.77350E-01 -5.08583E-02 1.86692E-01
-5.77350E-01 -6.30054E-02 1.62678E-01
-5.77350E-01 -8.19607E-02 1.50241E-01
-5.77350E-01 -9.92015E-02 -1.82534E-01
-5.77350E-01 -9.15512E-02 -1.85659E-01
-5.77350E-01 -8.80874E-02 -1.91968E-01
-5.77350E-01 -8.26079E-02 -2.01810E-01
-5.77350E-01 -8.48566E-02 -2.08102E-01
-5.77350E-01 -9.16736E-02 -2.11507E-01
-5.77350E-01 -1.01854E-01 -2.16699E-01
-5.77350E-01 -1.08371E-01 -2.13644E-01
-5.77350E-01 -1.13692E-01 -2.08588E-01
-5.77350E-01 1.14838E-01 -1.91692E-01
-5.77350E-01 1.08880E-01 -1.85694E-01
-5.77350E-01 9.85903E-02 -1.86606E-01
-5.77350E-01 9.20184E-02 -1.85497E-01
-5.77350E-01 8.65077E-02 -1.94307E-01
-5.77350E-01 8.18185E-02 -2.00281E-01
-5.77350E-01 8.52315E-02 -2.07749E-01
-5.77350E-01 9.39578E-02 -2.13165E-01
-5.77350E-01 9.95788E-02 -2.17415E-01
-5.77350E-01 1.09475E-01 -2.11787E-01
-5.77350E-01 1.17312E-01 -2.06501E-01
-5.77350E-01 1.17553E-01 -1.98662E-01
-5.77350E-01 -6.11080E-02 2.40419E-01
-5.77350E-01 8.12596E-02 2.53814E-01
-5.77350E-01 5.80091E-02 2.19844E-01
-5.77350E-01 4.74400E-02 2.00770E-01
-5.77350E-01 6.45250E-02 1.72881E-01
-5.77350E-01 7.84643E-02 1.53241E-01
-5.77350E-01 9.84558E-02 1.50365E-01
-5.77350E-01 1.09167E-01 1.42602E-01
-5.77350E-01 8.71101E-02 1.45493E-01
-5.77350E-01 -9.83925E-02 8.14284E-02
-5.77350E-01 -1.01870E-01 1.34887E-01
-5.77350E-01 -8.70403E-02 1.36745E-01
-5.77350E-01 -1.08507E-01 1.18639E-01
-5.77350E-01 -1.34130E-01 1.59503E-01
-5.77350E-01 -4.60641E-02 1.74554E-01
-5.77350E-01 -5.08250E-02 1.63542E-01
-5.77350E-01 1.25807E-01 -2.56761E-01
-5.77350E-01 -1.17610E-01 -2.06287E-01
-5.77350E-01 1.18767E-02 -2.26002E-01
-5.77350E-01 -6.96069E-02 2.54927E-01
-5.77350E-01 8.60252E-02 -9.47756E-02
-5.77350E-01 6.31026E-02 2.59306E-01
-5.77350E-01 -1.35420E-01 -2.36571E-01
-5.77350E-01 -4.03422E-02 2.74115E-01
-5.77350E-01 1.30531E-01 -2.08587E-01
-5.77350E-01 1.24271E-02 2.56139E-01
-5.77350E-01 -1.09790E-01 2.52529E-01
-5.77350E-01 -8.11859E-02 -1.95010E-01
-5.77350E-01 -7.93155E-02 -1.98767E-01
-5.77350E-01 1.02035E-01 1.29963E-01
-5.77350E-01 1.36954E-01 -2.30886E-01
-5.77350E-01 9.13934E-02 -6.73847E-02
-5.77350E-01 5.85564E-02 2.10869E-02
-5.77350E-01 1.38554E-01 -1.86404E-01
-5.77350E-01 -1.19869E-01 -1.97551E-01
-5.77350E-01 1.10769E-01 2.53312E-01
-5.77350E-01 6.60414E-02 -4.27514E-02
-5.77350E-01 -8.71754E-02 -1.85649E-01
-5.77350E-01 -8.52377E-02 -1.88577E-01
-5.77350E-01 -3.84925E-02 2.03931E-01
-5.77350E-01 -4.02494E-02 1.93706E-01
-5.77350E-01 -1.05802E-01 -1.82993E-01
-5.77350E-01 -1.02419E-01 -1.80594E-01
-5.77350E-01 -7.23217E-02 5.82271E-02
-5.77350E-01 6.60374E-02 1.50471E-01
-5.77350E-01 5.76020E-02 1.60817E-01
-5.77350E-01 4.40072E-02 1.82056E-01
-5.77350E-01 3.94047E-02 1.91812E-01
-5.77350E-01 -4.51991E-02 2.39120E-01
-5.77350E-01 -3.09232E-02 2.53151E-01
-5.77350E-01 -3.99239E-02 2.25322E-01
-5.77350E-01 1.20505E-01 -2.02480E-01
-5.77350E-01 1.18590E-01 -2.11099E-01
-5.77350E-01 1.14235E-01 -2.14379E-01
-5.77350E-01 1.06204E-01 -2.19316E-01
-5.77350E-01 1.02486E-01 -2.20821E-01
-5.77350E-01 9.61427E-02 -2.19239E-01
-5.77350E-01 9.32463E-02 -2.17358E-01
-5.77350E-01 8.72724E-02 -2.14042E-01
-5.77350E-01 8.46865E-02 -2.12067E-01
-5.77350E-01 8.18074E-02 -2.06568E-01
-5.77350E-01 7.97280E-02 -2.03347E-01
-5.77350E-01 7.88579E-02 -1.96718E-01
-5.77350E-01 8.14136E-02 -1.93587E-01
-5.77350E-01 8.60364E-02 -1.87398E-01
-5.77350E-01 8.82584E-02 -1.84438E-01
-5.77350E-01 9.41112E-02 -1.81967E-01
-5.77350E-01 9.73270E-02 -1.82599E-01
-5.77350E-01 -1.18113E-01 -1.88645E-01
-5.77350E-01 -1.13729E-01 -1.86146E-01
-5.77350E-01 1.03137E-01 -1.82652E-01
-5.77350E-01 1.06479E-01 -1.81962E-01
-5.77350E-01 1.13207E-01 -1.83805E-01
-5.77350E-01 1.16114E-01 -1.86602E-01
-5.77350E-01 -1.12547E-01 -2.12743E-01
-5.77350E-01 -1.15491E-01 -2.16491E-01
-5.77350E-01 -1.06048E-01 -2.17248E-01
-5.77350E-01 -1.07786E-01 -2.21017E-01
-5.77350E-01 -9.49208E-02 -2.18111E-01
-5.77350E-01 -9.88069E-02 -2.19763E-01
-5.77350E-01 -8.41209E-02 -2.12202E-01
-5.77350E-01 -8.78299E-02 -2.14171E-01
-5.77350E-01 -9.57420E-02 -1.79652E-01
-5.77350E-01 -9.23610E-02 -1.81431E-01
-5.77350E-01 -1.30065E-01 -1.92129E-01
-5.77350E-01 -6.84424E-02 1.50516E-01
-5.77350E-01 5.29501E-02 2.47003E-01
-5.77350E-01 3.33127E-02 2.45121E-01
-5.77350E-01 1.40933E-01 2.44706E-01
-5.77350E-01 -8.13087E-02 -2.05784E-01
-5.77350E-01 -2.63567E-02 -2.41720E-01
-5.77350E-01 1.24081E-01 -1.90742E-01
-5.77350E-01 -1.23794E-01 -2.37829E-01
-5.77350E-01 1.26081E-01 -2.29577E-01
-5.77350E-01 -7.95414E-02 -1.00479E-01
-5.77350E-01 -9.53183E-03 -2.25339E-01
-5.77350E-01 -1.27718E-01 -2.72547E-01
-5.77350E-01 -1.21008E-01 -1.59511E-01
-5.77350E-01 -1.24482E-01 -1.48695E-01
-5.77350E-01 4.49632E-02 2.20924E-01
-5.77350E-01 1.70595E-02 -2.03180E-01
-5.77350E-01 -9.77836E-03 2.46900E-01
-5.77350E-01 1.27190E-01 -2.01515E-01
-5.77350E-01 -1.12411E-01 -2.45089E-01
-5.77350E-01 -1.22202E-01 2.52789E-01
-5.77350E-01 1.34036E-01 -1.74045E-01
-5.77350E-01 8.70213E-02 1.32504E-01
-5.77350E-01 4.09586E-02 2.10089E-01
-5.77350E-01 -1.10967E-01 -1.58305E-01
-5.77350E-01 -1.15175E-01 -1.37369E-01
-5.77350E-01 3.11526E-02 2.29898E-01
-5.77350E-01 9.29151E-04 2.01501E-01
-5.77350E-01 1.29534E-01 -1.93975E-01
-5.77350E-01 7.39174E-02 1.26050E-01
-5.77350E-01 -1.01817E-01 -1.39108E-01
-5.77350E-01 -1.01082E-01 -1.49227E-01
-5.77350E-01 6.54193E-02 -1.27377E-01
-5.77350E-01 -6.08934E-02 1.36247E-01
-5.77350E-01 -9.58716E-02 -1.15494E-01
-5.77350E-01 1.10514E-01 -2.49147E-01
-5.77350E-01 -4.23957E-02 6.58146E-02
-5.77350E-01 2.80449E-02 2.08612E-01
-5.77350E-01 2.66582E-02 1.96691E-01
-5.77350E-01 1.96730E-02 2.20727E-01
-5.77350E-01 1.18785E-01 -1.94464E-01
-5.77350E-01 6.37161E-02 -1.04808E-01
-5.77350E-01 1.16466E-01 -2.36685E-01
-5.77350E-01 3.54931E-02 -5.65207E-02
-5.77350E-01 -4.54506E-02 -1.11802E-01
-5.77350E-01 -9.31033E-02 1.02375E-01
-5.77350E-01 -7.63086E-02 -2.07412E-01
-5.77350E-01 9.50889E-02 -2.48138E-01
-5.77350E-01 -1.76408E-02 -2.00749E-01
-5.77350E-01 1.22501E-01 -1.84952E-01
-5.77350E-01 -1.29971E-01 -1.20364E-01
-5.77350E-01 -1.18864E-03 -1.88503E-01
-5.77350E-01 6.50021E-02 -2.43230E-01
-5.77350E-01 1.25123E-01 -2.14149E-01
-5.77350E-01 1.37835E-02 2.27574E-02
-5.77350E-01 1.23174E-01 -2.20930E-01
-5.77350E-01 -1.21743E-01 -2.08901E-01
-5.77350E-01 6.15793E-02 1.36269E-01
-5.77350E-01 3.85360E-02 -9.11864E-02
-5.77350E-01 -7.41669E-02 -1.99714E-01
-5.77350E-01 -7.24592E-02 -2.04385E-01
-5.77350E-01 -9.11119E-02 -1.52198E-01
-5.77350E-01 8.66752E-02 9.90417E-02
-5.77350E-01 -8.02910E-02 -1.87887E-01
-5.77350E-01 -7.79988E-02 -1.91314E-01
-5.77350E-01 -3.01176E-02 1.86232E-01
-5.77350E-01 -3.38205E-02 1.75041E-01
-5.77350E-01 -1.03363E-01 -1.75938E-01
-5.77350E-01 4.81950E-03 2.19020E-01
-5.77350E-01 -4.18908E-02 1.51938E-01
-5.77350E-01 -4.65222E-02 1.36805E-01
-5.77350E-01 -1.27818E-01 -2.05890E-01
-5.77350E-01 4.08904E-02 1.58922E-01
-5.77350E-01 1.08934E-01 -2.30977E-01
-5.77350E-01 -2.48303E-02 2.21896E-01
-5.77350E-01 -1.08266E-01 -1.65941E-01
-5.77350E-01 -2.48169E-02 2.08594E-01
-5.77350E-01 7.12331E-02 -2.31027E-01
-5.77350E-01 -1.44044E-02 -4.13984E-03
-5.77350E-01 -1.20770E-01 -2.14951E-01
-5.77350E-01 1.15574E-01 -2.20257E-01
-5.77350E-01 7.06153E-02 1.10383E-01
-5.77350E-01 -9.54870E-02 -1.73959E-01
-5.77350E-01 3.33809E-02 1.70755E-01
-5.77350E-01 8.95253E-02 -2.20432E-01
-5.77350E-01 8.63371E-02 -2.18868E-01
-5.77350E-01 8.08121E-02 -2.13226E-01
-5.77350E-01 7.90373E-02 -2.09813E-01
-5.77350E-01 7.45067E-02 -2.04790E-01
-5.77350E-01 7.26873E-02 -1.96796E-01
-5.77350E-01 7.92353E-02 -1.89808E-01
-5.77350E-01 8.19395E-02 -1.86462E-01
-5.77350E-01 8.75266E-02 -1.79527E-01
-5.77350E-01 9.15650E-02 -1.77904E-01
-5.77350E-01 1.00151E-01 -1.79982E-01
-5.77350E-01 9.99272E-02 -1.74353E-01
-5.77350E-01 -1.13289E-01 -1.81708E-01
-5.77350E-01 -1.08906E-01 -1.80432E-01
-5.77350E-01 1.08361E-01 -1.77688E-01
-5.77350E-01 -1.14657E-01 -1.21321E-01
-5.77350E-01 1.13130E-01 -1.78403E-01
-5.77350E-01 -1.03673E-01 -2.55774E-01
-5.77350E-01 -9.99965E-02 -2.25014E-01
-5.77350E-01 -1.04781E-01 -2.25719E-01
-5.77350E-01 -2.89280E-02 -6.33276E-02
-5.77350E-01 -8.74768E-02 -2.18646E-01
-5.77350E-01 -9.14122E-02 -2.20785E-01
-5.77350E-01 -8.85489E-02 -1.79087E-01
-5.77350E-01 -8.54379E-02 -1.81960E-01
-5.77350E-01 -1.26598E-01 -1.99196E-01
-5.77350E-01 -3.44024E-02 -1.91583E-01
-5.77350E-01 -7.18303E-02 -2.57049E-01
-5.77350E-01 -9.69108E-02 -2.36457E-01
-5.77350E-01 -1.24543E-01 -1.85742E-01
-5.77350E-01 1.23436E-01 -1.75827E-01
-5.77350E-01 6.27849E-02 -2.21700E-01
-5.77350E-01 -6.12772E-02 -2.44661E-01
-5.77350E-01 -1.22588E-01 -2.26855E-01
-5.77350E-01 9.39992E-04 -4.05683E-02
-5.77350E-01 -7.17655E-02 1.08030E-01
-5.77350E-01 -7.55756E-02 -2.11918E-01
-5.77350E-01 -7.98400E-02 -2.14390E-01
-5.77350E-01 -7.23389E-02 1.26152E-01
-5.77350E-01 -1.26313E-01 -2.19031E-01
-5.77350E-01 -4.71288E-02 9.46710E-02
-5.77350E-01 -1.28376E-02 1.98622E-01
-5.77350E-01 -3.05318E-03 5.44314E-02
-5.77350E-01 4.64916E-02 1.32218E-01
-5.77350E-01 3.42381E-02 1.44525E-01
-5.77350E-01 -8.79468E-02 -1.29282E-01
-5.77350E-01 1.06048E-01 -1.58868E-01
-5.77350E-01 7.20525E-02 7.70144E-02
-5.77350E-01 4.70554E-02 8.08273E-02
-5.77350E-01 1.97515E-02 7.64726E-02
-5.77350E-01 5.13258E-02 1.03900E-01
-5.77350E-01 1.43960E-02 1.91286E-01
-5.77350E-01 9.35612E-02 -2.36424E-01
-5.77350E-01 1.65162E-02 1.75106E-01
-5.77350E-01 9.97490E-02 -2.25448E-01
-5.77350E-01 9.27758E-02 -1.58593E-01
-5.77350E-01 -1.87895E-02 -9.81292E-02
-5.77350E-01 -1.14606E-01 -2.27444E-01
-5.77350E-01 -4.26754E-02 -1.69228E-01
-5.77350E-01 -8.84848E-02 -2.52630E-01
-5.77350E-01 -9.98904E-02 -1.72186E-01
-5.77350E-01 -1.63814E-02 1.86484E-01
-5.77350E-01 8.25056E-02 -1.51326E-01
-5.77350E-01 -1.08748E-01 -2.30729E-01
-5.77350E-01 7.13719E-02 -1.58502E-01
-5.77350E-01 3.29926E-02 -1.96238E-01
-5.77350E-01 -8.96061E-03 2.29443E-01
-5.77350E-01 -4.69115E-03 -1.63371E-01
-5.77350E-01 4.94531E-02 -2.20830E-01
-5.77350E-01 4.58634E-02 -2.06469E-01
-5.77350E-01 7.98583E-02 -2.28599E-01
-5.77350E-01 -7.16114E-02 -1.91315E-01
-5.77350E-01 -9.55273E-02 -2.29080E-01
-5.77350E-01 1.45134E-01 -1.93671E-01
-5.77350E-01 -6.51322E-02 -2.05783E-01
-5.77350E-01 -9.08290E-02 -2.26503E-01
-5.77350E-01 3.95402E-02 1.15517E-01
-5.77350E-01 1.04797E-01 -1.72749E-01
-5.77350E-01 -7.78488E-02 -1.83231E-01
-5.77350E-01 -2.34706E-02 1.66133E-01
-5.77350E-01 -1.07880E-02 1.73133E-01
-5.77350E-01 -2.67800E-02 1.54042E-01
-5.77350E-01 3.54762E-02 -1.75314E-01
-5.77350E-01 -2.94163E-02 -1.53261E-01
-5.77350E-01 -1.05346E-01 -2.37400E-01
-5.77350E-01 1.60405E-02 -1.57124E-01
-5.77350E-01 -1.00729E-01 -1.65725E-01
-5.77350E-01 3.46428E-03 1.66359E-01
-5.77350E-01 1.10782E-01 -1.67601E-01
-5.77350E-01 7.04266E-02 -2.01802E-01
-5.77350E-01 -8.10580E-02 -1.80232E-01
-5.77350E-01 1.10948E-01 -2.23196E-01
-5.77350E-01 -6.96499E-02 -1.95958E-01
-5.77350E-01 -8.25933E-02 -2.22428E-01
-5.77350E-01 1.01454E-01 -2.31724E-01
-5.77350E-01 6.98135E-02 -1.91767E-01
-5.77350E-01 7.38057E-02 -1.87911E-01
-5.77350E-01 4.86395E-02 -2.36582E-01
-5.77350E-01 -7.07408E-02 -2.14862E-01
-5.77350E-01 5.06741E-02 -1.71234E-01
-5.77350E-01 8.30855E-02 -1.36852E-01
-5.77350E-01 6.60199E-02 -2.13803E-01
-5.77350E-01 -7.04161E-02 -2.34243E-01
-5.77350E-01 -7.86655E-02 -2.20141E-01
-5.77350E-01 -8.12723E-02 -2.35003E-01
-5.77350E-01 -8.46970E-02 -2.27881E-01
-5.77350E-01 -6.67008E-02 -2.25594E-01
-5.77350E-01 5.99112E-02 -1.80696E-01
-5.77350E-01 5.08237E-02 -1.40112E-01
-5.77350E-01 2.47059E-02 -1.36393E-01
-5.77350E-01 -1.13053E-01 -2.21161E-01
-5.77350E-01 2.15131E-03 1.45660E-01
-5.77350E-01 1.57499E-02 1.36072E-01
-5.77350E-01 -1.54104E-02 1.40343E-01
-5.77350E-01 -2.93382E-02 1.27371E-01
-5.77350E-01 9.45575E-02 -1.72907E-01
-5.77350E-01 5.73562E-02 -1.56763E-01
-5.77350E-01 3.54795E-03 1.00266E-01
-5.77350E-01 -4.59303E-02 -1.34330E-01
-5.77350E-01 -7.28085E-02 -2.20851E-01
-5.77350E-01 -9.34602E-02 -1.61059E-01
-5.77350E-01 -7.22472E-02 -1.81840E-01
-5.77350E-01 -6.83020E-02 -1.86497E-01
-5.77350E-01 -4.55967E-02 -2.02173E-01
-5.77350E-01 -7.20963E-02 -1.36795E-01
-5.77350E-01 -7.59963E-02 -1.49592E-01
-5.77350E-01 9.55952E-02 -2.24086E-01
-5.77350E-01 -8.12562E-02 -1.75006E-01
-5.77350E-01 7.95134E-02 -1.81569E-01
-5.77350E-01 1.41214E-02 -1.10036E-01
-5.77350E-01 -8.87879E-02 -2.41001E-01
-5.77350E-01 8.28785E-02 -1.77594E-01
-5.77350E-01 7.40320E-02 -1.82312E-01
-5.77350E-01 -9.01434E-02 -1.71184E-01
-5.77350E-01 -7.81389E-02 -1.64441E-01
-5.77350E-01 -4.61463E-02 -2.35570E-01
-5.77350E-01 -8.72779E-02 -1.64745E-01
-5.77350E-01 -1.11559E-01 -1.72300E-01
-5.77350E-01 -1.16021E-01 -1.76294E-01
-5.77350E-01 -7.56744E-02 -1.71354E-01
-5.77350E-01 -6.98746E-02 -1.75189E-01
-5.77350E-01 -4.82430E-02 -2.18478E-01
-5.77350E-01 9.10664E-02 -2.25057E-01
-5.77350E-01 5.69219E-02 -1.99091E-01
-5.77350E-01 -6.29679E-02 -1.99943E-01
-5.77350E-01 -5.64407E-02 -1.93593E-01
-5.77350E-01 8.21758E-02 -1.70613E-01
-5.77350E-01 8.04091E-02 -2.20974E-01
-5.77350E-01 8.73273E-02 -2.31119E-01
-5.77350E-01 8.98164E-02 -1.67549E-01
-5.77350E-01 7.46005E-02 -2.09172E-01
-5.77350E-01 7.74701E-02 -2.17307E-01
-5.77350E-01 7.27937E-02 -2.14431E-01
-5.77350E-01 -1.07495E-01 -1.75836E-01
-5.77350E-01 1.90662E-02 1.16237E-01
-5.77350E-01 -5.96587E-02 -2.18919E-01
-5.77350E-01 7.40015E-02 -1.68833E-01
-5.77350E-01 6.92229E-02 -1.76557E-01
-5.77350E-01 1.16972E-01 -1.72075E-01
-5.77350E-01 -2.39898E-02 1.07081E-01
-5.77350E-01 6.37466E-02 -2.05556E-01
-5.77350E-01 -6.92056E-02 -1.58149E-01
-5.77350E-01 -6.41468E-02 -2.11753E-01
-5.77350E-01 -8.65862E-02 -1.74532E-01
-5.77350E-01 -1.22893E-01 -1.77829E-01
-5.77350E-01 6.07281E-02 -1.90308E-01
-5.77350E-01 -5.98132E-02 -1.84791E-01
-5.77350E-01 -6.09593E-02 -1.76547E-01
-5.77350E-01 1.00000E-01 2.00000E-01
-5.77350E-01 -1.00000E-01 2.00000E-01
-5.77350E-01 1.00000E-01 -2.00000E-01
-5.77350E-01 -1.00000E-01 -2.00000E-01
</DataArray>
</Points>
<Cells>
<DataArray type="Int64" Name="connectivity" format="ascii">
       0
       1
       2
       3
       4
       5
       6
       7
       8
       9
      10
      11
      12
      13
      14
      15
      16
      17
      18
      19
      20
      21
      22
      23
      24
      25
      26
      27
      28
      29
      30
      31
      32
      33
      34
      35
      36
      37
      38
      39
      40
      41
      42
      43
      44
      45
      46
      47
      48
      49
      50
      51
      52
      53
      54
      55
      56
      57
      58
      59
      60
      61
      62
      63
      64
      65
      66
      67
      68
      69
      70
      71
      72
      73
      74
      75
      76
      77
      78
      79
      80
      81
      82
      83
      84
      85
      86
      87
      88
      89
      90
      91
      92
      93
      94
      95
      96
      97
      98
      99
     100
     101
     102
     103
     104
     105
     106
     107
     108
     109
     110
     111
     112
     113
     114
     115
     116
     117
     118
     119
     120
     121
     122
     123
     124
     125
     126
     127
     128
     129
     130
     131
     132
     133
     134
     135
     136
     137
     138
     139
     140
     141
     142
     143
     144
     145
     146
     147
     148
     149
     150
     151
     152
     153
     154
     155
     156
     157
     158
     159
     160
     161
     162
     163
     164
     165
     166
     167
     168
     169
     170
     171
     172
     173
     174
     175
     176
     177
     178
     179
     180
     181
     182
     183
     184
     185
     186
     187
     188
     189
     190
     191
     192
     193
     194
     195
     196
     197
     198
     199
     200
     201
     202
     203
     204
     205
     206
     207
     208
     209
     210
     211
     212
     213
     214
     215
     216
     217
     218
     219
     220
     221
     222
     223
     224
     225
     226
     227
     228
     229
     230
     231
     232
     233
     234
     235
     236
     237
     238
     239
     240
     241
     242
     243
     244
     245
     246
     247
     248
     249
     250
     251
     252
     253
     254
     255
     256
     257
     258
     259
     260
     261
     262
     263
     264
     265
     266
     267
     268
     269
     270
     271
     272
     273
     274
     275
     276
     277
     278
     279
     280
     281
     282
     283
     284
     285
     286
     287
     288
     289
     290
     291
     292
     293
     294
     295
     296
     297
     298
     299
     300
     301
     302
     303
     304
     305
     306
     307
     308
     309
     310
     311
     312
     313
     314
     315
     316
     317
     318
     319
     320
     321
     322
     323
     324
     325
     326
     327
     328
     329
     330
     331
     332
     333
     334
     335
     336
     337
     338
     339
     340
     341
     342
     343
     344
     345
     346
     347
     348
     349
     350
     351
     352
     353
     354
     355
     356
     357
     358
     359
     360
     361
     362
     363
     364
     365
     366
     367
     368
     369
     370
     371
     372
     373
     374
     375
     376
     377
     378
     379
     380
     381
     382
     383
     384
     385
     386
     387
     388
     389
     390
     391
     392
     393
     394
     395
     396
     397
     398
     399
     400
     401
     402
     403
     404
     405
     406
     407
     408
     409
     410
     411
     412
     413
     414
     415
     416
     417
     418
     419
     420
     421
     422
     423
     424
     425
     426
     427
     428
     429
     430
     431
     432
     433
     434
     435
     436
     437
     438
     439
     440
     441
     442
     443
     444
     445
     446
     447
     448
     449
     450
     451
     452
     453
     454
     455
     456
     457
     458
     459
     460
     461
     462
     463
     464
     465
     466
     467
     468
     469
     470
     471
     472
     473
     474
     475
     476
     477
     478
     479
     480
     481
     482
     483
     484
     485
     486
     487
     488
     489
     490
     491
     492
     493
     494
     495
     496
     497
     498
     499
     500
     501
     502
     503
     504
     505
     506
     507
     508
     509
     510
     511
     512
     513
     514
     515
     516
     517
     518
     519
     520
     521
     522
     523
     524
     525
     526
     527
     528
     529
     530
     531
     532
     533
     534
     535
     536
     537
     538
     539
     540
     541
     542
     543
     544
     545
     546
     547
     548
     549
     550
     551
     552
     553
     554
     555
     556
     557
     558
     559
     560
     561
     562
     563
     564
     565
     566
     567
     568
     569
     570
     571
     572
     573
     574
     575
     576
     577
     578
     579
     580
     581
     582
     583
     584
     585
     586
     587
     588
     589
     590
     591
     592
     593
     594
     595
     596
     597
     598
     599
     600
     601
     602
     603
     604
     605
     606
     607
     608
     609
     610
     611
     612
     613
     614
     615
     616
     617
     618
     619
     620
     621
     622
     623
     624
     625
     626
     627
     628
     629
     630
     631
     632
     633
     634
     635
     636
     637
     638
     639
     640
     641
     642
     643
     644
     645
     646
     647
     648
     649
     650
     651
     652
     653
     654
     655
     656
     657
     658
     659
     660
     661
     662
     663
     664
     665
     666
     667
     668
     669
     670
     671
     672
     673
     674
     675
     676
     677
     678
     679
     680
     681
     682
     683
     684
     685
     686
     687
     688
     689
     690
     691
     692
     693
     694
     695
     696
     697
     698
     699
     700
     701
     702
     703
     704
     705
     706
     707
     708
     709
     710
     711
     712
     713
     714
     715
     716
     717
     718
     719
     720
     721
     722
     723
     724
     725
     726
     727
     728
     729
     730
     731
     732
     733
     734
     735
     736
     737
     738
     739
     740
     741
     742
     743
     744
     745
     746
     747
     748
     749
     750
     751
     752
     753
     754
     755
     756
     757
     758
     759
     760
     761
     762
     763
     764
     765
     766
     767
     768
     769
     770
     771
     772
     773
     774
     775
     776
     777
     778
     779
     780
     781
     782
     783
     784
     785
     786
     787
     788
     789
     790
     791
     792
     793
     794
     795
     796
     797
     798
     799
     800
     801
     802
     803
     804
     805
     806
     807
     808
     809
     810
     811
     812
     813
     814
     815
     816
     817
     818
     819
     820
     821
     822
     823
     824
     825
     826
     827
     828
     829
     830
     831
     832
     833
     834
     835
     836
     837
     838
     839
     840
     841
     842
     843
     844
     845
     846
     847
     848
     849
     850
     851
     852
     853
     854
     855
     856
     857
     858
     859
     860
     861
     862
     863
     864
     865
     866
     867
     868
     869
     870
     871
     872
     873
     874
     875
     876
     877
     878
     879
     880
     881
     882
     883
     884
     885
     886
     887
     888
     889
     890
     891
     892
     893
     894
     895
     896
     897
     898
     899
     900
     901
     902
     903
     904
     905
     906
     907
     908
     909
     910
     911
     912
     913
     914
     915
     916
     917
     918
     919
     920
     921
     922
     923
     924
     925
     926
     927
     928
     929
     930
     931
     932
     933
     934
     935
     936
     937
     938
     939
     940
     941
     942
     943
     944
     945
     946
     947
     948
     949
     950
     951
     952
     953
     954
     955
     956
     957
     958
     959
     960
     961
     962
     963
     964
     965
     966
     967
     968
     969
     970
     971
     972
     973
     974
     975
     976
     977
     978
     979
     980
     981
     982
     983
     984
     985
     986
     987
     988
     989
     990
     991
     992
     993
     994
     995
     996
     997
     998
     999
    1000
    1001
    1002
    1003
    1004
    1005
    1006
    1007
    1008
    1009
    1010
    1011
    1012
    1013
    1014
    1015
    1016
    1017
    1018
    1019
    1020
    1021
    1022
    1023
    1024
    1025
    1026
    1027
    1028
    1029
    1030
    1031
    1032
    1033
    1034
    1035
    1036
    1037
    1038
    1039
    1040
    1041
    1042
    1043
    1044
    1045
    1046
    1047
    1048
    1049
    1050
    1051
    1052
    1053
    1054
    1055
    1056
    1057
    1058
    1059
    1060
    1061
    1062
    1063
    1064
    1065
    1066
    1067
    1068
    1069
    1070
    1071
    1072
    1073
    1074
    1075
    1076
    1077
    1078
    1079
    1080
    1081
    1082
    1083
    1084
    1085
    1086
    1087
    1088
    1089
    1090
    1091
    1092
    1093
    1094
    1095
    1096
    1097
    1098
    1099
    1100
    1101
    1102
    1103
    1104
    1105
    1106
    1107
    1108
    1109
    1110
    1111
    1112
    1113
    1114
    1115
    1116
    1117
    1118
    1119
    1120
    1121
</DataArray>
<DataArray type="Int64" Name="offsets" format="ascii">
       1
       2
       3
       4
       5
       6
       7
       8
       9
      10
      11
      12
      13
      14
      15
      16
      17
      18
      19
      20
      21
      22
      23
      24
      25
      26
      27
      28
      29
      30
      31
      32
      33
      34
      35
      36
      37
      38
      39
      40
      41
      42
      43
      44
      45
      46
      47
      48
      49
      50
      51
      52
      53
      54
      55
      56
      57
      58
      59
      60
      61
      62
      63
      64
      65
      66
      67
      68
      69
      70
      71
      72
      73
      74
      75
      76
      77
      78
      79
      80
      81
      82
      83
      84
      85
      86
      87
      88
      89
      90
      91
      92
      93
      94
      95
      96
      97
      98
      99
     100
     101
     102
     103
     104
     105
     106
     107
     108
     109
     110
     111
     112
     113
     114
     115
     116
     117
     118
     119
     120
     121
     122
     123
     124
     125
     126
     127
     128
     129
     130
     131
     132
     133
     134
     135
     136
     137
     138
     139
     140
     141
     142
     143
     144
     145
     146
     147
     148
     149
     150
     151
     152
     153
     154
     155
     156
     157
     158
     159
     160
     161
     162
     163
     164
     165
     166
     167
     168
     169
     170
     171
     172
     173
     174
     175
     176
     177
     178
     179
     180
     181
     182
     183
     184
     185
     186
     187
     188
     189
     190
     191
     192
     193
     194
     195
     196
     197
     198
     199
     200
     201
     202
     203
     204
     205
     206
     207
     208
     209
     210
     211
     212
     213
     214
     215
     216
     217
     218
     219
     220
     221
     222
     223
     224
     225
     226
     227
     228
     229
     230
     231
     232
     233
     234
     235
     236
     237
     238
     239
     240
     241
     242
     243
     244
     245
     246
     247
     248
     249
     250
     251
     252
     253
     254
     255
     256
     257
     258
     259
     260
     261
     262
     263
     264
     265
     266
     267
     268
     269
     270
     271
     272
     273
     274
     275
     276
     277
     278
     279
     280
     281
     282
     283
     284
     285
     286
     287
     288
     289
     290
     291
     292
     293
     294
     295
     296
     297
     298
     299
     300
     301
     302
     303
     304
     305
     306
     307
     308
     309
     310
     311
     312
     313
     314
     315
     316
     317
     318
     319
     320
     321
     322
     323
     324
     325
     326
     327
     328
     329
     330
     331
     332
     333
     334
     335
     336
     337
     338
     339
     340
     341
     342
     343
     344
     345
     346
     347
     348
     349
     350
     351
     352
     353
     354
     355
     356
     357
     358
     359
     360
     361
     362
     363
     364
     365
     366
     367
     368
     369
     370
     371
     372
     373
     374
     375
     376
     377
     378
     379
     380
     381
     382
     383
     384
     385
     386
     387
     388
     389
     390
     391
     392
     393
     394
     395
     396
     397
     398
     399
     400
     401
     402
     403
     404
     405
     406
     407
     408
     409
     410
     411
     412
     413
     414
     415
     416
     417
     418
     419
     420
     421
     422
     423
     424
     425
     426
     427
     428
     429
     430
     431
     432
     433
     434
     435
     436
     437
     438
     439
     440
     441
     442
     443
     444
     445
     446
     447
     448
     449
     450
     451
     452
     453
     454
     455
     456
     457
     458
     459
     460
     461
     462
     463
     464
     465
     466
     467
     468
     469
     470
     471
     472
     473
     474
     475
     476
     477
     478
     479
     480
     481
     482
     483
     484
     485
     486
     487
     488
     489
     490
     491
     492
     493
     494
     495
     496
     497
     498
     499
     500
     501
     502
     503
     504
     505
     506
     507
     508
     509
     510
     511
     512
     513
     514
     515
     516
     517
     518
     519
     520
     521
     522
     523
     524
     525
     526
     527
     528
     529
     530
     531
     532
     533
     534
     535
     536
     537
     538
     539
     540
     541
     542
     543
     544
     545
     546
     547
     548
     549
     550
     551
     552
     553
     554
     555
     556
     557
     558
     559
     560
     561
     562
     563
     564
     565
     566
     567
     568
     569
     570
     571
     572
     573
     574
     575
     576
     577
     578
     579
     580
     581
     582
     583
     584
     585
     586
     587
     588
     589
     590
     591
     592
     593
     594
     595
     596
     597
     598
     599
     600
     601
     602
     603
     604
     605
     606
     607
     608
     609
     610
     611
     612
     613
     614
     615
     616
     617
     618
     619
     620
     621
     622
     623
     624
     625
     626
     627
     628
     629
     630
     631
     632
     633
     634
     635
     636
     637
     638
     639
     640
     641
     642
     643
     644
     645
     646
     647
     648
     649
     650
     651
     652
     653
     654
     655
     656
     657
     658
     659
     660
     661
     662
     663
     664
     665
     666
     667
     668
     669
     670
     671
     672
     673
     674
     675
     676
     677
     678
     679
     680
     681
     682
     683
     684
     685
     686
     687
     688
     689
     690
     691
     692
     693
     694
     695
     696
     697
     698
     699
     700
     701
     702
     703
     704
     705
     706
     707
     708
     709
     710
     711
     712
     713
     714
     715
     716
     717
     718
     719
     720
     721
     722
     723
     724
     725
     726
     727
     728
     729
     730
     731
     732
     733
     734
     735
     736
     737
     738
     739
     740
     741
     742
     743
     744
     745
     746
     747
     748
     749
     750
     751
     752
     753
     754
     755
     756
     757
     758
     759
     760
     761
     762
     763
     764
     765
     766
     767
     768
     769
     770
     771
     772
     773
     774
     775
     776
     777
     778
     779
     780
     781
     782
     783
     784
     785
     786
     787
     788
     789
     790
     791
     792
     793
     794
     795
     796
     797
     798
     799
     800
     801
     802
     803
     804
     805
     806
     807
     808
     809
     810
     811
     812
     813
     814
     815
     816
     817
     818
     819
     820
     821
     822
     823
     824
     825
     826
     827
     828
     829
     830
     831
     832
     833
     834
     835
     836
     837
     838
     839
     840
     841
     842
     843
     844
     845
     846
     847
     848
     849
     850
     851
     852
     853
     854
     855
     856
     857
     858
     859
     860
     861
     862
     863
     864
     865
     866
     867
     868
     869
     870
     871
     872
     873
     874
     875
     876
     877
     878
     879
     880
     881
     882
     883
     884
     885
     886
     887
     888
     889
     890
     891
     892
     893
     894
     895
     896
     897
     898
     899
     900
     901
     902
     903
     904
     905
     906
     907
     908
     909
     910
     911
     912
     913
     914
     915
     916
     917
     918
     919
     920
     921
     922
     923
     924
     925
     926
     927
     928
     929
     930
     931
     932
     933
     934
     935
     936
     937
     938
     939
     940
     941
     942
     943
     944
     945
     946
     947
     948
     949
     950
     951
     952
     953
     954
     955
     956
     957
     958
     959
     960
     961
     962
     963
     964
     965
     966
     967
     968
     969
     970
     971
     972
     973
     974
     975
     976
     977
     978
     979
     980
     981
     982
     983
     984
     985
     986
     987
     988
     989
     990
     991
     992
     993
     994
     995
     996
     997
     998
     999
    1000
    1001
    1002
    1003
    1004
    1005
    1006
    1007
    1008
    1009
    1010
    1011
    1012
    1013
    1014
    1015
    1016
    1017
    1018
    1019
    1020
    1021
    1022
    1023
    1024
    1025
    1026
    1027
    1028
    1029
    1030
    1031
    1032
    1033
    1034
    1035
    1036
    1037
    1038
    1039
    1040
    1041
    1042
    1043
    1044
    1045
    1046
    1047
    1048
    1049
    1050
    1051
    1052
    1053
    1054
    1055
    1056
    1057
    1058
    1059
    1060
    1061
    1062
    1063
    1064
    1065
    1066
    1067
    1068
    1069
    1070
    1071
    1072
    1073
    1074
    1075
    1076
    1077
    1078
    1079
    1080
    1081
    1082
    1083
    1084
    1085
    1086
    1087
    1088
    1089
    1090
    1091
    1092
    1093
    1094
    1095
    1096
    1097
    1098
    1099
    1100
    1101
    1102
    1103
    1104
    1105
    1106
    1107
    1108
    1109
    1110
    1111
    1112
    1113
    1114
    1115
    1116
    1117
    1118
    1119
    1120
    1121
    1122
</DataArray>
<DataArray type="UInt8" Name="types" format="ascii" RangeMin="1" RangeMax="1">
 1
 1
 1
 1
 1
 1
 1
 1
 1
 1
 1
 1
 1
 1
 1
 1
 1
 1
 1
 1
 1
 1
 1
 1
 1
 1
 1
 1
 1
 1
 1
 1
 1
 1
 1
 1
 1
 1
 1
 1
 1
 1
 1
 1
 1
 1
 1
 1
 1
 1
 1
 1
 1
 1
 1
 1
 1
 1
 1
 1
 1
 1
 1
 1
 1
 1
 1
 1
 1
 1
 1
 1
 1
 1
 1
 1
 1
 1
 1
 1
 1
 1
 1
 1
 1
 1
 1
 1
 1
 1
 1
 1
 1
 1
 1
 1
 1
 1
 1
 1
 1
 1
 1
 1
 1
 1
 1
 1
 1
 1
 1
 1
 1
 1
 1
 1
 1
 1
 1
 1
 1
 1
 1
 1
 1
 1
 1
 1
 1
 1
 1
 1
 1
 1
 1
 1
 1
 1
 1
 1
 1
 1
 1
 1
 1
 1
 1
 1
 1
 1
 1
 1
 1
 1
 1
 1
 1
 1
 1
 1
 1
 1
 1
 1
 1
 1
 1
 1
 1
 1
 1
 1
 1
 1
 1
 1
 1
 1
 1
 1
 1
 1
 1
 1
 1
 1
 1
 1
 1
 1
 1
 1
 1
 1
 1
 1
 1
 1
 1
 1
 1
 1
 1
 1
 1
 1
 1
 1
 1
 1
 1
 1
 1
 1
 1
 1
 1
 1
 1
 1
 1
 1
 1
 1
 1
 1
 1
 1
 1
 1
 1
 1
 1
 1
 1
 1
 1
 1
 1
 1
 1
 1
 1
 1
 1
 1
 1
 1
 1
 1
 1
 1
 1
 1
 1
 1
 1
 1
 1
 1
 1
 1
 1
 1
 1
 1
 1
 1
 1
 1
 1
 1
 1
 1
 1
 1
 1
 1
 1
 1
 1
 1
 1
 1
 1
 1
 1
 1
 1
 1
 1
 1
 1
 1
 1
 1
 1
 1
 1
 1
 1
 1
 1
 1
 1
 1
 1
 1
 1
 1
 1
 1
 1
 1
 1
 1
 1
 1
 1
 1
 1
 1
 1
 1
 1
 1
 1
 1
 1
 1
 1
 1
 1
 1
 1
 1
 1
 1
 1
 1
 1
 1
 1
 1
 1
 1
 1
 1
 1
 1
 1
 1
 1
 1
 1
 1
 1
 1
 1
 1
 1
 1
 1
 1
 1
 1
 1
 1
 1
 1
 1
 1
 1
 1
 1
 1
 1
 1
 1
 1
 1
 1
 1
 1
 1
 1
 1
 1
 1
 1
 1
 1
 1
 1
 1
 1
 1
 1
 1
 1
 1
 1
 1
 1
 1
 1
 1
 1
 1
 1
 1
 1
 1
 1
 1
 1
 1
 1
 1
 1
 1
 1
 1
 1
 1
 1
 1
 1
 1
 1
 1
 1
 1
 1
 1
 1
 1
 1
 1
 1
 1
 1
 1
 1
 1
 1
 1
 1
 1
 1
 1
 1
 1
 1
 1
 1
 1
 1
 1
 1
 1
 1
 1
 1
 1
 1
 1
 1
 1
 1
 1
 1
 1
 1
 1
 1
 1
 1
 1
 1
 1
 1
 1
 1
 1
 1
 1
 1
 1
 1
 1
 1
 1
 1
 1
 1
 1
 1
 1
 1
 1
 1
 1
 1
 1
 1
 1
 1
 1
 1
 1
 1
 1
 1
 1
 1
 1
 1
 1
 1
 1
 1
 1
 1
 1
 1
 1
 1
 1
 1
 1
 1
 1
 1
 1
 1
 1
 1
 1
 1
 1
 1
 1
 1
 1
 1
 1
 1
 1
 1
 1
 1
 1
 1
 1
 1
 1
 1
 1
 1
 1
 1
 1
 1
 1
 1
 1
 1
 1
 1
 1
 1
 1
 1
 1
 1
 1
 1
 1
 1
 1
 1
 1
 1
 1
 1
 1
 1
 1
 1
 1
 1
 1
 1
 1
 1
 1
 1
 1
 1
 1
 1
 1
 1
 1
 1
 1
 1
 1
 1
 1
 1
 1
 1
 1
 1
 1
 1
 1
 1
 1
 1
 1
 1
 1
 1
 1
 1
 1
 1
 1
 1
 1
 1
 1
 1
 1
 1
 1
 1
 1
 1
 1
 1
 1
 1
 1
 1
 1
 1
 1
 1
 1
 1
 1
 1
 1
 1
 1
 1
 1
 1
 1
 1
 1
 1
 1
 1
 1
 1
 1
 1
 1
 1
 1
 1
 1
 1
 1
 1
 1
 1
 1
 1
 1
 1
 1
 1
 1
 1
 1
 1
 1
 1
 1
 1
 1
 1
 1
 1
 1
 1
 1
 1
 1
 1
 1
 1
 1
 1
 1
 1
 1
 1
 1
 1
 1
 1
 1
 1
 1
 1
 1
 1
 1
 1
 1
 1
 1
 1
 1
 1
 1
 1
 1
 1
 1
 1
 1
 1
 1
 1
 1
 1
 1
 1
 1
 1
 1
 1
 1
 1
 1
 1
 1
 1
 1
 1
 1
 1
 1
 1
 1
 1
 1
 1
 1
 1
 1
 1
 1
 1
 1
 1
 1
 1
 1
 1
 1
 1
 1
 1
 1
 1
 1
 1
 1
 1
 1
 1
 1
 1
 1
 1
 1
 1
 1
 1
 1
 1
 1
 1
 1
 1
 1
 1
 1
 1
 1
 1
 1
 1
 1
 1
 1
 1
 1
 1
 1
 1
 1
 1
 1
 1
 1
 1
 1
 1
 1
 1
 1
 1
 1
 1
 1
 1
 1
 1
 1
 1
 1
 1
 1
 1
 1
 1
 1
 1
 1
 1
 1
 1
 1
 1
 1
 1
 1
 1
 1
 1
 1
 1
 1
 1
 1
 1
 1
 1
 1
 1
 1
 1
 1
 1
 1
 1
 1
 1
 1
 1
 1
 1
 1
 1
 1
 1
 1
 1
 1
 1
 1
 1
 1
 1
 1
 1
 1
 1
 1
 1
 1
 1
 1
 1
 1
 1
 1
 1
 1
 1
 1
 1
 1
 1
 1
 1
 1
 1
 1
 1
 1
 1
 1
 1
 1
 1
 1
 1
 1
 1
 1
 1
 1
 1
 1
 1
 1
 1
 1
 1
 1
 1
 1
 1
 1
 1
 1
 1
 1
 1
 1
 1
 1
 1
 1
 1
 1
 1
 1
 1
 1
 1
 1
 1
 1
 1
 1
 1
 1
 1
 1
 1
 1
 1
 1
 1
 1
 1
 1
 1
 1
 1
 1
 1
 1
 1
 1
 1
 1
 1
 1
 1
 1
 1
 1
 1
 1
 1
 1
 1
 1
 1
 1
 1
 1
 1
 1
 1
 1
 1
 1
 1
 1
 1
 1
 1
 1
 1
 1
 1
 1
 1
 1
 1
 1
 1
 1
 1
 1
 1
 1
 1
 1
 1
 1
 1
 1
 1
 1
 1
 1
 1
 1
 1
 1
 1
 1
 1
 1
 1
 1
 1
 1
 1
 1
 1
 1
 1
 1
 1
 1
 1
 1
 1
 1
 1
 1
 1
 1
 1
 1
 1
 1
 1
 1
 1
 1
 1
 1
 1
 1
 1
 1
 1
 1
 1
 1
 1
 1
 1
 1
 1
 1
 1
 1
 1
 1
 1
 1
 1
 1
 1
 1
 1
 1
 1
 1
 1
 1
 1
 1
 1
 1
 1
 1
 1
 1
 1
 1
 1
 1
 1
</DataArray>
</Cells>
</Piece>
</UnstructuredGrid>
</VTKFile>