%!PS-Adobe-3.0 EPSF-3.0
%%BoundingBox: (atend)
%%LanguageLevel: 2
%%Creator: Grace-5.1.25
%%CreationDate: Sat Nov  4 07:14:34 2017
%%DocumentData: Clean8Bit
%%Orientation: Portrait
%%Title: fort.11.wrk
%%For: digvijay
%%DocumentNeededResources: (atend)
%%EndComments
%%BeginProlog
/m {moveto} def
/l {lineto} def
/s {stroke} def
/n {newpath} def
/c {closepath} def
/RL {rlineto} def
/SLW {setlinewidth} def
/GS {gsave} def
/GR {grestore} def
/SC {setcolor} def
/SGRY {setgray} def
/SRGB {setrgbcolor} def
/SD {setdash} def
/SLC {setlinecap} def
/SLJ {setlinejoin} def
/SCS {setcolorspace} def
/FFSF {findfont setfont} def
/CC {concat} def
/PXL {n m 0 0 RL s} def
/Color0 {1.0000 1.0000 1.0000} def
/Color1 {0.0000 0.0000 0.0000} def
/Color2 {1.0000 0.0000 0.0000} def
/Color3 {0.0000 1.0000 0.0000} def
/Color4 {0.0000 0.0000 1.0000} def
/Color5 {1.0000 1.0000 0.0000} def
/Color6 {0.7373 0.5608 0.5608} def
/Color7 {0.8627 0.8627 0.8627} def
/Color8 {0.5804 0.0000 0.8275} def
/Color9 {0.0000 1.0000 1.0000} def
/Color10 {1.0000 0.0000 1.0000} def
/Color11 {1.0000 0.6471 0.0000} def
/Color12 {0.4471 0.1294 0.7373} def
/Color13 {0.4039 0.0275 0.2824} def
/Color14 {0.2510 0.8784 0.8157} def
/Color15 {0.0000 0.5451 0.0000} def
/PTRN {
 /pat_bits exch def 
 <<
  /PaintType 2
  /PatternType 1 /TilingType 1
  /BBox[0 0 16 16]
  /XStep 16 /YStep 16
  /PaintProc {
   pop
   16 16 true [-1 0 0 -1 16 16] pat_bits imagemask
  }
 >>
 [0.0017 0 0 0.0017 0 0]
 makepattern
} def
/Pattern0 {<0000000000000000000000000000000000000000000000000000000000000000> PTRN} bind def
/Pattern1 {<ffffffffffffffffffffffffffffffffffffffffffffffffffffffffffffffff> PTRN} bind def
/Pattern2 {<eeeeffffbbbbffffeeeeffffbbbbffffeeeeffffbbbbffffeeeeffffbbbbffff> PTRN} bind def
/Pattern3 {<eeeebbbbeeeebbbbeeeebbbbeeeebbbbeeeebbbbeeeebbbbeeeebbbbeeeebbbb> PTRN} bind def
/Pattern4 {<5555aaaa5555aaaa5555aaaa5555aaaa5555aaaa5555aaaa5555aaaa5555aaaa> PTRN} bind def
/Pattern5 {<1111444411114444111144441111444411114444111144441111444411114444> PTRN} bind def
/Pattern6 {<1111000044440000111100004444000011110000444400001111000044440000> PTRN} bind def
/Pattern7 {<1010000000000000010100000000000010100000000000000101000000000000> PTRN} bind def
/Pattern8 {<0000000000000000000000000000000000000000000000000000000000000000> PTRN} bind def
/Pattern9 {<1e1e0f0f8787c3c3e1e1f0f078783c3c1e1e0f0f8787c3c3e1e1f0f078783c3c> PTRN} bind def
/Pattern10 {<7878f0f0e1e1c3c387870f0f1e1e3c3c7878f0f0e1e1c3c387870f0f1e1e3c3c> PTRN} bind def
/Pattern11 {<3333333333333333333333333333333333333333333333333333333333333333> PTRN} bind def
/Pattern12 {<ffffffff00000000ffffffff00000000ffffffff00000000ffffffff00000000> PTRN} bind def
/Pattern13 {<8181424224241818181824244242818181814242242418181818242442428181> PTRN} bind def
/Pattern14 {<8080404020201010080804040202010180804040202010100808040402020101> PTRN} bind def
/Pattern15 {<0101020204040808101020204040808001010202040408081010202040408080> PTRN} bind def
/Pattern16 {<2222222222222222222222222222222222222222222222222222222222222222> PTRN} bind def
/Pattern17 {<0000ffff000000000000ffff000000000000ffff000000000000ffff00000000> PTRN} bind def
/Pattern18 {<2222ffff222222222222ffff222222222222ffff222222222222ffff22222222> PTRN} bind def
/Pattern19 {<ffffffff33333333ffffffff33333333ffffffff33333333ffffffff33333333> PTRN} bind def
/Pattern20 {<0f0f0f0f0f0f0f0ff0f0f0f0f0f0f0f00f0f0f0f0f0f0f0ff0f0f0f0f0f0f0f0> PTRN} bind def
/Pattern21 {<ff00ff00ff00ff00ff00ff00ff00ff0000ff00ff00ff00ff00ff00ff00ff00ff> PTRN} bind def
/Pattern22 {<8001800180018001800180018001ffffffff8001800180018001800180018001> PTRN} bind def
/Pattern23 {<c003c003c003c003c003c003ffffffffffffffffc003c003c003c003c003c003> PTRN} bind def
/Pattern24 {<040404040404ffff404040404040ffff040404040404ffff404040404040ffff> PTRN} bind def
/Pattern25 {<180018001800180018001800ffffffff001800180018001800180018ffffffff> PTRN} bind def
/Pattern26 {<1111b8b87c7c3a3a1111a3a3c7c78b8b1111b8b87c7c3a3a1111a3a3c7c78b8b> PTRN} bind def
/Pattern27 {<101010102828c7c70101010182827c7c101010102828c7c70101010182827c7c> PTRN} bind def
/Pattern28 {<1c1c121211112121c1c12121111112121c1c121211112121c1c1212111111212> PTRN} bind def
/Pattern29 {<3e3e414180808080e3e31414080808083e3e414180808080e3e3141408080808> PTRN} bind def
/Pattern30 {<4848888884848383848488884848383848488888848483838484888848483838> PTRN} bind def
/Pattern31 {<03030404080808080c0c12122121c0c003030404080808080c0c12122121c0c0> PTRN} bind def
/ellipsedict 8 dict def
ellipsedict /mtrx matrix put
/EARC {
 ellipsedict begin
  /endangle exch def
  /startangle exch def
  /yrad exch def
  /xrad exch def
  /y exch def
  /x exch def
  /savematrix mtrx currentmatrix def
  x y translate
  xrad yrad scale
  0 0 1 startangle endangle arc
  savematrix setmatrix
 end
} def
/TL {
  /kcomp exch def
  /linewidth exch def
  /offset exch def
  GS
  0 offset rmoveto
  linewidth SLW
  dup stringwidth exch kcomp add exch RL s
  GR
} def
/KINIT
{
 /kvector exch def
 /kid 0 def
} def
/KPROC
{
 pop pop
 kvector kid get
 0 rmoveto
 /kid 1 kid add def
} def
/DefEncoding [
 /.notdef
 /.notdef
 /.notdef
 /.notdef
 /.notdef
 /.notdef
 /.notdef
 /.notdef
 /.notdef
 /.notdef
 /.notdef
 /.notdef
 /.notdef
 /.notdef
 /.notdef
 /.notdef
 /.notdef
 /.notdef
 /.notdef
 /.notdef
 /.notdef
 /.notdef
 /.notdef
 /.notdef
 /.notdef
 /.notdef
 /.notdef
 /.notdef
 /.notdef
 /.notdef
 /.notdef
 /.notdef
 /space
 /exclam
 /quotedbl
 /numbersign
 /dollar
 /percent
 /ampersand
 /quoteright
 /parenleft
 /parenright
 /asterisk
 /plus
 /comma
 /hyphen
 /period
 /slash
 /zero
 /one
 /two
 /three
 /four
 /five
 /six
 /seven
 /eight
 /nine
 /colon
 /semicolon
 /less
 /equal
 /greater
 /question
 /at
 /A
 /B
 /C
 /D
 /E
 /F
 /G
 /H
 /I
 /J
 /K
 /L
 /M
 /N
 /O
 /P
 /Q
 /R
 /S
 /T
 /U
 /V
 /W
 /X
 /Y
 /Z
 /bracketleft
 /backslash
 /bracketright
 /asciicircum
 /underscore
 /grave
 /a
 /b
 /c
 /d
 /e
 /f
 /g
 /h
 /i
 /j
 /k
 /l
 /m
 /n
 /o
 /p
 /q
 /r
 /s
 /t
 /u
 /v
 /w
 /x
 /y
 /z
 /braceleft
 /bar
 /braceright
 /asciitilde
 /.notdef
 /.notdef
 /.notdef
 /.notdef
 /.notdef
 /.notdef
 /.notdef
 /.notdef
 /.notdef
 /.notdef
 /.notdef
 /.notdef
 /.notdef
 /.notdef
 /.notdef
 /.notdef
 /.notdef
 /.notdef
 /.notdef
 /.notdef
 /.notdef
 /.notdef
 /.notdef
 /.notdef
 /.notdef
 /.notdef
 /.notdef
 /.notdef
 /.notdef
 /.notdef
 /.notdef
 /.notdef
 /.notdef
 /space
 /exclamdown
 /cent
 /sterling
 /currency
 /yen
 /brokenbar
 /section
 /dieresis
 /copyright
 /ordfeminine
 /guillemotleft
 /logicalnot
 /hyphen
 /registered
 /macron
 /degree
 /plusminus
 /twosuperior
 /threesuperior
 /acute
 /mu
 /paragraph
 /periodcentered
 /cedilla
 /onesuperior
 /ordmasculine
 /guillemotright
 /onequarter
 /onehalf
 /threequarters
 /questiondown
 /Agrave
 /Aacute
 /Acircumflex
 /Atilde
 /Adieresis
 /Aring
 /AE
 /Ccedilla
 /Egrave
 /Eacute
 /Ecircumflex
 /Edieresis
 /Igrave
 /Iacute
 /Icircumflex
 /Idieresis
 /Eth
 /Ntilde
 /Ograve
 /Oacute
 /Ocircumflex
 /Otilde
 /Odieresis
 /multiply
 /Oslash
 /Ugrave
 /Uacute
 /Ucircumflex
 /Udieresis
 /Yacute
 /Thorn
 /germandbls
 /agrave
 /aacute
 /acircumflex
 /atilde
 /adieresis
 /aring
 /ae
 /ccedilla
 /egrave
 /eacute
 /ecircumflex
 /edieresis
 /igrave
 /iacute
 /icircumflex
 /idieresis
 /eth
 /ntilde
 /ograve
 /oacute
 /ocircumflex
 /otilde
 /odieresis
 /divide
 /oslash
 /ugrave
 /uacute
 /ucircumflex
 /udieresis
 /yacute
 /thorn
 /ydieresis
] def
%%EndProlog
%%BeginSetup
%%EndSetup
594.96 594.96 scale
n
0.0000 0.0000 m
0.0000 1.0000 l
1.4151 1.0000 l
1.4151 0.0000 l
c
[/DeviceRGB] SCS
Color0 SC
fill
[/DeviceRGB] SCS
Color1 SC
[0.0015 0.0045 ] 0 SD
0.0015 SLW
0 SLC
0 SLJ
n
0.1500 0.1500 m
0.1500 0.8500 l
s
n
0.3500 0.1500 m
0.3500 0.8500 l
s
n
0.5500 0.1500 m
0.5500 0.8500 l
s
n
0.7500 0.1500 m
0.7500 0.8500 l
s
n
0.9500 0.1500 m
0.9500 0.8500 l
s
n
1.1500 0.1500 m
1.1500 0.8500 l
s
n
0.1500 0.1665 m
1.1500 0.1665 l
s
n
0.1500 0.3264 m
1.1500 0.3264 l
s
n
0.1500 0.4863 m
1.1500 0.4863 l
s
n
0.1500 0.6461 m
1.1500 0.6461 l
s
n
0.1500 0.8060 m
1.1500 0.8060 l
s
[/DeviceRGB] SCS
Color2 SC
[] 0 SD
0.0015 SLW
n
0.1500 0.1802 m
0.1505 0.1793 l
0.1510 0.1782 l
0.1515 0.1789 l
0.1520 0.1802 l
0.1524 0.1798 l
0.1529 0.1785 l
0.1534 0.1787 l
0.1539 0.1801 l
0.1544 0.1803 l
0.1549 0.1790 l
0.1554 0.1787 l
0.1559 0.1800 l
0.1563 0.1807 l
0.1568 0.1797 l
0.1573 0.1789 l
0.1578 0.1800 l
0.1583 0.1812 l
0.1588 0.1806 l
0.1593 0.1795 l
0.1598 0.1802 l
0.1603 0.1816 l
0.1607 0.1816 l
0.1612 0.1804 l
0.1617 0.1806 l
0.1622 0.1822 l
0.1627 0.1827 l
0.1632 0.1817 l
0.1637 0.1813 l
0.1642 0.1828 l
0.1646 0.1839 l
0.1651 0.1832 l
0.1656 0.1825 l
0.1661 0.1838 l
0.1666 0.1853 l
0.1671 0.1852 l
0.1676 0.1843 l
0.1681 0.1852 l
0.1686 0.1871 l
0.1690 0.1876 l
0.1695 0.1868 l
0.1700 0.1873 l
0.1705 0.1895 l
0.1710 0.1908 l
0.1715 0.1904 l
0.1720 0.1906 l
0.1725 0.1929 l
0.1729 0.1951 l
0.1734 0.1955 l
0.1739 0.1958 l
0.1744 0.1984 l
0.1749 0.2016 l
0.1754 0.2033 l
0.1759 0.2045 l
0.1764 0.2078 l
0.1769 0.2129 l
0.1773 0.2170 l
0.1778 0.2205 l
0.1783 0.2265 l
0.1788 0.2356 l
0.1793 0.2453 l
0.1798 0.2554 l
0.1803 0.2695 l
0.1808 0.2873 l
0.1812 0.3016 l
0.1817 0.3061 l
0.1822 0.3007 l
0.1827 0.2874 l
0.1832 0.2695 l
0.1837 0.2533 l
0.1842 0.2423 l
0.1847 0.2337 l
0.1852 0.2247 l
0.1856 0.2170 l
0.1861 0.2128 l
0.1866 0.2099 l
0.1871 0.2054 l
0.1876 0.2008 l
0.1881 0.1987 l
0.1886 0.1981 l
0.1891 0.1958 l
0.1896 0.1923 l
0.1900 0.1907 l
0.1905 0.1910 l
0.1910 0.1901 l
0.1915 0.1873 l
0.1920 0.1856 l
0.1925 0.1863 l
0.1930 0.1864 l
0.1935 0.1842 l
0.1939 0.1822 l
0.1944 0.1827 l
0.1949 0.1836 l
0.1954 0.1822 l
0.1959 0.1799 l
0.1964 0.1800 l
0.1969 0.1814 l
0.1974 0.1808 l
0.1979 0.1785 l
0.1983 0.1779 l
0.1988 0.1795 l
0.1993 0.1797 l
0.1998 0.1776 l
0.2003 0.1763 l
0.2008 0.1777 l
0.2013 0.1787 l
0.2018 0.1772 l
0.2022 0.1752 l
0.2027 0.1762 l
0.2032 0.1778 l
0.2037 0.1769 l
0.2042 0.1746 l
0.2047 0.1748 l
0.2052 0.1767 l
0.2057 0.1767 l
0.2062 0.1744 l
0.2066 0.1736 l
0.2071 0.1757 l
0.2076 0.1765 l
0.2081 0.1746 l
0.2086 0.1728 l
0.2091 0.1745 l
0.2096 0.1761 l
0.2101 0.1748 l
0.2105 0.1724 l
0.2110 0.1734 l
0.2115 0.1756 l
0.2120 0.1751 l
0.2125 0.1725 l
0.2130 0.1723 l
0.2135 0.1749 l
0.2140 0.1753 l
0.2145 0.1730 l
0.2149 0.1714 l
0.2154 0.1740 l
0.2159 0.1754 l
0.2164 0.1736 l
0.2169 0.1710 l
0.2174 0.1730 l
0.2179 0.1752 l
0.2184 0.1743 l
0.2188 0.1712 l
0.2193 0.1719 l
0.2198 0.1749 l
0.2203 0.1749 l
0.2208 0.1719 l
0.2213 0.1709 l
0.2218 0.1742 l
0.2223 0.1754 l
0.2228 0.1729 l
0.2232 0.1702 l
0.2237 0.1734 l
0.2242 0.1756 l
0.2247 0.1740 l
0.2252 0.1702 l
0.2257 0.1723 l
0.2262 0.1756 l
0.2267 0.1751 l
0.2271 0.1711 l
0.2276 0.1710 l
0.2281 0.1752 l
0.2286 0.1760 l
0.2291 0.1725 l
0.2296 0.1699 l
0.2301 0.1746 l
0.2306 0.1768 l
0.2311 0.1742 l
0.2315 0.1695 l
0.2320 0.1736 l
0.2325 0.1773 l
0.2330 0.1760 l
0.2335 0.1705 l
0.2340 0.1723 l
0.2345 0.1776 l
0.2350 0.1779 l
0.2354 0.1727 l
0.2359 0.1706 l
0.2364 0.1775 l
0.2369 0.1797 l
0.2374 0.1755 l
0.2379 0.1691 l
0.2384 0.1769 l
0.2389 0.1816 l
0.2394 0.1789 l
0.2398 0.1701 l
0.2403 0.1759 l
0.2408 0.1836 l
0.2413 0.1831 l
0.2418 0.1740 l
0.2423 0.1741 l
0.2428 0.1859 l
0.2433 0.1889 l
0.2437 0.1803 l
0.2442 0.1710 l
0.2447 0.1889 l
0.2452 0.1981 l
0.2457 0.1915 l
0.2462 0.1697 l
0.2467 0.1943 l
0.2472 0.2176 l
0.2477 0.2189 l
0.2481 0.1875 l
0.2486 0.2133 l
0.2491 0.3173 l
0.2496 0.5060 l
0.2501 0.8333 l
0.2506 0.2258 l
0.2511 0.2740 l
0.2516 0.2538 l
0.2521 0.2092 l
0.2525 0.1694 l
0.2530 0.1978 l
0.2535 0.2047 l
0.2540 0.1928 l
0.2545 0.1719 l
0.2550 0.1808 l
0.2555 0.1896 l
0.2560 0.1862 l
0.2564 0.1742 l
0.2569 0.1731 l
0.2574 0.1818 l
0.2579 0.1822 l
0.2584 0.1751 l
0.2589 0.1691 l
0.2594 0.1769 l
0.2599 0.1792 l
0.2604 0.1752 l
0.2608 0.1683 l
0.2613 0.1733 l
0.2618 0.1767 l
0.2623 0.1750 l
0.2628 0.1696 l
0.2633 0.1707 l
0.2638 0.1746 l
0.2643 0.1744 l
0.2647 0.1706 l
0.2652 0.1689 l
0.2657 0.1728 l
0.2662 0.1737 l
0.2667 0.1712 l
0.2672 0.1680 l
0.2677 0.1712 l
0.2682 0.1729 l
0.2687 0.1715 l
0.2691 0.1683 l
0.2696 0.1698 l
0.2701 0.1720 l
0.2706 0.1715 l
0.2711 0.1689 l
0.2716 0.1687 l
0.2721 0.1710 l
0.2726 0.1713 l
0.2730 0.1695 l
0.2735 0.1680 l
0.2740 0.1701 l
0.2745 0.1710 l
0.2750 0.1698 l
0.2755 0.1679 l
0.2760 0.1693 l
0.2765 0.1706 l
0.2770 0.1700 l
0.2774 0.1682 l
0.2779 0.1685 l
0.2784 0.1700 l
0.2789 0.1700 l
0.2794 0.1686 l
0.2799 0.1680 l
0.2804 0.1695 l
0.2809 0.1699 l
0.2813 0.1689 l
0.2818 0.1677 l
0.2823 0.1689 l
0.2828 0.1697 l
0.2833 0.1691 l
0.2838 0.1678 l
0.2843 0.1684 l
0.2848 0.1694 l
0.2853 0.1692 l
0.2857 0.1681 l
0.2862 0.1679 l
0.2867 0.1690 l
0.2872 0.1692 l
0.2877 0.1683 l
0.2882 0.1677 l
0.2887 0.1686 l
0.2892 0.1691 l
0.2896 0.1685 l
0.2901 0.1676 l
0.2906 0.1682 l
0.2911 0.1689 l
0.2916 0.1687 l
0.2921 0.1678 l
0.2926 0.1679 l
0.2931 0.1687 l
0.2936 0.1687 l
0.2940 0.1680 l
0.2945 0.1676 l
0.2950 0.1684 l
0.2955 0.1687 l
0.2960 0.1681 l
0.2965 0.1675 l
0.2970 0.1681 l
0.2975 0.1686 l
0.2979 0.1683 l
0.2984 0.1676 l
0.2989 0.1678 l
0.2994 0.1684 l
0.2999 0.1683 l
0.3004 0.1677 l
0.3009 0.1676 l
0.3014 0.1682 l
0.3019 0.1683 l
0.3023 0.1679 l
0.3028 0.1675 l
0.3033 0.1680 l
0.3038 0.1683 l
0.3043 0.1680 l
0.3048 0.1675 l
0.3053 0.1678 l
0.3058 0.1682 l
0.3062 0.1681 l
0.3067 0.1676 l
0.3072 0.1676 l
0.3077 0.1680 l
0.3082 0.1681 l
0.3087 0.1677 l
0.3092 0.1675 l
0.3097 0.1679 l
0.3102 0.1681 l
0.3106 0.1678 l
0.3111 0.1674 l
0.3116 0.1677 l
0.3121 0.1680 l
0.3126 0.1678 l
0.3131 0.1674 l
0.3136 0.1675 l
0.3141 0.1679 l
0.3146 0.1679 l
0.3150 0.1675 l
0.3155 0.1674 l
0.3160 0.1678 l
0.3165 0.1679 l
0.3170 0.1676 l
0.3175 0.1674 l
0.3180 0.1676 l
0.3185 0.1678 l
0.3189 0.1677 l
0.3194 0.1674 l
0.3199 0.1675 l
0.3204 0.1678 l
0.3209 0.1677 l
0.3214 0.1674 l
0.3219 0.1674 l
0.3224 0.1677 l
0.3229 0.1677 l
0.3233 0.1675 l
0.3238 0.1673 l
0.3243 0.1676 l
0.3248 0.1677 l
0.3253 0.1675 l
0.3258 0.1673 l
0.3263 0.1675 l
0.3268 0.1677 l
0.3272 0.1676 l
0.3277 0.1673 l
0.3282 0.1674 l
0.3287 0.1676 l
0.3292 0.1676 l
0.3297 0.1674 l
0.3302 0.1673 l
0.3307 0.1675 l
0.3312 0.1676 l
0.3316 0.1674 l
0.3321 0.1673 l
0.3326 0.1674 l
0.3331 0.1676 l
0.3336 0.1675 l
0.3341 0.1673 l
0.3346 0.1673 l
0.3351 0.1675 l
0.3355 0.1675 l
0.3360 0.1673 l
0.3365 0.1673 l
0.3370 0.1675 l
0.3375 0.1675 l
0.3380 0.1673 l
0.3385 0.1672 l
0.3390 0.1674 l
0.3395 0.1675 l
0.3399 0.1674 l
0.3404 0.1672 l
0.3409 0.1673 l
0.3414 0.1675 l
0.3419 0.1674 l
0.3424 0.1672 l
0.3429 0.1673 l
0.3434 0.1674 l
0.3438 0.1674 l
0.3443 0.1673 l
0.3448 0.1672 l
0.3453 0.1674 l
0.3458 0.1674 l
0.3463 0.1673 l
0.3468 0.1672 l
0.3473 0.1673 l
0.3478 0.1674 l
0.3482 0.1673 l
0.3487 0.1672 l
0.3492 0.1672 l
0.3497 0.1674 l
0.3502 0.1674 l
0.3507 0.1672 l
0.3512 0.1672 l
0.3517 0.1673 l
0.3521 0.1674 l
0.3526 0.1672 l
0.3531 0.1672 l
0.3536 0.1673 l
0.3541 0.1674 l
0.3546 0.1673 l
0.3551 0.1672 l
0.3556 0.1672 l
0.3561 0.1673 l
0.3565 0.1673 l
0.3570 0.1672 l
0.3575 0.1672 l
0.3580 0.1673 l
0.3585 0.1673 l
0.3590 0.1672 l
0.3595 0.1671 l
0.3600 0.1672 l
0.3604 0.1673 l
0.3609 0.1672 l
0.3614 0.1671 l
0.3619 0.1672 l
0.3624 0.1673 l
0.3629 0.1672 l
0.3634 0.1671 l
0.3639 0.1672 l
0.3644 0.1673 l
0.3648 0.1672 l
0.3653 0.1671 l
0.3658 0.1671 l
0.3663 0.1672 l
0.3668 0.1673 l
0.3673 0.1672 l
0.3678 0.1671 l
0.3683 0.1672 l
0.3687 0.1672 l
0.3692 0.1672 l
0.3697 0.1671 l
0.3702 0.1671 l
0.3707 0.1672 l
0.3712 0.1672 l
0.3717 0.1671 l
0.3722 0.1671 l
0.3727 0.1672 l
0.3731 0.1672 l
0.3736 0.1671 l
0.3741 0.1671 l
0.3746 0.1672 l
0.3751 0.1672 l
0.3756 0.1671 l
0.3761 0.1671 l
0.3766 0.1671 l
0.3770 0.1672 l
0.3775 0.1672 l
0.3780 0.1671 l
0.3785 0.1671 l
0.3790 0.1672 l
0.3795 0.1672 l
0.3800 0.1671 l
0.3805 0.1671 l
0.3810 0.1671 l
0.3814 0.1672 l
0.3819 0.1671 l
0.3824 0.1671 l
0.3829 0.1671 l
0.3834 0.1672 l
0.3839 0.1671 l
0.3844 0.1671 l
0.3849 0.1671 l
0.3854 0.1671 l
0.3858 0.1671 l
0.3863 0.1671 l
0.3868 0.1671 l
0.3873 0.1671 l
0.3878 0.1671 l
0.3883 0.1671 l
0.3888 0.1670 l
0.3893 0.1671 l
0.3897 0.1671 l
0.3902 0.1671 l
0.3907 0.1670 l
0.3912 0.1671 l
0.3917 0.1671 l
0.3922 0.1671 l
0.3927 0.1670 l
0.3932 0.1670 l
0.3937 0.1671 l
0.3941 0.1671 l
0.3946 0.1670 l
0.3951 0.1670 l
0.3956 0.1671 l
0.3961 0.1671 l
0.3966 0.1671 l
0.3971 0.1670 l
0.3976 0.1671 l
0.3980 0.1671 l
0.3985 0.1671 l
0.3990 0.1670 l
0.3995 0.1670 l
0.4000 0.1671 l
0.4005 0.1671 l
0.4010 0.1670 l
0.4015 0.1670 l
0.4020 0.1671 l
0.4024 0.1671 l
0.4029 0.1670 l
0.4034 0.1670 l
0.4039 0.1670 l
0.4044 0.1671 l
0.4049 0.1670 l
0.4054 0.1670 l
0.4059 0.1670 l
0.4063 0.1671 l
0.4068 0.1671 l
0.4073 0.1670 l
0.4078 0.1670 l
0.4083 0.1670 l
0.4088 0.1671 l
0.4093 0.1670 l
0.4098 0.1670 l
0.4103 0.1670 l
0.4107 0.1671 l
0.4112 0.1670 l
0.4117 0.1670 l
0.4122 0.1670 l
0.4127 0.1670 l
0.4132 0.1670 l
0.4137 0.1670 l
0.4142 0.1670 l
0.4146 0.1670 l
0.4151 0.1670 l
0.4156 0.1670 l
0.4161 0.1670 l
0.4166 0.1670 l
0.4171 0.1670 l
0.4176 0.1670 l
0.4181 0.1670 l
0.4186 0.1670 l
0.4190 0.1670 l
0.4195 0.1670 l
0.4200 0.1670 l
0.4205 0.1670 l
0.4210 0.1670 l
0.4215 0.1670 l
0.4220 0.1670 l
0.4225 0.1670 l
0.4229 0.1670 l
0.4234 0.1670 l
0.4239 0.1670 l
0.4244 0.1670 l
0.4249 0.1670 l
0.4254 0.1670 l
0.4259 0.1670 l
0.4264 0.1670 l
0.4269 0.1670 l
0.4273 0.1670 l
0.4278 0.1670 l
0.4283 0.1670 l
0.4288 0.1670 l
0.4293 0.1670 l
0.4298 0.1670 l
0.4303 0.1670 l
0.4308 0.1670 l
0.4312 0.1670 l
0.4317 0.1670 l
0.4322 0.1670 l
0.4327 0.1669 l
0.4332 0.1670 l
0.4337 0.1670 l
0.4342 0.1670 l
0.4347 0.1669 l
0.4352 0.1670 l
0.4356 0.1670 l
0.4361 0.1670 l
0.4366 0.1669 l
0.4371 0.1669 l
0.4376 0.1670 l
0.4381 0.1670 l
0.4386 0.1670 l
0.4391 0.1669 l
0.4395 0.1670 l
0.4400 0.1670 l
0.4405 0.1670 l
0.4410 0.1669 l
0.4415 0.1669 l
0.4420 0.1670 l
0.4425 0.1670 l
0.4430 0.1669 l
0.4435 0.1669 l
0.4439 0.1670 l
0.4444 0.1670 l
0.4449 0.1669 l
0.4454 0.1669 l
0.4459 0.1669 l
0.4464 0.1670 l
0.4469 0.1669 l
0.4474 0.1669 l
0.4479 0.1669 l
0.4483 0.1670 l
0.4488 0.1669 l
0.4493 0.1669 l
0.4498 0.1669 l
0.4503 0.1669 l
0.4508 0.1669 l
0.4513 0.1669 l
0.4518 0.1669 l
0.4522 0.1669 l
0.4527 0.1669 l
0.4532 0.1669 l
0.4537 0.1669 l
0.4542 0.1669 l
0.4547 0.1669 l
0.4552 0.1669 l
0.4557 0.1669 l
0.4562 0.1669 l
0.4566 0.1669 l
0.4571 0.1669 l
0.4576 0.1669 l
0.4581 0.1669 l
0.4586 0.1669 l
0.4591 0.1669 l
0.4596 0.1669 l
0.4601 0.1669 l
0.4605 0.1669 l
0.4610 0.1669 l
0.4615 0.1669 l
0.4620 0.1669 l
0.4625 0.1669 l
0.4630 0.1669 l
0.4635 0.1669 l
0.4640 0.1669 l
0.4645 0.1669 l
0.4649 0.1669 l
0.4654 0.1669 l
0.4659 0.1669 l
0.4664 0.1669 l
0.4669 0.1669 l
0.4674 0.1669 l
0.4679 0.1669 l
0.4684 0.1669 l
0.4688 0.1669 l
0.4693 0.1669 l
0.4698 0.1669 l
0.4703 0.1669 l
0.4708 0.1669 l
0.4713 0.1669 l
0.4718 0.1669 l
0.4723 0.1669 l
0.4728 0.1669 l
0.4732 0.1669 l
0.4737 0.1669 l
0.4742 0.1669 l
0.4747 0.1669 l
0.4752 0.1669 l
0.4757 0.1669 l
0.4762 0.1669 l
0.4767 0.1669 l
0.4771 0.1669 l
0.4776 0.1669 l
0.4781 0.1669 l
0.4786 0.1669 l
0.4791 0.1669 l
0.4796 0.1669 l
0.4801 0.1669 l
0.4806 0.1669 l
0.4811 0.1669 l
0.4815 0.1669 l
0.4820 0.1669 l
0.4825 0.1669 l
0.4830 0.1669 l
0.4835 0.1669 l
0.4840 0.1669 l
0.4845 0.1669 l
0.4850 0.1669 l
0.4854 0.1669 l
0.4859 0.1669 l
0.4864 0.1669 l
0.4869 0.1669 l
0.4874 0.1669 l
0.4879 0.1669 l
0.4884 0.1669 l
0.4889 0.1669 l
0.4894 0.1669 l
0.4898 0.1669 l
0.4903 0.1669 l
0.4908 0.1669 l
0.4913 0.1669 l
0.4918 0.1669 l
0.4923 0.1669 l
0.4928 0.1669 l
0.4933 0.1669 l
0.4937 0.1669 l
0.4942 0.1669 l
0.4947 0.1669 l
0.4952 0.1669 l
0.4957 0.1669 l
0.4962 0.1669 l
0.4967 0.1669 l
0.4972 0.1669 l
0.4977 0.1669 l
0.4981 0.1669 l
0.4986 0.1669 l
0.4991 0.1669 l
0.4996 0.1669 l
0.5001 0.1669 l
0.5006 0.1669 l
0.5011 0.1669 l
0.5016 0.1669 l
0.5020 0.1669 l
0.5025 0.1669 l
0.5030 0.1669 l
0.5035 0.1669 l
0.5040 0.1669 l
0.5045 0.1669 l
0.5050 0.1669 l
0.5055 0.1669 l
0.5060 0.1668 l
0.5064 0.1669 l
0.5069 0.1669 l
0.5074 0.1669 l
0.5079 0.1668 l
0.5084 0.1668 l
0.5089 0.1669 l
0.5094 0.1669 l
0.5099 0.1669 l
0.5104 0.1668 l
0.5108 0.1669 l
0.5113 0.1669 l
0.5118 0.1669 l
0.5123 0.1668 l
0.5128 0.1668 l
0.5133 0.1669 l
0.5138 0.1669 l
0.5143 0.1668 l
0.5147 0.1668 l
0.5152 0.1669 l
0.5157 0.1669 l
0.5162 0.1668 l
0.5167 0.1668 l
0.5172 0.1668 l
0.5177 0.1669 l
0.5182 0.1668 l
0.5187 0.1668 l
0.5191 0.1668 l
0.5196 0.1668 l
0.5201 0.1668 l
0.5206 0.1668 l
0.5211 0.1668 l
0.5216 0.1668 l
0.5221 0.1668 l
0.5226 0.1668 l
0.5230 0.1668 l
0.5235 0.1668 l
0.5240 0.1668 l
0.5245 0.1668 l
0.5250 0.1668 l
0.5255 0.1668 l
0.5260 0.1668 l
0.5265 0.1668 l
0.5270 0.1668 l
0.5274 0.1668 l
0.5279 0.1668 l
0.5284 0.1668 l
0.5289 0.1668 l
0.5294 0.1668 l
0.5299 0.1668 l
0.5304 0.1668 l
0.5309 0.1668 l
0.5313 0.1668 l
0.5318 0.1668 l
0.5323 0.1668 l
0.5328 0.1668 l
0.5333 0.1668 l
0.5338 0.1668 l
0.5343 0.1668 l
0.5348 0.1668 l
0.5353 0.1668 l
0.5357 0.1668 l
0.5362 0.1668 l
0.5367 0.1668 l
0.5372 0.1668 l
0.5377 0.1668 l
0.5382 0.1668 l
0.5387 0.1668 l
0.5392 0.1668 l
0.5396 0.1668 l
0.5401 0.1668 l
0.5406 0.1668 l
0.5411 0.1668 l
0.5416 0.1668 l
0.5421 0.1668 l
0.5426 0.1668 l
0.5431 0.1668 l
0.5436 0.1668 l
0.5440 0.1668 l
0.5445 0.1668 l
0.5450 0.1668 l
0.5455 0.1668 l
0.5460 0.1668 l
0.5465 0.1668 l
0.5470 0.1668 l
0.5475 0.1668 l
0.5479 0.1668 l
0.5484 0.1668 l
0.5489 0.1668 l
0.5494 0.1668 l
0.5499 0.1668 l
0.5504 0.1668 l
0.5509 0.1668 l
0.5514 0.1668 l
0.5519 0.1668 l
0.5523 0.1668 l
0.5528 0.1668 l
0.5533 0.1668 l
0.5538 0.1668 l
0.5543 0.1668 l
0.5548 0.1668 l
0.5553 0.1668 l
0.5558 0.1668 l
0.5562 0.1668 l
0.5567 0.1668 l
0.5572 0.1668 l
0.5577 0.1668 l
0.5582 0.1668 l
0.5587 0.1668 l
0.5592 0.1668 l
0.5597 0.1668 l
0.5602 0.1668 l
0.5606 0.1668 l
0.5611 0.1668 l
0.5616 0.1668 l
0.5621 0.1668 l
0.5626 0.1668 l
0.5631 0.1668 l
0.5636 0.1668 l
0.5641 0.1668 l
0.5645 0.1668 l
0.5650 0.1668 l
0.5655 0.1668 l
0.5660 0.1668 l
0.5665 0.1668 l
0.5670 0.1668 l
0.5675 0.1668 l
0.5680 0.1668 l
0.5685 0.1668 l
0.5689 0.1668 l
0.5694 0.1668 l
0.5699 0.1668 l
0.5704 0.1668 l
0.5709 0.1668 l
0.5714 0.1668 l
0.5719 0.1668 l
0.5724 0.1668 l
0.5729 0.1668 l
0.5733 0.1668 l
0.5738 0.1668 l
0.5743 0.1668 l
0.5748 0.1668 l
0.5753 0.1668 l
0.5758 0.1668 l
0.5763 0.1668 l
0.5768 0.1668 l
0.5772 0.1668 l
0.5777 0.1668 l
0.5782 0.1668 l
0.5787 0.1668 l
0.5792 0.1668 l
0.5797 0.1668 l
0.5802 0.1668 l
0.5807 0.1668 l
0.5812 0.1668 l
0.5816 0.1668 l
0.5821 0.1668 l
0.5826 0.1668 l
0.5831 0.1668 l
0.5836 0.1668 l
0.5841 0.1668 l
0.5846 0.1668 l
0.5851 0.1668 l
0.5855 0.1668 l
0.5860 0.1668 l
0.5865 0.1668 l
0.5870 0.1668 l
0.5875 0.1668 l
0.5880 0.1668 l
0.5885 0.1668 l
0.5890 0.1668 l
0.5895 0.1668 l
0.5899 0.1668 l
0.5904 0.1668 l
0.5909 0.1668 l
0.5914 0.1668 l
0.5919 0.1668 l
0.5924 0.1668 l
0.5929 0.1668 l
0.5934 0.1668 l
0.5938 0.1668 l
0.5943 0.1668 l
0.5948 0.1668 l
0.5953 0.1668 l
0.5958 0.1668 l
0.5963 0.1668 l
0.5968 0.1668 l
0.5973 0.1668 l
0.5978 0.1668 l
0.5982 0.1668 l
0.5987 0.1668 l
0.5992 0.1668 l
0.5997 0.1668 l
0.6002 0.1668 l
0.6007 0.1668 l
0.6012 0.1668 l
0.6017 0.1668 l
0.6021 0.1668 l
0.6026 0.1668 l
0.6031 0.1668 l
0.6036 0.1668 l
0.6041 0.1668 l
0.6046 0.1668 l
0.6051 0.1668 l
0.6056 0.1668 l
0.6061 0.1668 l
0.6065 0.1668 l
0.6070 0.1668 l
0.6075 0.1668 l
0.6080 0.1668 l
0.6085 0.1668 l
0.6090 0.1668 l
0.6095 0.1668 l
0.6100 0.1668 l
0.6104 0.1668 l
0.6109 0.1668 l
0.6114 0.1668 l
0.6119 0.1668 l
0.6124 0.1668 l
0.6129 0.1668 l
0.6134 0.1668 l
0.6139 0.1668 l
0.6144 0.1668 l
0.6148 0.1668 l
0.6153 0.1668 l
0.6158 0.1668 l
0.6163 0.1668 l
0.6168 0.1668 l
0.6173 0.1668 l
0.6178 0.1668 l
0.6183 0.1668 l
0.6187 0.1668 l
0.6192 0.1668 l
0.6197 0.1668 l
0.6202 0.1668 l
0.6207 0.1668 l
0.6212 0.1668 l
0.6217 0.1668 l
0.6222 0.1668 l
0.6227 0.1668 l
0.6231 0.1668 l
0.6236 0.1668 l
0.6241 0.1668 l
0.6246 0.1668 l
0.6251 0.1668 l
0.6256 0.1668 l
0.6261 0.1668 l
0.6266 0.1668 l
0.6270 0.1668 l
0.6275 0.1668 l
0.6280 0.1668 l
0.6285 0.1668 l
0.6290 0.1668 l
0.6295 0.1668 l
0.6300 0.1668 l
0.6305 0.1668 l
0.6310 0.1668 l
0.6314 0.1668 l
0.6319 0.1668 l
0.6324 0.1668 l
0.6329 0.1668 l
0.6334 0.1668 l
0.6339 0.1668 l
0.6344 0.1668 l
0.6349 0.1668 l
0.6354 0.1668 l
0.6358 0.1668 l
0.6363 0.1668 l
0.6368 0.1668 l
0.6373 0.1668 l
0.6378 0.1668 l
0.6383 0.1668 l
0.6388 0.1668 l
0.6393 0.1668 l
0.6397 0.1668 l
0.6402 0.1668 l
0.6407 0.1668 l
0.6412 0.1668 l
0.6417 0.1668 l
0.6422 0.1668 l
0.6427 0.1668 l
0.6432 0.1668 l
0.6437 0.1668 l
0.6441 0.1668 l
0.6446 0.1668 l
0.6451 0.1668 l
0.6456 0.1668 l
0.6461 0.1668 l
0.6466 0.1668 l
0.6471 0.1668 l
0.6476 0.1668 l
0.6480 0.1668 l
0.6485 0.1668 l
0.6490 0.1668 l
0.6495 0.1668 l
0.6500 0.1668 l
0.6505 0.1668 l
0.6510 0.1668 l
0.6515 0.1668 l
0.6520 0.1668 l
0.6524 0.1668 l
0.6529 0.1668 l
0.6534 0.1668 l
0.6539 0.1668 l
0.6544 0.1668 l
0.6549 0.1668 l
0.6554 0.1668 l
0.6559 0.1668 l
0.6563 0.1668 l
0.6568 0.1667 l
0.6573 0.1667 l
0.6578 0.1668 l
0.6583 0.1668 l
0.6588 0.1667 l
0.6593 0.1667 l
0.6598 0.1667 l
0.6603 0.1668 l
0.6607 0.1667 l
0.6612 0.1667 l
0.6617 0.1667 l
0.6622 0.1667 l
0.6627 0.1667 l
0.6632 0.1667 l
0.6637 0.1667 l
0.6642 0.1667 l
0.6646 0.1667 l
0.6651 0.1667 l
0.6656 0.1667 l
0.6661 0.1667 l
0.6666 0.1667 l
0.6671 0.1667 l
0.6676 0.1667 l
0.6681 0.1667 l
0.6686 0.1667 l
0.6690 0.1667 l
0.6695 0.1667 l
0.6700 0.1667 l
0.6705 0.1667 l
0.6710 0.1667 l
0.6715 0.1667 l
0.6720 0.1667 l
0.6725 0.1667 l
0.6729 0.1667 l
0.6734 0.1667 l
0.6739 0.1667 l
0.6744 0.1667 l
0.6749 0.1667 l
0.6754 0.1667 l
0.6759 0.1667 l
0.6764 0.1667 l
0.6769 0.1667 l
0.6773 0.1667 l
0.6778 0.1667 l
0.6783 0.1667 l
0.6788 0.1667 l
0.6793 0.1667 l
0.6798 0.1667 l
0.6803 0.1667 l
0.6808 0.1667 l
0.6812 0.1667 l
0.6817 0.1667 l
0.6822 0.1667 l
0.6827 0.1667 l
0.6832 0.1667 l
0.6837 0.1667 l
0.6842 0.1667 l
0.6847 0.1667 l
0.6852 0.1667 l
0.6856 0.1667 l
0.6861 0.1667 l
0.6866 0.1667 l
0.6871 0.1667 l
0.6876 0.1667 l
0.6881 0.1667 l
0.6886 0.1667 l
0.6891 0.1667 l
0.6895 0.1667 l
0.6900 0.1667 l
0.6905 0.1667 l
0.6910 0.1667 l
0.6915 0.1667 l
0.6920 0.1667 l
0.6925 0.1667 l
0.6930 0.1667 l
0.6935 0.1667 l
0.6939 0.1667 l
0.6944 0.1667 l
0.6949 0.1667 l
0.6954 0.1667 l
0.6959 0.1667 l
0.6964 0.1667 l
0.6969 0.1667 l
0.6974 0.1667 l
0.6979 0.1667 l
0.6983 0.1667 l
0.6988 0.1667 l
0.6993 0.1667 l
0.6998 0.1667 l
0.7003 0.1667 l
0.7008 0.1667 l
0.7013 0.1667 l
0.7018 0.1667 l
0.7022 0.1667 l
0.7027 0.1667 l
0.7032 0.1667 l
0.7037 0.1667 l
0.7042 0.1667 l
0.7047 0.1667 l
0.7052 0.1667 l
0.7057 0.1667 l
0.7062 0.1667 l
0.7066 0.1667 l
0.7071 0.1667 l
0.7076 0.1667 l
0.7081 0.1667 l
0.7086 0.1667 l
0.7091 0.1667 l
0.7096 0.1667 l
0.7101 0.1667 l
0.7105 0.1667 l
0.7110 0.1667 l
0.7115 0.1667 l
0.7120 0.1667 l
0.7125 0.1667 l
0.7130 0.1667 l
0.7135 0.1667 l
0.7140 0.1667 l
0.7145 0.1667 l
0.7149 0.1667 l
0.7154 0.1667 l
0.7159 0.1667 l
0.7164 0.1667 l
0.7169 0.1667 l
0.7174 0.1667 l
0.7179 0.1667 l
0.7184 0.1667 l
0.7188 0.1667 l
0.7193 0.1667 l
0.7198 0.1667 l
0.7203 0.1667 l
0.7208 0.1667 l
0.7213 0.1667 l
0.7218 0.1667 l
0.7223 0.1667 l
0.7228 0.1667 l
0.7232 0.1667 l
0.7237 0.1667 l
0.7242 0.1667 l
0.7247 0.1667 l
0.7252 0.1667 l
0.7257 0.1667 l
0.7262 0.1667 l
0.7267 0.1667 l
0.7271 0.1667 l
0.7276 0.1667 l
0.7281 0.1667 l
0.7286 0.1667 l
0.7291 0.1667 l
0.7296 0.1667 l
0.7301 0.1667 l
0.7306 0.1667 l
0.7311 0.1667 l
0.7315 0.1667 l
0.7320 0.1667 l
0.7325 0.1667 l
0.7330 0.1667 l
0.7335 0.1667 l
0.7340 0.1667 l
0.7345 0.1667 l
0.7350 0.1667 l
0.7354 0.1667 l
0.7359 0.1667 l
0.7364 0.1667 l
0.7369 0.1667 l
0.7374 0.1667 l
0.7379 0.1667 l
0.7384 0.1667 l
0.7389 0.1667 l
0.7394 0.1667 l
0.7398 0.1667 l
0.7403 0.1667 l
0.7408 0.1667 l
0.7413 0.1667 l
0.7418 0.1667 l
0.7423 0.1667 l
0.7428 0.1667 l
0.7433 0.1667 l
0.7437 0.1667 l
0.7442 0.1667 l
0.7447 0.1667 l
0.7452 0.1667 l
0.7457 0.1667 l
0.7462 0.1667 l
0.7467 0.1667 l
0.7472 0.1667 l
0.7477 0.1667 l
0.7481 0.1667 l
0.7486 0.1667 l
0.7491 0.1667 l
0.7496 0.1667 l
0.7501 0.1667 l
0.7506 0.1667 l
0.7511 0.1667 l
0.7516 0.1667 l
0.7520 0.1667 l
0.7525 0.1667 l
0.7530 0.1667 l
0.7535 0.1667 l
0.7540 0.1667 l
0.7545 0.1667 l
0.7550 0.1667 l
0.7555 0.1667 l
0.7560 0.1667 l
0.7564 0.1667 l
0.7569 0.1667 l
0.7574 0.1667 l
0.7579 0.1667 l
0.7584 0.1667 l
0.7589 0.1667 l
0.7594 0.1667 l
0.7599 0.1667 l
0.7604 0.1667 l
0.7608 0.1667 l
0.7613 0.1667 l
0.7618 0.1667 l
0.7623 0.1667 l
0.7628 0.1667 l
0.7633 0.1667 l
0.7638 0.1667 l
0.7643 0.1667 l
0.7647 0.1667 l
0.7652 0.1667 l
0.7657 0.1667 l
0.7662 0.1667 l
0.7667 0.1667 l
0.7672 0.1667 l
0.7677 0.1667 l
0.7682 0.1667 l
0.7687 0.1667 l
0.7691 0.1667 l
0.7696 0.1667 l
0.7701 0.1667 l
0.7706 0.1667 l
0.7711 0.1667 l
0.7716 0.1667 l
0.7721 0.1667 l
0.7726 0.1667 l
0.7730 0.1667 l
0.7735 0.1667 l
0.7740 0.1667 l
0.7745 0.1667 l
0.7750 0.1667 l
0.7755 0.1667 l
0.7760 0.1667 l
0.7765 0.1667 l
0.7770 0.1667 l
0.7774 0.1667 l
0.7779 0.1667 l
0.7784 0.1667 l
0.7789 0.1667 l
0.7794 0.1667 l
0.7799 0.1667 l
0.7804 0.1667 l
0.7809 0.1667 l
0.7813 0.1667 l
0.7818 0.1667 l
0.7823 0.1667 l
0.7828 0.1667 l
0.7833 0.1667 l
0.7838 0.1667 l
0.7843 0.1667 l
0.7848 0.1667 l
0.7853 0.1667 l
0.7857 0.1667 l
0.7862 0.1667 l
0.7867 0.1667 l
0.7872 0.1667 l
0.7877 0.1667 l
0.7882 0.1667 l
0.7887 0.1667 l
0.7892 0.1667 l
0.7896 0.1667 l
0.7901 0.1667 l
0.7906 0.1667 l
0.7911 0.1667 l
0.7916 0.1667 l
0.7921 0.1667 l
0.7926 0.1667 l
0.7931 0.1667 l
0.7936 0.1667 l
0.7940 0.1667 l
0.7945 0.1667 l
0.7950 0.1667 l
0.7955 0.1667 l
0.7960 0.1667 l
0.7965 0.1667 l
0.7970 0.1667 l
0.7975 0.1667 l
0.7979 0.1667 l
0.7984 0.1667 l
0.7989 0.1667 l
0.7994 0.1667 l
0.7999 0.1667 l
0.8004 0.1667 l
0.8009 0.1667 l
0.8014 0.1667 l
0.8019 0.1667 l
0.8023 0.1667 l
0.8028 0.1667 l
0.8033 0.1667 l
0.8038 0.1667 l
0.8043 0.1667 l
0.8048 0.1667 l
0.8053 0.1667 l
0.8058 0.1667 l
0.8062 0.1667 l
0.8067 0.1667 l
0.8072 0.1667 l
0.8077 0.1667 l
0.8082 0.1667 l
0.8087 0.1667 l
0.8092 0.1667 l
0.8097 0.1667 l
0.8102 0.1667 l
0.8106 0.1667 l
0.8111 0.1667 l
0.8116 0.1667 l
0.8121 0.1667 l
0.8126 0.1667 l
0.8131 0.1667 l
0.8136 0.1667 l
0.8141 0.1667 l
0.8145 0.1667 l
0.8150 0.1667 l
0.8155 0.1667 l
0.8160 0.1667 l
0.8165 0.1667 l
0.8170 0.1667 l
0.8175 0.1667 l
0.8180 0.1667 l
0.8185 0.1667 l
0.8189 0.1667 l
0.8194 0.1667 l
0.8199 0.1667 l
0.8204 0.1667 l
0.8209 0.1667 l
0.8214 0.1667 l
0.8219 0.1667 l
0.8224 0.1667 l
0.8229 0.1667 l
0.8233 0.1667 l
0.8238 0.1667 l
0.8243 0.1667 l
0.8248 0.1667 l
0.8253 0.1667 l
0.8258 0.1667 l
0.8263 0.1667 l
0.8268 0.1667 l
0.8272 0.1667 l
0.8277 0.1667 l
0.8282 0.1667 l
0.8287 0.1667 l
0.8292 0.1667 l
0.8297 0.1667 l
0.8302 0.1667 l
0.8307 0.1667 l
0.8312 0.1667 l
0.8316 0.1667 l
0.8321 0.1667 l
0.8326 0.1667 l
0.8331 0.1667 l
0.8336 0.1667 l
0.8341 0.1667 l
0.8346 0.1667 l
0.8351 0.1667 l
0.8355 0.1667 l
0.8360 0.1667 l
0.8365 0.1667 l
0.8370 0.1667 l
0.8375 0.1667 l
0.8380 0.1667 l
0.8385 0.1667 l
0.8390 0.1667 l
0.8395 0.1667 l
0.8399 0.1667 l
0.8404 0.1667 l
0.8409 0.1667 l
0.8414 0.1667 l
0.8419 0.1667 l
0.8424 0.1667 l
0.8429 0.1667 l
0.8434 0.1667 l
0.8438 0.1667 l
0.8443 0.1667 l
0.8448 0.1667 l
0.8453 0.1667 l
0.8458 0.1667 l
0.8463 0.1667 l
0.8468 0.1667 l
0.8473 0.1667 l
0.8478 0.1667 l
0.8482 0.1667 l
0.8487 0.1667 l
0.8492 0.1667 l
0.8497 0.1667 l
0.8502 0.1667 l
0.8507 0.1667 l
0.8512 0.1667 l
0.8517 0.1667 l
0.8521 0.1667 l
0.8526 0.1667 l
0.8531 0.1667 l
0.8536 0.1667 l
0.8541 0.1667 l
0.8546 0.1667 l
0.8551 0.1667 l
0.8556 0.1667 l
0.8561 0.1667 l
0.8565 0.1667 l
0.8570 0.1667 l
0.8575 0.1667 l
0.8580 0.1667 l
0.8585 0.1667 l
0.8590 0.1667 l
0.8595 0.1667 l
0.8600 0.1667 l
0.8604 0.1667 l
0.8609 0.1667 l
0.8614 0.1667 l
0.8619 0.1667 l
0.8624 0.1667 l
0.8629 0.1667 l
0.8634 0.1667 l
0.8639 0.1667 l
0.8644 0.1667 l
0.8648 0.1667 l
0.8653 0.1667 l
0.8658 0.1667 l
0.8663 0.1667 l
0.8668 0.1667 l
0.8673 0.1667 l
0.8678 0.1667 l
0.8683 0.1667 l
0.8687 0.1667 l
0.8692 0.1667 l
0.8697 0.1667 l
0.8702 0.1667 l
0.8707 0.1667 l
0.8712 0.1667 l
0.8717 0.1667 l
0.8722 0.1667 l
0.8727 0.1667 l
0.8731 0.1667 l
0.8736 0.1667 l
0.8741 0.1667 l
0.8746 0.1667 l
0.8751 0.1667 l
0.8756 0.1667 l
0.8761 0.1667 l
0.8766 0.1667 l
0.8770 0.1667 l
0.8775 0.1667 l
0.8780 0.1667 l
0.8785 0.1667 l
0.8790 0.1667 l
0.8795 0.1667 l
0.8800 0.1667 l
0.8805 0.1667 l
0.8810 0.1667 l
0.8814 0.1667 l
0.8819 0.1667 l
0.8824 0.1667 l
0.8829 0.1667 l
0.8834 0.1667 l
0.8839 0.1667 l
0.8844 0.1667 l
0.8849 0.1667 l
0.8854 0.1667 l
0.8858 0.1667 l
0.8863 0.1667 l
0.8868 0.1667 l
0.8873 0.1667 l
0.8878 0.1667 l
0.8883 0.1667 l
0.8888 0.1667 l
0.8893 0.1667 l
0.8897 0.1667 l
0.8902 0.1667 l
0.8907 0.1667 l
0.8912 0.1667 l
0.8917 0.1667 l
0.8922 0.1667 l
0.8927 0.1667 l
0.8932 0.1667 l
0.8937 0.1667 l
0.8941 0.1667 l
0.8946 0.1667 l
0.8951 0.1667 l
0.8956 0.1667 l
0.8961 0.1667 l
0.8966 0.1667 l
0.8971 0.1667 l
0.8976 0.1667 l
0.8980 0.1667 l
0.8985 0.1667 l
0.8990 0.1667 l
0.8995 0.1667 l
0.9000 0.1667 l
0.9005 0.1667 l
0.9010 0.1667 l
0.9015 0.1667 l
0.9020 0.1667 l
0.9024 0.1667 l
0.9029 0.1667 l
0.9034 0.1667 l
0.9039 0.1667 l
0.9044 0.1667 l
0.9049 0.1667 l
0.9054 0.1667 l
0.9059 0.1667 l
0.9063 0.1667 l
0.9068 0.1667 l
0.9073 0.1667 l
0.9078 0.1667 l
0.9083 0.1667 l
0.9088 0.1667 l
0.9093 0.1667 l
0.9098 0.1667 l
0.9103 0.1667 l
0.9107 0.1667 l
0.9112 0.1667 l
0.9117 0.1667 l
0.9122 0.1667 l
0.9127 0.1667 l
0.9132 0.1667 l
0.9137 0.1667 l
0.9142 0.1667 l
0.9146 0.1667 l
0.9151 0.1667 l
0.9156 0.1667 l
0.9161 0.1667 l
0.9166 0.1667 l
0.9171 0.1667 l
0.9176 0.1667 l
0.9181 0.1667 l
0.9186 0.1667 l
0.9190 0.1667 l
0.9195 0.1667 l
0.9200 0.1667 l
0.9205 0.1667 l
0.9210 0.1667 l
0.9215 0.1667 l
0.9220 0.1667 l
0.9225 0.1667 l
0.9229 0.1667 l
0.9234 0.1667 l
0.9239 0.1667 l
0.9244 0.1667 l
0.9249 0.1667 l
0.9254 0.1667 l
0.9259 0.1667 l
0.9264 0.1667 l
0.9269 0.1667 l
0.9273 0.1667 l
0.9278 0.1667 l
0.9283 0.1667 l
0.9288 0.1667 l
0.9293 0.1667 l
0.9298 0.1667 l
0.9303 0.1667 l
0.9308 0.1667 l
0.9312 0.1667 l
0.9317 0.1667 l
0.9322 0.1667 l
0.9327 0.1667 l
0.9332 0.1667 l
0.9337 0.1667 l
0.9342 0.1667 l
0.9347 0.1667 l
0.9352 0.1667 l
0.9356 0.1667 l
0.9361 0.1667 l
0.9366 0.1667 l
0.9371 0.1667 l
0.9376 0.1667 l
0.9381 0.1667 l
0.9386 0.1667 l
0.9391 0.1667 l
0.9395 0.1667 l
0.9400 0.1667 l
0.9405 0.1667 l
0.9410 0.1667 l
0.9415 0.1667 l
0.9420 0.1667 l
0.9425 0.1667 l
0.9430 0.1667 l
0.9435 0.1667 l
0.9439 0.1667 l
0.9444 0.1667 l
0.9449 0.1667 l
0.9454 0.1667 l
0.9459 0.1667 l
0.9464 0.1667 l
0.9469 0.1667 l
0.9474 0.1667 l
0.9479 0.1667 l
0.9483 0.1667 l
0.9488 0.1667 l
0.9493 0.1667 l
0.9498 0.1667 l
0.9503 0.1667 l
0.9508 0.1667 l
0.9513 0.1667 l
0.9518 0.1667 l
0.9522 0.1667 l
0.9527 0.1667 l
0.9532 0.1667 l
0.9537 0.1667 l
0.9542 0.1667 l
0.9547 0.1667 l
0.9552 0.1667 l
0.9557 0.1667 l
0.9562 0.1667 l
0.9566 0.1667 l
0.9571 0.1667 l
0.9576 0.1667 l
0.9581 0.1667 l
0.9586 0.1667 l
0.9591 0.1667 l
0.9596 0.1667 l
0.9601 0.1667 l
0.9605 0.1667 l
0.9610 0.1667 l
0.9615 0.1667 l
0.9620 0.1667 l
0.9625 0.1667 l
0.9630 0.1667 l
0.9635 0.1667 l
0.9640 0.1667 l
0.9645 0.1667 l
0.9649 0.1667 l
0.9654 0.1667 l
0.9659 0.1667 l
0.9664 0.1667 l
0.9669 0.1667 l
0.9674 0.1667 l
0.9679 0.1667 l
0.9684 0.1667 l
0.9688 0.1667 l
0.9693 0.1667 l
0.9698 0.1667 l
0.9703 0.1667 l
0.9708 0.1667 l
0.9713 0.1667 l
0.9718 0.1667 l
0.9723 0.1667 l
0.9728 0.1667 l
0.9732 0.1667 l
0.9737 0.1667 l
0.9742 0.1667 l
0.9747 0.1667 l
0.9752 0.1667 l
0.9757 0.1667 l
0.9762 0.1667 l
0.9767 0.1667 l
0.9771 0.1667 l
0.9776 0.1667 l
0.9781 0.1667 l
0.9786 0.1667 l
0.9791 0.1667 l
0.9796 0.1667 l
0.9801 0.1667 l
0.9806 0.1667 l
0.9811 0.1667 l
0.9815 0.1667 l
0.9820 0.1667 l
0.9825 0.1667 l
0.9830 0.1667 l
0.9835 0.1667 l
0.9840 0.1667 l
0.9845 0.1667 l
0.9850 0.1667 l
0.9854 0.1667 l
0.9859 0.1667 l
0.9864 0.1667 l
0.9869 0.1667 l
0.9874 0.1667 l
0.9879 0.1667 l
0.9884 0.1667 l
0.9889 0.1667 l
0.9894 0.1667 l
0.9898 0.1667 l
0.9903 0.1667 l
0.9908 0.1667 l
0.9913 0.1667 l
0.9918 0.1667 l
0.9923 0.1667 l
0.9928 0.1667 l
0.9933 0.1667 l
0.9937 0.1667 l
0.9942 0.1667 l
0.9947 0.1667 l
0.9952 0.1667 l
0.9957 0.1667 l
0.9962 0.1667 l
0.9967 0.1667 l
0.9972 0.1667 l
0.9977 0.1667 l
0.9981 0.1667 l
0.9986 0.1667 l
0.9991 0.1667 l
0.9996 0.1667 l
1.0001 0.1667 l
1.0006 0.1667 l
1.0011 0.1667 l
1.0016 0.1667 l
1.0020 0.1667 l
1.0025 0.1667 l
1.0030 0.1667 l
1.0035 0.1667 l
1.0040 0.1667 l
1.0045 0.1667 l
1.0050 0.1667 l
1.0055 0.1667 l
1.0060 0.1667 l
1.0064 0.1667 l
1.0069 0.1667 l
1.0074 0.1667 l
1.0079 0.1667 l
1.0084 0.1667 l
1.0089 0.1667 l
1.0094 0.1667 l
1.0099 0.1667 l
1.0104 0.1667 l
1.0108 0.1667 l
1.0113 0.1667 l
1.0118 0.1667 l
1.0123 0.1667 l
1.0128 0.1667 l
1.0133 0.1667 l
1.0138 0.1667 l
1.0143 0.1667 l
1.0147 0.1667 l
1.0152 0.1667 l
1.0157 0.1667 l
1.0162 0.1667 l
1.0167 0.1667 l
1.0172 0.1667 l
1.0177 0.1667 l
1.0182 0.1667 l
1.0187 0.1667 l
1.0191 0.1667 l
1.0196 0.1667 l
1.0201 0.1667 l
1.0206 0.1667 l
1.0211 0.1667 l
1.0216 0.1667 l
1.0221 0.1667 l
1.0226 0.1667 l
1.0230 0.1667 l
1.0235 0.1667 l
1.0240 0.1667 l
1.0245 0.1667 l
1.0250 0.1667 l
1.0255 0.1667 l
1.0260 0.1667 l
1.0265 0.1667 l
1.0270 0.1667 l
1.0274 0.1667 l
1.0279 0.1667 l
1.0284 0.1667 l
1.0289 0.1667 l
1.0294 0.1667 l
1.0299 0.1667 l
1.0304 0.1667 l
1.0309 0.1667 l
1.0313 0.1667 l
1.0318 0.1667 l
1.0323 0.1667 l
1.0328 0.1667 l
1.0333 0.1667 l
1.0338 0.1667 l
1.0343 0.1667 l
1.0348 0.1667 l
1.0353 0.1667 l
1.0357 0.1667 l
1.0362 0.1667 l
1.0367 0.1667 l
1.0372 0.1667 l
1.0377 0.1667 l
1.0382 0.1667 l
1.0387 0.1667 l
1.0392 0.1667 l
1.0396 0.1667 l
1.0401 0.1667 l
1.0406 0.1667 l
1.0411 0.1667 l
1.0416 0.1667 l
1.0421 0.1667 l
1.0426 0.1667 l
1.0431 0.1667 l
1.0436 0.1667 l
1.0440 0.1667 l
1.0445 0.1667 l
1.0450 0.1667 l
1.0455 0.1667 l
1.0460 0.1667 l
1.0465 0.1667 l
1.0470 0.1667 l
1.0475 0.1667 l
1.0479 0.1667 l
1.0484 0.1667 l
1.0489 0.1667 l
1.0494 0.1667 l
1.0499 0.1667 l
1.0504 0.1667 l
1.0509 0.1667 l
1.0514 0.1667 l
1.0519 0.1667 l
1.0523 0.1667 l
1.0528 0.1667 l
1.0533 0.1667 l
1.0538 0.1667 l
1.0543 0.1667 l
1.0548 0.1667 l
1.0553 0.1667 l
1.0558 0.1667 l
1.0562 0.1667 l
1.0567 0.1667 l
1.0572 0.1667 l
1.0577 0.1667 l
1.0582 0.1667 l
1.0587 0.1667 l
1.0592 0.1667 l
1.0597 0.1667 l
1.0602 0.1667 l
1.0606 0.1667 l
1.0611 0.1667 l
1.0616 0.1667 l
1.0621 0.1667 l
1.0626 0.1667 l
1.0631 0.1667 l
1.0636 0.1667 l
1.0641 0.1667 l
1.0645 0.1667 l
1.0650 0.1667 l
1.0655 0.1667 l
1.0660 0.1667 l
1.0665 0.1667 l
1.0670 0.1667 l
1.0675 0.1667 l
1.0680 0.1667 l
1.0685 0.1667 l
1.0689 0.1667 l
1.0694 0.1667 l
1.0699 0.1667 l
1.0704 0.1667 l
1.0709 0.1667 l
1.0714 0.1667 l
1.0719 0.1667 l
1.0724 0.1667 l
1.0729 0.1667 l
1.0733 0.1667 l
1.0738 0.1667 l
1.0743 0.1667 l
1.0748 0.1667 l
1.0753 0.1667 l
1.0758 0.1667 l
1.0763 0.1667 l
1.0768 0.1667 l
1.0772 0.1667 l
1.0777 0.1667 l
1.0782 0.1667 l
1.0787 0.1667 l
1.0792 0.1667 l
1.0797 0.1667 l
1.0802 0.1667 l
1.0807 0.1667 l
1.0812 0.1667 l
1.0816 0.1667 l
1.0821 0.1667 l
1.0826 0.1667 l
1.0831 0.1667 l
1.0836 0.1667 l
1.0841 0.1667 l
1.0846 0.1667 l
1.0851 0.1667 l
1.0855 0.1667 l
1.0860 0.1667 l
1.0865 0.1667 l
1.0870 0.1667 l
1.0875 0.1667 l
1.0880 0.1667 l
1.0885 0.1667 l
1.0890 0.1667 l
1.0895 0.1667 l
1.0899 0.1667 l
1.0904 0.1667 l
1.0909 0.1667 l
1.0914 0.1667 l
1.0919 0.1667 l
1.0924 0.1667 l
1.0929 0.1667 l
1.0934 0.1667 l
1.0938 0.1667 l
1.0943 0.1667 l
1.0948 0.1667 l
1.0953 0.1667 l
1.0958 0.1667 l
1.0963 0.1667 l
1.0968 0.1667 l
1.0973 0.1667 l
1.0978 0.1667 l
1.0982 0.1667 l
1.0987 0.1667 l
1.0992 0.1667 l
1.0997 0.1667 l
1.1002 0.1667 l
1.1007 0.1667 l
1.1012 0.1667 l
1.1017 0.1667 l
1.1021 0.1667 l
1.1026 0.1667 l
1.1031 0.1667 l
1.1036 0.1667 l
1.1041 0.1667 l
1.1046 0.1667 l
1.1051 0.1667 l
1.1056 0.1667 l
1.1061 0.1667 l
1.1065 0.1667 l
1.1070 0.1667 l
1.1075 0.1667 l
1.1080 0.1667 l
1.1085 0.1667 l
1.1090 0.1667 l
1.1095 0.1667 l
1.1100 0.1667 l
1.1104 0.1667 l
1.1109 0.1667 l
1.1114 0.1667 l
1.1119 0.1667 l
1.1124 0.1667 l
1.1129 0.1667 l
1.1134 0.1667 l
1.1139 0.1667 l
1.1144 0.1667 l
1.1148 0.1667 l
1.1153 0.1667 l
1.1158 0.1667 l
1.1163 0.1667 l
1.1168 0.1667 l
1.1173 0.1667 l
1.1178 0.1667 l
1.1183 0.1667 l
1.1187 0.1667 l
1.1192 0.1667 l
1.1197 0.1667 l
1.1202 0.1667 l
1.1207 0.1667 l
1.1212 0.1667 l
1.1217 0.1667 l
1.1222 0.1667 l
1.1227 0.1667 l
1.1231 0.1667 l
1.1236 0.1667 l
1.1241 0.1667 l
1.1246 0.1667 l
1.1251 0.1667 l
1.1256 0.1667 l
1.1261 0.1667 l
1.1266 0.1667 l
1.1270 0.1667 l
1.1275 0.1667 l
1.1280 0.1667 l
1.1285 0.1667 l
1.1290 0.1667 l
1.1295 0.1667 l
1.1300 0.1667 l
1.1305 0.1667 l
1.1310 0.1667 l
1.1314 0.1667 l
1.1319 0.1667 l
1.1324 0.1667 l
1.1329 0.1667 l
1.1334 0.1667 l
1.1339 0.1667 l
1.1344 0.1667 l
1.1349 0.1667 l
1.1354 0.1667 l
1.1358 0.1667 l
1.1363 0.1667 l
1.1368 0.1667 l
1.1373 0.1667 l
1.1378 0.1667 l
1.1383 0.1667 l
1.1388 0.1667 l
1.1393 0.1667 l
1.1397 0.1667 l
1.1402 0.1667 l
1.1407 0.1667 l
1.1412 0.1667 l
1.1417 0.1667 l
1.1422 0.1667 l
1.1427 0.1667 l
1.1432 0.1667 l
1.1437 0.1667 l
1.1441 0.1667 l
1.1446 0.1667 l
1.1451 0.1667 l
1.1456 0.1667 l
1.1461 0.1667 l
1.1466 0.1667 l
1.1471 0.1667 l
1.1476 0.1667 l
1.1480 0.1667 l
1.1485 0.1667 l
1.1490 0.1667 l
1.1495 0.1667 l
1.1500 0.1667 l
1.1501 0.1667 l
s
[/DeviceRGB] SCS
Color1 SC
n
0.1500 0.1500 m
1.1500 0.1500 l
s
n
0.1500 0.8500 m
1.1500 0.8500 l
s
[0.0015 0.0045 ] 0 SD
0.0015 SLW
n
0.2500 0.1500 m
0.2500 0.1600 l
s
n
0.2500 0.8500 m
0.2500 0.8400 l
s
n
0.4500 0.1500 m
0.4500 0.1600 l
s
n
0.4500 0.8500 m
0.4500 0.8400 l
s
n
0.6500 0.1500 m
0.6500 0.1600 l
s
n
0.6500 0.8500 m
0.6500 0.8400 l
s
n
0.8500 0.1500 m
0.8500 0.1600 l
s
n
0.8500 0.8500 m
0.8500 0.8400 l
s
n
1.0500 0.1500 m
1.0500 0.1600 l
s
n
1.0500 0.8500 m
1.0500 0.8400 l
s
n
0.1500 0.1500 m
0.1500 0.1700 l
s
n
0.1500 0.8500 m
0.1500 0.8300 l
s
n
0.3500 0.1500 m
0.3500 0.1700 l
s
n
0.3500 0.8500 m
0.3500 0.8300 l
s
n
0.5500 0.1500 m
0.5500 0.1700 l
s
n
0.5500 0.8500 m
0.5500 0.8300 l
s
n
0.7500 0.1500 m
0.7500 0.1700 l
s
n
0.7500 0.8500 m
0.7500 0.8300 l
s
n
0.9500 0.1500 m
0.9500 0.1700 l
s
n
0.9500 0.8500 m
0.9500 0.8300 l
s
n
1.1500 0.1500 m
1.1500 0.1700 l
s
n
1.1500 0.8500 m
1.1500 0.8300 l
s
/Times-Roman findfont
dup length dict begin
 {1 index /FID ne {def} {pop pop} ifelse} forall
 /Encoding DefEncoding def
 currentdict
end
/Font21 exch definefont pop
/Font21 FFSF
0.1448 0.1247 m
GS
[0.0224 0.0000 0.0000 0.0224 0 0] CC
(0) show
GR
/Font21 FFSF
0.3391 0.1247 m
GS
[0.0224 0.0000 0.0000 0.0224 0 0] CC
(10) show
GR
/Font21 FFSF
0.5391 0.1247 m
GS
[0.0224 0.0000 0.0000 0.0224 0 0] CC
(20) show
GR
/Font21 FFSF
0.7391 0.1247 m
GS
[0.0224 0.0000 0.0000 0.0224 0 0] CC
(30) show
GR
/Font21 FFSF
0.9391 0.1247 m
GS
[0.0224 0.0000 0.0000 0.0224 0 0] CC
(40) show
GR
/Font21 FFSF
1.1391 0.1247 m
GS
[0.0224 0.0000 0.0000 0.0224 0 0] CC
(50) show
GR
/Font21 FFSF
0.5625 0.0635 m
GS
[0.0280 0.0000 0.0000 0.0280 0 0] CC
(Frequency \(Hz\)) show
GR
[] 0 SD
0.0015 SLW
n
0.1500 0.1500 m
0.1500 0.8500 l
s
n
1.1500 0.1500 m
1.1500 0.8500 l
s
n
0.1500 0.2465 m
0.1600 0.2465 l
s
n
1.1500 0.2465 m
1.1400 0.2465 l
s
n
0.1500 0.4063 m
0.1600 0.4063 l
s
n
1.1500 0.4063 m
1.1400 0.4063 l
s
n
0.1500 0.5662 m
0.1600 0.5662 l
s
n
1.1500 0.5662 m
1.1400 0.5662 l
s
n
0.1500 0.7261 m
0.1600 0.7261 l
s
n
1.1500 0.7261 m
1.1400 0.7261 l
s
[0.0015 0.0045 ] 0 SD
0.0015 SLW
n
0.1500 0.1665 m
0.1700 0.1665 l
s
n
1.1500 0.1665 m
1.1300 0.1665 l
s
n
0.1500 0.3264 m
0.1700 0.3264 l
s
n
1.1500 0.3264 m
1.1300 0.3264 l
s
n
0.1500 0.4863 m
0.1700 0.4863 l
s
n
1.1500 0.4863 m
1.1300 0.4863 l
s
n
0.1500 0.6461 m
0.1700 0.6461 l
s
n
1.1500 0.6461 m
1.1300 0.6461 l
s
n
0.1500 0.8060 m
0.1700 0.8060 l
s
n
1.1500 0.8060 m
1.1300 0.8060 l
s
/Font21 FFSF
0.1295 0.1591 m
GS
[0.0224 0.0000 0.0000 0.0224 0 0] CC
(0) show
GR
/Font21 FFSF
0.1295 0.3187 m
GS
[0.0224 0.0000 0.0000 0.0224 0 0] CC
(4) show
GR
/Font21 FFSF
0.1299 0.4788 m
GS
[0.0224 0.0000 0.0000 0.0224 0 0] CC
(8) show
GR
/Font21 FFSF
0.1182 0.6385 m
GS
[0.0224 0.0000 0.0000 0.0224 0 0] CC
(12) show
GR
/Font21 FFSF
0.1182 0.7985 m
GS
[0.0224 0.0000 0.0000 0.0224 0 0] CC
(16) show
GR
/Font21 FFSF
0.0767 0.4403 m
GS
[0.0000 0.0280 -0.0280 0.0000 0 0] CC
(Amplitude) show
GR
[] 0 SD
0.0015 SLW
n
0.1500 0.1500 m
0.1500 0.8500 l
1.1500 0.8500 l
1.1500 0.1500 l
0.1500 0.1500 l
c
s
/Font21 FFSF
0.3967 0.9193 m
GS
[0.0420 0.0000 0.0000 0.0420 0 0] CC
(FFT of displacement response) show
GR
%%Trailer
%%BoundingBox: 33 33 692 565
%%DocumentNeededResources: font Times-Roman
%%EOF
